Name,BirthDate,Division,BodyweightKg,WeightClassKg,Squat1Kg,Squat2Kg,Squat3Kg,Best3SquatKg,Bench1Kg,Bench2Kg,Bench3Kg,Best3BenchKg,Deadlift1Kg,Deadlift2Kg,Deadlift3Kg,Best3DeadliftKg,TotalKg,Place,Team,Sex,Event,Equipment
Ashley Cross,1996-04-04,F-JV,43.4,44,90,-95,-97.5,90,42.5,47.5,-52.5,47.5,105,-115,-115,105,242.5,1,Necedah,F,SBD,Single-ply
Courtney Leak,1995-07-14,F-JV,42.5,44,47.5,52.5,-57.5,52.5,25,-27.5,-27.5,25,57.5,67.5,-72.5,67.5,145,2,Mauston,F,SBD,Single-ply
Elisa Bird,1995-12-08,F-JV,43.4,44,-85,-85,-85,,-47.5,-47.5,-47.5,,85,92.5,97.5,97.5,,DQ,Elizabethton,F,SBD,Single-ply
Alexis Gronowski,1996-09-17,F-JV,43.6,44,-52.5,-52.5,-52.5,,35,40,-45,40,77.5,85,-92.5,85,,DQ,Vasser HS (MI),F,SBD,Single-ply
Kailee Guth,1995-09-23,F-JV,46.8,48,100,105,-107.5,105,37.5,40,-42.5,40,127.5,137.5,-140,137.5,282.5,1,Adams,F,SBD,Single-ply
Marissa Erickson,1996-06-24,F-JV,48,48,65,-72.5,72.5,72.5,30,35,-37.5,35,90,100,107.5,107.5,215,2,Adams,F,SBD,Single-ply
Miranda MacMillan,1997-07-18,F-JV,46.7,48,72.5,85,92.5,92.5,35,37.5,-40,37.5,62.5,72.5,82.5,82.5,212.5,3,KMHS,F,SBD,Single-ply
Kayla Waldera,1997-01-26,F-JV,47.8,48,75,-82.5,-82.5,75,30,35,-37.5,35,75,90,-105,90,200,4,GET,F,SBD,Single-ply
Jocelyn Emerson,1997-06-08,F-JV,47,48,-60,-60,70,70,25,27.5,30,30,70,82.5,-92.5,82.5,182.5,5,GET,F,SBD,Single-ply
Katie Hall,1997-06-29,F-JV,47.2,48,52.5,-62.5,67.5,67.5,30,32.5,-35,32.5,80,-85,-90,80,180,6,Wisconsin Dells,F,SBD,Single-ply
Hannah Oliver,1997-06-09,F-JV,46.7,48,57.5,60,62.5,62.5,27.5,30,32.5,32.5,-65,70,-85,70,165,7,Elizabethton,F,SBD,Single-ply
Tatianna Oliver,1996-07-29,F-JV,46.8,48,-45,-45,45,45,-42.5,-42.5,-42.5,,80,-82.5,82.5,82.5,,DQ,Cordova,F,SBD,Single-ply
Bre Housworth,1996-12-11,F-JV,52,52,100,-110,110,110,47.5,52.5,-57.5,52.5,105,110,115,115,277.5,1,Necedah,F,SBD,Single-ply
Shelby Reukauf,1997-01-22,F-JV,51.4,52,95,-100,-100,95,37.5,42.5,45,45,112.5,122.5,-137.5,122.5,262.5,2,Phillips,F,SBD,Single-ply
Amanda Zielinski,1997-04-28,F-JV,51.8,52,90,-95,95,95,42.5,50,55,55,90,97.5,105,105,255,3,Necedah,F,SBD,Single-ply
Claire Baumgartner,1996-07-10,F-JV,50.6,52,92.5,-97.5,-97.5,92.5,30,-35,-35,30,110,115,117.5,117.5,240,4,Oak Creek HS,F,SBD,Single-ply
MaeAnna Chapin,1995-05-11,F-JV,49,52,-80,80,85,85,40,42.5,45,45,87.5,92.5,100,100,230,5,Omro,F,SBD,Single-ply
LeeAnn Sheley,1996-09-13,F-JV,51.9,52,-62.5,62.5,65,65,32.5,37.5,-40,37.5,77.5,87.5,-100,87.5,190,6,Necedah,F,SBD,Single-ply
Chelsea Strenke,1997-08-12,F-JV,51.6,52,-65,-65,65,65,32.5,-37.5,-37.5,32.5,80,87.5,-100,87.5,185,7,Clear Lake,F,SBD,Single-ply
Danielle Angeli,1996-10-18,F-JV,49,52,-80,-80,-85,,30,35,-40,35,90,97.5,105,105,,DQ,New Lisbon,F,SBD,Single-ply
Amanda Harley,1997-03-26,F-JV,49.3,52,80,87.5,92.5,92.5,-35,-37.5,-40,,92.5,-97.5,102.5,102.5,,DQ,Wisconsin Dells,F,SBD,Single-ply
Paige Hinzmann,1996-03-18,F-JV,49.3,52,-90,90,-95,90,37.5,-42.5,-42.5,37.5,-102.5,-102.5,-102.5,,,DQ,Eau Claire North,F,SBD,Single-ply
Drew Beil,1996-04-22,F-JV,55.3,56,137.5,147.5,-155,147.5,77.5,-82.5,82.5,82.5,130,140,-142.5,140,370,1,Phillips,F,SBD,Single-ply
Leah Morrow,1996-01-22,F-JV,53.6,56,97.5,102.5,-107.5,102.5,50,52.5,-55,52.5,112.5,120,127.5,127.5,282.5,2,River Falls,F,SBD,Single-ply
Cecily Ripley,1996-04-30,F-JV,55.1,56,102.5,110,-115,110,45,47.5,-50,47.5,-107.5,112.5,120,120,277.5,3,River Falls,F,SBD,Single-ply
Cerri Bradley,1996-06-25,F-JV,53.7,56,92.5,-100,-100,92.5,40,-42.5,-42.5,40,105,120,122.5,122.5,255,4,Elizabethton,F,SBD,Single-ply
Kaitlyn Schroeder,1996-02-11,F-JV,52.9,56,-77.5,77.5,87.5,87.5,42.5,52.5,57.5,57.5,82.5,102.5,-107.5,102.5,247.5,5,Holmen,F,SBD,Single-ply
Danielle Bliese,1995-09-26,F-JV,53.6,56,87.5,92.5,-102.5,92.5,40,50,-52.5,50,92.5,100,-115,100,242.5,6,Osceola,F,SBD,Single-ply
Maddy Rienenschneider,1995-10-24,F-JV,55,56,-82.5,87.5,92.5,92.5,45,-50,-50,45,100,-112.5,-117.5,100,237.5,7,New Richmond,F,SBD,Single-ply
Amanda Zimmerman,1997-01-11,F-JV,53.5,56,-75,75,-87.5,75,37.5,42.5,47.5,47.5,92.5,-105,-115,92.5,215,8,Whitehall,F,SBD,Single-ply
Hailey Richter,1997-01-21,F-JV,55.1,56,-65,65,77.5,77.5,-35,35,37.5,37.5,77.5,87.5,92.5,92.5,207.5,9,Neenah,F,SBD,Single-ply
Casey Olson,,F-JV,54.2,56,-60,-60,60,60,32.5,35,37.5,37.5,85,90,92.5,92.5,190,10,GET,F,SBD,Single-ply
Kaitlynn Erickson,1997-08-07,F-JV,53.3,56,-65,-70,70,70,32.5,-42.5,-42.5,32.5,72.5,85,-105,85,187.5,11,Eau Claire North,F,SBD,Single-ply
Michaela Goldammen,,F-JV,53.8,56,-87.5,87.5,97.5,97.5,-30,-30,-30,,102.5,122.5,-125,122.5,,DQ,O'Gorman,F,SBD,Single-ply
Kara Senerik,1997-01-16,F-JV,55.1,56,-80,-80,-80,,42.5,45,50,50,85,-90,90,90,,DQ,Omro,F,SBD,Single-ply
Autumn Herried,1995-09-04,F-JV,58.7,60,-120,120,130,130,50,52.5,-57.5,52.5,107.5,120,130,130,312.5,1,Necedah,F,SBD,Single-ply
Faith Bristow,1996-08-29,F-JV,57.8,60,107.5,-112.5,117.5,117.5,42.5,47.5,-50,47.5,120,132.5,140,140,305,2,WI Dells,F,SBD,Single-ply
Chande Burton,1996-07-07,F-JV,58.9,60,105,-115,-115,105,-50,-50,50,50,100,-110,110,110,265,3,Neenah,F,SBD,Single-ply
Emily Thompson #1,1996-12-07,F-JV,59.1,60,85,95,-105,95,47.5,50,52.5,52.5,-102.5,107.5,117.5,117.5,265,4,Neenah,F,SBD,Single-ply
Erin Kelly #3,1995-07-05,F-JV,59.4,60,85,90,92.5,92.5,45,-47.5,47.5,47.5,97.5,105,115,115,255,5,Omro,F,SBD,Single-ply
Rachel Sprangers,1996-04-24,F-JV,59.5,60,80,-87.5,-87.5,80,45,47.5,-50,47.5,100,110,117.5,117.5,245,6,Kakauna,F,SBD,Single-ply
Emily Herness,1997-05-29,F-JV,58.1,60,85,-95,-95,85,27.5,32.5,37.5,37.5,92.5,105,115,115,237.5,7,Whitehall,F,SBD,Single-ply
Sara Jeffers,1995-08-21,F-JV,59.8,60,72.5,77.5,87.5,87.5,42.5,47.5,-50,47.5,-92.5,92.5,-105,92.5,227.5,8,Omro,F,SBD,Single-ply
McKenzie Lambeck,1996-03-11,F-JV,56.6,60,80,82.5,85,85,32.5,37.5,-42.5,37.5,85,92.5,100,100,222.5,9,GET,F,SBD,Single-ply
KayLynn Abel,1997-06-15,F-JV,57.6,60,70,80,-87.5,80,37.5,42.5,-47.5,42.5,-90,95,100,100,222.5,10,Menasha,F,SBD,Single-ply
Veronica Saylor,1996-11-21,F-JV,59.5,60,-70,70,82.5,82.5,27.5,30,-37.5,30,92.5,100,-105,100,212.5,11,Mauston,F,SBD,Single-ply
Chelsea Williams,1996-07-07,F-JV,60,60,67.5,72.5,77.5,77.5,40,42.5,-45,42.5,92.5,-102.5,-110,92.5,212.5,12,Elizabethton,F,SBD,Single-ply
Cheyanne Messer,,F-JV,60,60,65,-75,75,75,30,32.5,-35,32.5,85,92.5,100,100,207.5,13,Mauston,F,SBD,Single-ply
Carley Miller,1996-09-04,F-JV,60,60,-115,-115,-117.5,,37.5,42.5,-45,42.5,115,-135,-135,115,,DQ,KMHS,F,SBD,Single-ply
Lacey Winters,1997-05-07,F-JV,66.8,67.5,120,127.5,132.5,132.5,52.5,55,57.5,57.5,132.5,142.5,-150,142.5,332.5,1,Necedah,F,SBD,Single-ply
Emily Kopecky,1996-09-08,F-JV,64.9,67.5,115,-117.5,117.5,117.5,40,45,47.5,47.5,132.5,142.5,150,150,315,2,Phillips,F,SBD,Single-ply
Emily Peck,1996-03-08,F-JV,66.1,67.5,112.5,117.5,-127.5,117.5,-52.5,52.5,55,55,117.5,122.5,135,135,307.5,3,Osceola HS,F,SBD,Single-ply
Macy Emery,1995-11-30,F-JV,65.5,67.5,-117.5,-117.5,117.5,117.5,47.5,-57.5,57.5,57.5,115,122.5,130,130,305,4,Necedah,F,SBD,Single-ply
Bethany Haag,1996-07-26,F-JV,61.9,67.5,-102.5,105,112.5,112.5,45,-60,-60,45,125,137.5,142.5,142.5,300,5,New Richmon,F,SBD,Single-ply
Lauren Fisher,1995-10-22,F-JV,64.8,67.5,112.5,-117.5,-117.5,112.5,55,57.5,60,60,107.5,115,-127.5,115,287.5,6,Omro,F,SBD,Single-ply
Chelsea Kiesling,1996-01-31,F-JV,66.2,67.5,117.5,-122.5,-122.5,117.5,50,55,57.5,57.5,100,107.5,110,110,285,7,Necedah,F,SBD,Single-ply
Maryah Carlin,1996-12-26,F-JV,64.6,67.5,90,95,107.5,107.5,45,50,-55,50,112.5,120,125,125,282.5,8,WI Dells,F,SBD,Single-ply
Mary Soble,1995-12-25,F-JV,64.4,67.5,95,102.5,-107.5,102.5,35,47.5,-50,47.5,102.5,112.5,125,125,275,9,Seymour,F,SBD,Single-ply
Alexis Seubert,1996-06-26,F-JV,65.6,67.5,-85,102.5,-110,102.5,35,40,42.5,42.5,102.5,112.5,115,115,260,10,Winnecome,F,SBD,Single-ply
Whitney Guinn,1996-02-16,F-JV,60.6,67.5,85,90,-95,90,50,-57.5,-57.5,50,92.5,105,-112.5,105,245,11,Elizabethton,F,SBD,Single-ply
Ashley Demoe,1996-09-16,F-JV,65.3,67.5,97.5,-102.5,-102.5,97.5,-42.5,-42.5,42.5,42.5,100,105,-112.5,105,245,12,Eau Claire North,F,SBD,Single-ply
Michallie Snyder,1995-11-13,F-JV,65.8,67.5,85,-92.5,-92.5,85,42.5,50,-52.5,50,92.5,105,110,110,245,13,Whitehall,F,SBD,Single-ply
Amanda Zanner,1996-09-07,F-JV,64.7,67.5,85,-90,-90,85,42.5,47.5,50,50,95,100,107.5,107.5,242.5,14,GET,F,SBD,Single-ply
Shayla Keefer,1996-03-11,F-JV,63.3,67.5,82.5,90,-97.5,90,40,45,-50,45,92.5,102.5,105,105,240,15,Elizabethton,F,SBD,Single-ply
Cassie Holderman,1997-04-30,F-JV,61.9,67.5,72.5,77.5,90,90,30,32.5,37.5,37.5,82.5,90,-97.5,90,217.5,16,Wisc Dells,F,SBD,Single-ply
Skylar Murphy,1997-05-01,F-JV,65.5,67.5,67.5,-85,-85,67.5,32.5,37.5,-42.5,37.5,92.5,110,-115,110,215,17,KMHS,F,SBD,Single-ply
Anna Heid,1996-09-10,F-JV,64.4,67.5,-100,-100,-105,,65,70,77.5,77.5,110,-125,125,125,,DQ,Kaukauna,F,SBD,Single-ply
Ashley Salis,1996-01-04,F-JV,67,67.5,-120,-120,-120,,52.5,-57.5,-57.5,52.5,107.5,-115,117.5,117.5,,DQ,Riverdale,F,SBD,Single-ply
Lena Schuster,1996-03-27,F-JV,67.5,67.5,-125,-125,-125,,-50,50,-57.5,50,125,135,142.5,142.5,,DQ,Neenah,F,SBD,Single-ply
Nicole Lynch,1995-09-08,F-JV,73.7,75,125,132.5,135,135,57.5,62.5,-67.5,62.5,140,150,160,160,357.5,1,Necedah,F,SBD,Single-ply
Alyssa Crnkovich,1996-03-17,F-JV,69.8,75,132.5,-142.5,150,150,60,65,-67.5,65,130,140,-142.5,140,355,2,South Milwaukee HS,F,SBD,Single-ply
Autumn Ferg,1996-09-08,F-JV,73.3,75,100,115,135,135,55,62.5,-70,62.5,135,145,-162.5,145,342.5,3,Manawa,F,SBD,Single-ply
Tylinn Houy,1995-08-31,F-JV,72.9,75,115,122.5,130,130,-52.5,-52.5,52.5,52.5,105,115,117.5,117.5,300,4,Necedah,F,SBD,Single-ply
Katilyn Trim,1995-10-24,F-JV,70.5,75,115,-120,-120,115,37.5,-42.5,42.5,42.5,112.5,-117.5,117.5,117.5,275,5,GET,F,SBD,Single-ply
Makenzie Hagerty,1996-12-25,F-JV,73.7,75,102.5,107.5,115,115,-42.5,42.5,45,45,102.5,115,-120,115,275,6,O'Gorman,F,SBD,Single-ply
Kaitlyn Hernandez,1997-03-28,F-JV,72.2,75,-107.5,-107.5,-107.5,,42.5,50,55,55,105,115,120,120,,DQ,Necedah,F,SBD,Single-ply
Emily Rice,1996-07-06,F-JV,76.5,82.5,117.5,122.5,-127.5,122.5,57.5,60,-62.5,60,102.5,112.5,117.5,117.5,300,1,South Milwaukee HS,F,SBD,Single-ply
Christine Hamer,1996-08-15,F-JV,77.7,82.5,100,-107.5,107.5,107.5,52.5,55,-57.5,55,112.5,120,132.5,132.5,295,2,Oshkosh North,F,SBD,Single-ply
Makia Miller,1993-01-05,F-JV,79.4,82.5,112.5,120,122.5,122.5,35,37.5,45,45,115,122.5,-137.5,122.5,290,3,Necedah,F,SBD,Single-ply
Maise Ryan,1996-06-07,F-JV,82,82.5,80,90,95,95,35,40,-42.5,40,115,122.5,127.5,127.5,262.5,4,Mauston,F,SBD,Single-ply
Cassandra Tollefson,1995-11-13,F-JV,81.8,82.5,75,77.5,80,80,35,50,57.5,57.5,102.5,112.5,117.5,117.5,255,5,GET,F,SBD,Single-ply
Konor Aver,1997-05-23,F-JV,82.4,82.5,90,95,-100,95,32.5,35,37.5,37.5,-115,115,120,120,252.5,6,GET,F,SBD,Single-ply
Katelyn Mathews,1996-05-13,F-JV,79.7,82.5,-95,-95,-95,,50,-52.5,-52.5,50,102.5,110,120,120,,DQ,Riverdale,F,SBD,Single-ply
Megan Salyars,1993-07-10,F-JV,81.1,82.5,-75,-75,-75,,,,,,,,,,,DQ,Dewitt,F,SBD,Single-ply
Sami Finocchiaro,1996-09-26,F-JV,86.6,90,132.5,142.5,147.5,147.5,57.5,62.5,65,65,115,120,130,130,342.5,1,Oak Creek,F,SBD,Single-ply
Jennifer Kosinski,1996-09-16,F-JV,87.1,90,120,130,-137.5,130,52.5,60,-70,60,125,137.5,152.5,152.5,342.5,2,Necedah,F,SBD,Single-ply
Andrea Jeffers,1997-03-27,F-JV,89.7,90,130,135,140,140,42.5,47.5,-50,47.5,132.5,137.5,147.5,147.5,335,3,Adams,F,SBD,Single-ply
Ashley Konkel,1995-08-29,F-JV,82.6,90,-102.5,102.5,107.5,107.5,45,47.5,50,50,110,115,120,120,277.5,4,GET,F,SBD,Single-ply
Dawna Steffen,1996-05-24,F-JV,98.7,90+,125,135,145,145,70,75,80,80,120,130,-140,130,355,1,WI Dells,F,SBD,Single-ply
Arizona Shay,1996-04-20,F-JV,121.5,90+,-130,130,137.5,137.5,62.5,67.5,-75,67.5,110,120,-125,120,325,2,Necedah,F,SBD,Single-ply
Miranda Schultz,1996-05-19,F-JV,123.6,90+,-137.5,-137.5,137.5,137.5,57.5,62.5,-65,62.5,110,115,117.5,117.5,317.5,3,GET,F,SBD,Single-ply
Alena Arnold,1996-04-16,F-JV,92.3,90+,75,-77.5,77.5,77.5,-47.5,47.5,50,50,97.5,102.5,115,115,242.5,4,Cordova,F,SBD,Single-ply
Mikayla Rotering,1997-07-01,F-JV,97,90+,125,135,140,140,-52.5,-52.5,-52.5,,112.5,122.5,137.5,137.5,,DQ,Independence,F,SBD,Single-ply
Kenneth Johnson,1997-02-14,M-JV,49.6,52,112.5,120,127.5,127.5,55,60,-65,60,132.5,147.5,152.5,152.5,340,1,Horlick Powerlifting,M,SBD,Single-ply
Kong Xiong,1996-07-23,M-JV,50.7,52,105,115,125,125,60,70,-80,70,115,127.5,-145,127.5,322.5,2,Altoona Powerlifting,M,SBD,Single-ply
Dante Garrett,1997-06-05,M-JV,51.2,52,107.5,120,127.5,127.5,60,67.5,-72.5,67.5,117.5,127.5,-135,127.5,322.5,3,Woodward Academy,M,SBD,Single-ply
Danyal Anguey,1996-05-06,M-JV,51.2,52,95,-105,105,105,57.5,65,70,70,117.5,-127.5,-132.5,117.5,292.5,4,Woodward Academy,M,SBD,Single-ply
Levi Godesby,1995-08-28,M-JV,54.7,56,177.5,190,-197.5,190,102.5,107.5,-117.5,107.5,142.5,150,-162.5,150,447.5,1,Sand Mountain Strength,M,SBD,Single-ply
Mark Miller #5,1996-09-26,M-JV,55.6,56,130,135,140,140,57.5,-62.5,-62.5,57.5,137.5,152.5,-157.5,152.5,350,2,River Falls HS,M,SBD,Single-ply
Andrew Ochoa,1996-07-19,M-JV,53.5,56,125,-130,-132.5,125,57.5,60,-62.5,60,135,142.5,150,150,335,3,Sparta Spartans,M,SBD,Single-ply
Brendan Sewall,1997-02-16,M-JV,54.8,56,110,120,-125,120,60,65,70,70,-135,137.5,145,145,335,4,Neenah Powerlifting,M,SBD,Single-ply
Michael Bent,1995-12-02,M-JV,56,56,115,122.5,-127.5,122.5,55,62.5,-65,62.5,132.5,142.5,145,145,330,5,Holrlide Rebels,M,SBD,Single-ply
Isaiah Love,1998-04-02,M-JV,55.3,56,-110,-110,110,110,62.5,70,-75,70,130,142.5,-152.5,142.5,322.5,6,Woodward Academy,M,SBD,Single-ply
Dylan Trinidad,1997-08-20,M-JV,55.5,56,120,125,127.5,127.5,57.5,62.5,-65,62.5,120,127.5,130,130,320,7,Necedah,M,SBD,Single-ply
Joshua Hawn,1995-09-03,M-JV,55.4,56,97.5,102.5,-107.5,102.5,62.5,67.5,-72.5,67.5,135,142.5,147.5,147.5,317.5,8,Chequamegon,M,SBD,Single-ply
Kenny Oberlin,1996-09-26,M-JV,55.9,56,110,117.5,120,120,50,55,62.5,62.5,125,132.5,-150,132.5,315,9,River Falls HS,M,SBD,Single-ply
Dedrrick Johnson,1996-07-12,M-JV,58.9,60,135,-145,145,145,75,82.5,90,90,157.5,172.5,182.5,182.5,417.5,1,Woodward Academy,M,SBD,Single-ply
Eion Donelan,1995-03-18,M-JV,59.9,60,122.5,140,-155,140,97.5,102.5,105,105,145,157.5,-165,157.5,402.5,2,O'Gorman,M,SBD,Single-ply
Gianni Phillips,1997-10-08,M-JV,59.5,60,117.5,127.5,135,135,90,92.5,-95,92.5,147.5,-155,155,155,382.5,3,Clarinda Academy,M,SBD,Single-ply
Shawn Kaiser,1995-07-07,M-JV,59.3,60,-130,130,-147.5,130,60,67.5,70,70,142.5,160,170,170,370,4,River Falls Powerlifting,M,SBD,Single-ply
Lavon Schwartz,1996-08-05,M-JV,59.8,60,112.5,-120,-120,112.5,70,-80,80,80,142.5,160,-180,160,352.5,5,Whitehall,M,SBD,Single-ply
Nathan Upchurch,1995-12-21,M-JV,60,60,-130,-132.5,135,135,65,70,-72.5,70,127.5,142.5,-152.5,142.5,347.5,6,Appleton Xavier,M,SBD,Single-ply
Brian Grove,1997-05-12,M-JV,60,60,130,-137.5,-137.5,130,57.5,-62.5,62.5,62.5,-140,140,150,150,342.5,7,River Falls Powerlifting,M,SBD,Single-ply
Ryan Wallner,1996-12-16,M-JV,59.1,60,-127.5,127.5,-140,127.5,62.5,-67.5,-67.5,62.5,127.5,137.5,147.5,147.5,337.5,8,Neenah Powerlifting,M,SBD,Single-ply
Trevor Fuller,1996-02-13,M-JV,66.3,67.5,190,-202.5,202.5,202.5,85,92.5,97.5,97.5,167.5,-180,180,180,480,1,Whitnall,M,SBD,Single-ply
Gage Stuttgen,1996-02-14,M-JV,66.4,67.5,155,167.5,170,170,102.5,112.5,117.5,117.5,167.5,182.5,-192.5,182.5,470,2,GET,M,SBD,Single-ply
Jerry Murray,1996-02-15,M-JV,65.9,67.5,165,175,-180,175,110,-115,-115,110,160,175,-185,175,460,3,Abington Heights,M,SBD,Single-ply
Rasheem Stuart,1996-02-16,M-JV,66.7,67.5,162.5,-182.5,-182.5,162.5,82.5,92.5,-97.5,92.5,157.5,172.5,175,175,430,4,Woodward Heights,M,SBD,Single-ply
Dylan Tschumper,1996-02-17,M-JV,64.3,67.5,152.5,160,165,165,67.5,72.5,77.5,77.5,157.5,170,180,180,422.5,5,River Falls HS,M,SBD,Single-ply
Erik Cabral,1996-02-18,M-JV,64.9,67.5,142.5,152.5,160,160,-85,85,90,90,155,167.5,170,170,420,6,St. Mary Central,M,SBD,Single-ply
Allan Wollenberg,1996-02-19,M-JV,66.4,67.5,142.5,157.5,-162.5,157.5,72.5,77.5,-82.5,77.5,185,-192.5,-192.5,185,420,7,New Richmond,M,SBD,Single-ply
Greg Engichy,1996-02-20,M-JV,67,67.5,-157.5,165,172.5,172.5,72.5,77.5,-80,77.5,135,152.5,162.5,162.5,412.5,8,Appleton Xavier,M,SBD,Single-ply
Zachary Barfknecht,1996-02-21,M-JV,65.4,67.5,-107.5,155,-167.5,155,80,-85,-85,80,-155,162.5,175,175,410,9,Appleton Xavier,M,SBD,Single-ply
Kyle Polster,1996-02-22,M-JV,65.8,67.5,135,142.5,147.5,147.5,77.5,82.5,-85,82.5,162.5,172.5,180,180,410,10,Phillips HS,M,SBD,Single-ply
Marcell Bennett,1996-02-23,M-JV,67.4,67.5,-122.5,135,140,140,97.5,-107.5,-110,97.5,157.5,-175,-175,157.5,395,11,Lakeside Academy,M,SBD,Single-ply
Zach Newsome,1996-02-25,M-JV,65.8,67.5,132.5,140,150,150,67.5,72.5,-77.5,72.5,155,170,-190,170,392.5,12,Neenah Powerlifting,M,SBD,Single-ply
Tyler Logan,1996-02-24,M-JV,66.6,67.5,130,137.5,147.5,147.5,80,82.5,85,85,142.5,150,160,160,392.5,13,Abington Heights,M,SBD,Single-ply
Andrew Lamberson,1996-02-26,M-JV,66.2,67.5,125,-137.5,-137.5,125,72.5,82.5,-85,82.5,142.5,160,167.5,167.5,375,14,Whitehall,M,SBD,Single-ply
Eric Smith #12,1996-02-27,M-JV,66,67.5,-127.5,130,-132.5,130,82.5,90,-95,90,145,-152.5,-152.5,145,365,15,Clarinda Academy,M,SBD,Single-ply
Sam Teumer,1996-02-28,M-JV,66.5,67.5,110,120,130,130,60,70,72.5,72.5,127.5,147.5,-157.5,147.5,350,16,Necedah,M,SBD,Single-ply
Earl Taylor,1996-03-19,M-JV,62.8,67.5,-105,-105,-105,,85,87.5,-90,87.5,152.5,157.5,-162.5,157.5,,DQ,Cordoua,M,SBD,Single-ply
Warren Gephart,1996-03-03,M-JV,64.8,67.5,-155,-167.5,-167.5,,97.5,-105,-105,97.5,-165,-170,-182.5,,,DQ,Lakeside Academy,M,SBD,Single-ply
Kyle Parsley-R,1996-02-29,M-JV,65.7,67.5,-122.5,-122.5,-122.5,,100,105,-115,105,-170,-170,-190,,,DQ,Big Rapids MI,M,SBD,Single-ply
Kalvin Kuepper,1996-03-02,M-JV,66.5,67.5,-145,-145,-145,,-72.5,72.5,77.5,77.5,145,155,162.5,162.5,,DQ,St. Mary Central,M,SBD,Single-ply
Andy Bonnett,1996-03-04,M-JV,66.7,67.5,-142.5,-142.5,-142.5,,-80,-80,,,-150,,,,,DQ,Oostburg,M,SBD,Single-ply
Eddie Reader,1995-12-17,M-G,60.6,67.5,142.5,-147.5,-147.5,142.5,72.5,77.5,80,80,147.5,152.5,155,155,377.5,G,Oak Creek,M,SBD,Single-ply
Dustin Van Asten,1996-03-06,M-JV,73.4,75,-200,200,217.5,217.5,107.5,117.5,127.5,127.5,215,232.5,250,250,595,1,Kimberly,M,SBD,Single-ply
Antwain Robinson,1996-03-07,M-JV,74.8,75,175,182.5,195,195,102.5,-105,105,105,220,-227.5,227.5,227.5,527.5,2,Clarinda Academy,M,SBD,Single-ply
Jacob Stuttgen,1996-03-08,M-JV,74,75,177.5,190,197.5,197.5,-90,97.5,-100,97.5,197.5,210,220,220,515,3,Fall Creek,M,SBD,Single-ply
Ryan Gray,1996-03-09,M-JV,73.2,75,177.5,182.5,190,190,115,122.5,-127.5,122.5,185,190,200,200,512.5,4,North High Huskies,M,SBD,Single-ply
Jeff Alvarado,1996-03-10,M-JV,73.4,75,170,-190,-190,170,110,125,130,130,180,195,-202.5,195,495,5,Woodward Academy,M,SBD,Single-ply
Felipe Lopez,1996-03-11,M-JV,74.2,75,155,-170,-170,155,127.5,-136,136,136,177.5,192.5,-207.5,192.5,483.5,6,Lakeside Academy,M,SBD,Single-ply
Eric Hupf,1996-03-13,M-JV,72.2,75,-177.5,177.5,195,195,75,-80,80,80,170,180,187.5,187.5,462.5,7,Neenah Powerlifting,M,SBD,Single-ply
Nick Baumann,1996-03-14,M-JV,72.7,75,185,-190,-190,185,85,90,92.5,92.5,175,-185,185,185,462.5,8,Oak Creek,M,SBD,Single-ply
Collin Schmidt,1996-03-12,M-JV,74.5,75,150,160,167.5,167.5,-97.5,97.5,102.5,102.5,180,192.5,-202.5,192.5,462.5,9,St. Mary Central,M,SBD,Single-ply
Elisha Ikhumhen,1996-03-13,M-JV,71.9,75,-152.5,152.5,167.5,167.5,80,87.5,92.5,92.5,165,177.5,185,185,445,10,Marquette Hilltoppers,M,SBD,Single-ply
Jacob Hughes #4,1996-03-14,M-JV,74.4,75,150,165,172.5,172.5,72.5,80,-85,80,157.5,170,182.5,182.5,435,11,Marquette Hilltoppers,M,SBD,Single-ply
Marshall Stock,1996-03-15,M-JV,72.9,75,145,155,165,165,67.5,-72.5,72.5,72.5,180,195,-200,195,432.5,12,Kaukauna,M,SBD,Single-ply
Caleb Hearn,1996-03-16,M-JV,74.2,75,150,-165,-165,150,75,80,-92.5,80,187.5,195,-215,195,425,13,Cordova,M,SBD,Single-ply
Daltin Lyngen,1996-03-17,M-JV,74.1,75,137.5,142.5,147.5,147.5,80,90,-92.5,90,175,180,-210,180,417.5,14,GET,M,SBD,Single-ply
Brandon Barth,1996-03-18,M-JV,73.5,75,-142.5,142.5,150,150,77.5,-82.5,-82.5,77.5,175,185,-195,185,412.5,15,Menasha Powerlifting,M,SBD,Single-ply
Nickolai Schneckloth,1996-03-19,M-JV,71.9,75,-125,-147.5,147.5,147.5,67.5,-75,-75,67.5,175,185,190,190,405,16,Kasson,M,SBD,Single-ply
Michael Semanek,1996-03-22,M-JV,74.6,75,145,-152.5,152.5,152.5,85,90,92.5,92.5,157.5,-170,-170,157.5,402.5,17,Appleton Xavier,M,SBD,Single-ply
Sean Kositzka,1996-03-23,M-JV,73.7,75,-122.5,-137.5,-137.5,,-92.5,,,,,,,,,DQ,Chetek,M,SBD,Single-ply
Nate Runde,1996-03-24,M-JV,80,82.5,185,200,-212.5,200,90,97.5,102.5,102.5,195,210,227.5,227.5,530,1,Kaukauna Powerlifting,M,SBD,Single-ply
Demonta Harris,1996-03-25,M-JV,79.3,82.5,167.5,187.5,-200,187.5,90,102.5,110,110,165,-182.5,187.5,187.5,485,2,Woodward Academy,M,SBD,Single-ply
Wayne Miller-R,1996-03-26,M-JV,81.3,82.5,-147.5,155,162.5,162.5,105,115,-120,115,-195,195,205,205,482.5,3,Big Rapids MI,M,SBD,Single-ply
Alex Seng,1996-03-27,M-JV,81.2,82.5,155,170,-175,170,92.5,100,105,105,157.5,-170,180,180,455,4,Pynette,M,SBD,Single-ply
Cole Sylla,1996-03-28,M-JV,81.6,82.5,-157.5,-157.5,-157.5,,77.5,-87.5,87.5,87.5,-167.5,167.5,185,185,,DQ,GET,M,SBD,Single-ply
Kyle Salzwedel,1996-03-29,M-JV,106.1,110,-235,-235,235,235,112.5,127.5,135,135,185,197.5,205,205,575,1,GET,M,SBD,Single-ply
Alex Smith #13,1996-03-30,M-JV,104.9,110,172.5,-192.5,192.5,192.5,105,115,122.5,122.5,205,222.5,-240,222.5,537.5,2,Woodward Academy,M,SBD,Single-ply
Kyle Palecek,1996-06-23,M-JV,106.6,110,-195,195,-210,195,107.5,-117.5,117.5,117.5,205,222.5,-242.5,222.5,535,3,Chequamegon,M,SBD,Single-ply
Austin Galvan,1996-03-24,M-JV,101.6,110,152.5,172.5,-192.5,172.5,107.5,115,-120,115,192.5,235,-247.5,235,522.5,4,Machesney Park,M,SBD,Single-ply
Demetrius Neloms,1996-08-12,M-JV,102.2,110,-170,-170,170,170,97.5,100,-107.5,100,192.5,205,227.5,227.5,497.5,5,Cordova,M,SBD,Single-ply
Corey Cantu,1996-11-09,M-JV,103.2,110,177.5,-185,-187.5,177.5,85,95,100,100,177.5,-187.5,187.5,187.5,465,6,GET,M,SBD,Single-ply
Sam Coutu,1995-10-28,M-JV,107.4,110,-237.5,-237.5,-240,,-90,,,,-205,,,,,DQ,Appleton Xavier,M,SBD,Single-ply
Sam Kelly,1995-09-02,M-JV,115.5,125,240,-255,-255,240,150,160,172.5,172.5,210,222.5,235,235,647.5,1,Kaukauna,M,SBD,Single-ply
Conor Sheehy,1996-07-24,M-JV,113.6,125,207.5,225,-232.5,225,105,-115,-115,105,227.5,245,260,260,590,2,Marquette University HS,M,SBD,Single-ply
Austin Winters,1995-11-12,M-JV,111.1,125,217.5,245,255,255,132.5,-147.5,-147.5,132.5,177.5,190,200,200,587.5,3,Necedah,M,SBD,Single-ply
Brandon Fonstad,1995-06-30,M-JV,111,125,225,232.5,240,240,102.5,107.5,110,110,205,212.5,-215,212.5,562.5,4,GET,M,SBD,Single-ply
Nicholas Skomaroske,1996-03-04,M-JV,156,125+,-312.5,-312.5,312.5,312.5,122.5,130,-142.5,130,225,240,250,250,692.5,1,Phillips HS,M,SBD,Single-ply
Spencer Stokes,1996-02-10,M-JV,132.8,125+,-220,220,227.5,227.5,92.5,95,97.5,97.5,177.5,182.5,192.5,192.5,517.5,2,Omro Powerlifting,M,SBD,Single-ply
Isaac Webster,1995-12-20,M-JV,147.3,125+,-177.5,-177.5,177.5,177.5,122.5,-137.5,137.5,137.5,145,160,172.5,172.5,487.5,3,Woodward Academy,M,SBD,Single-ply
Geoffrey Adams,1996-12-06,M-JV,130.1,125+,-70,-70,-70,,72.5,75,80,80,162.5,167.5,177.5,177.5,,DQ,Cordova,M,SBD,Single-ply
Shannon Rattunde,1994-02-25,F-V,43.9,44,90,97.5,105,105,47.5,50,-52.5,50,105,115,122.5,122.5,277.5,1,Necedah,F,SBD,Single-ply
Selena Alexander,1994-08-21,F-V,42.1,44,-82.5,85,90,90,37.5,42.5,45,45,105,112.5,120,120,255,2,Adams,F,SBD,Single-ply
Celina Johnston,1994-11-11,F-V,44,44,80,90,97.5,97.5,35,40,45,45,87.5,97.5,-115,97.5,240,3,Necedah,F,SBD,Single-ply
Julia Devine,1994-06-01,F-V,41.9,44,70,82.5,-87.5,82.5,40,45,-47.5,45,90,97.5,-105,97.5,225,4,Holmen,F,SBD,Single-ply
Maria VandeWettering,1995-04-28,F-V,43.3,44,65,70,75,75,35,37.5,-42.5,37.5,70,80,-92.5,80,192.5,5,Kaukauna,F,SBD,Single-ply
Savannah May,1994-05-26,F-V,47.9,48,107.5,115,122.5,122.5,67.5,72.5,85,85,107.5,117.5,122.5,122.5,330,1,Necedah,F,SBD,Single-ply
Laura Saueressig,1995-07-18,F-V,46.9,48,110,115,120,120,45,47.5,50,50,115,120,125,125,295,2,Oostburg,F,SBD,Single-ply
Marissa Peterson,1996-02-28,F-V,47.5,48,85,90,95,95,47.5,-52.5,52.5,52.5,95,105,115,115,262.5,3,Necedah,F,SBD,Single-ply
Stacey Solis,1995-07-07,F-V,47.9,48,-100,100,-107.5,100,42.5,45,47.5,47.5,100,107.5,-115,107.5,255,4,Calhoun,F,SBD,Single-ply
Tiffany Leurquin,1994-03-24,F-V,46.5,48,85,-92.5,-92.5,85,40,45,50,50,85,95,100,100,235,5,Neenah,F,SBD,Single-ply
Autumn Freeman,1994-09-14,F-V,47.8,48,-82.5,82.5,95,95,32.5,35,-37.5,35,82.5,-92.5,92.5,92.5,222.5,6,Sparta,F,SBD,Single-ply
Sara VandeWettering,1994-04-27,F-V,47.6,48,70,75,85,85,37.5,40,42.5,42.5,80,92.5,-110,92.5,220,7,Kakauna,F,SBD,Single-ply
Sarah Geier,1995-03-01,F-V,45.7,48,-82.5,-82.5,82.5,82.5,30,35,-42.5,35,85,95,-102.5,95,212.5,8,Waterford,F,SBD,Single-ply
Libby McRaven,1995-07-29,F-V,48,48,85,90,-95,90,25,30,-32.5,30,85,87.5,90,90,210,9,Eau Claire North,F,SBD,Single-ply
Krystie Kettlewell,1996-06-09,F-V,47.4,48,95,-100,-100,95,-52.5,-52.5,-52.5,,105,-110,-115,105,,DQ,Omro,F,SBD,Single-ply
Kim Johnson,1994-04-13,F-V,50.4,52,125,-137.5,-137.5,125,-57.5,-57.5,57.5,57.5,137.5,147.5,-150,147.5,330,1,Racine Horlick,F,SBD,Single-ply
Morgan Schillinger,1995-05-04,F-V,51.1,52,112.5,117.5,122.5,122.5,45,50,52.5,52.5,132.5,142.5,147.5,147.5,322.5,2,Phillips,F,SBD,Single-ply
Michelle Sullwold,1994-05-23,F-V,50.5,52,-125,125,-130,125,55,-60,60,60,122.5,130,-135,130,315,3,Clear Lake,F,SBD,Single-ply
Abby Guggenbuehl,1994-05-22,F-V,50.7,52,105,-115,115,115,50,52.5,55,55,110,117.5,122.5,122.5,292.5,4,La Crosse Logan,F,SBD,Single-ply
Hallie Hackl,1994-09-18,F-V,52,52,100,105,110,110,45,50,-52.5,50,92.5,100,112.5,112.5,272.5,5,Wisconsin Dells,F,SBD,Single-ply
Deseray Schell,1994-12-25,F-V,50.8,52,87.5,97.5,-100,97.5,45,50,52.5,52.5,100,102.5,-110,102.5,252.5,6,Osceola HS,F,SBD,Single-ply
Ariel Baumel,1995-06-30,F-V,51.8,52,87.5,-100,102.5,102.5,37.5,45,-47.5,45,92.5,102.5,-112.5,102.5,250,7,Necedah,F,SBD,Single-ply
Renee King,1994-08-24,F-V,51.4,52,92.5,95,-100,95,40,42.5,-45,42.5,87.5,92.5,100,100,237.5,8,Omro,F,SBD,Single-ply
Kendra Stuttgen,1993-08-25,F-V,55.1,56,142.5,157.5,162.5,162.5,65,70,-72.5,70,135,-147.5,-147.5,135,367.5,1,Fall Creek,F,SBD,Single-ply
Saray Hernandez,1994-07-16,F-V,55.2,56,-142.5,142.5,157.5,157.5,60,67.5,-75,67.5,-137.5,137.5,-157.5,137.5,362.5,2,Racine Horlick,F,SBD,Single-ply
Bobbie Bush,1994-05-19,F-V,54.5,56,-142.5,-142.5,142.5,142.5,-67.5,67.5,-70,67.5,135,142.5,-150,142.5,352.5,3,Omro,F,SBD,Single-ply
Alexandra Ziepke,1996-02-06,F-V,54.8,56,130,137.5,-142.5,137.5,50,57.5,-62.5,57.5,115,125,135,135,330,4,Neenah,F,SBD,Single-ply
Michelle Wallner,1995-05-03,F-V,54.6,56,-122.5,122.5,127.5,127.5,55,-60,60,60,127.5,137.5,-142.5,137.5,325,5,Neenah,F,SBD,Single-ply
Megan Kutchenriter,1995-03-23,F-V,52.3,56,112.5,120,125,125,52.5,57.5,60,60,117.5,125,135,135,320,6,Omro,F,SBD,Single-ply
Sarah Lang,1994-07-29,F-V,55.9,56,105,-115,117.5,117.5,52.5,57.5,-60,57.5,100,-112.5,115,115,290,7,Neenah,F,SBD,Single-ply
Renee Blohowiak,1993-12-15,F-V,56,56,107.5,117.5,-125,117.5,57.5,-60,60,60,107.5,112.5,-117.5,112.5,290,8,South Milwaukee HS,F,SBD,Single-ply
Jackie Chilsen,1994-06-22,F-V,55.2,56,105,112.5,-117.5,112.5,45,52.5,-60,52.5,105,115,-120,115,280,9,New Richmond,F,SBD,Single-ply
Britni Hicks,1995-10-02,F-V,56.2,60,140,147.5,-152.5,147.5,-65,65,67.5,67.5,137.5,147.5,150,150,365,1,Calhoun,F,SBD,Single-ply
Teagan Schwab,1996-05-13,F-V,59,60,130,-147.5,152.5,152.5,-60,-62.5,62.5,62.5,140,150,-152.5,150,365,2,Neenah,F,SBD,Single-ply
Emily Pelky,1994-09-21,F-V,59.8,60,117.5,-127.5,127.5,127.5,55,60,-62.5,60,132.5,145,152.5,152.5,340,3,Seymour,F,SBD,Single-ply
Cassy Freeman,1995-02-08,F-V,56.5,60,117.5,122.5,127.5,127.5,67.5,72.5,75,75,130,-140,-140,130,332.5,4,Phillips,F,SBD,Single-ply
Cheyann Maloney,1995-11-01,F-V,59.5,60,130,-142.5,-142.5,130,52.5,-60,-60,52.5,130,140,150,150,332.5,5,Neenah,F,SBD,Single-ply
Christina Schumer,1995-02-02,F-V,57.2,60,115,125,127.5,127.5,47.5,52.5,57.5,57.5,135,145,-152.5,145,330,6,Necedah,F,SBD,Single-ply
Cassie Limberg,1994-05-30,F-V,58.3,60,112.5,-120,120,120,50,55,57.5,57.5,135,142.5,-157.5,142.5,320,7,Oostburg,F,SBD,Single-ply
Judy Slamka,1994-12-01,F-V,59.5,60,120,125,127.5,127.5,65,70,-72.5,70,107.5,120,-132.5,120,317.5,8,South Milwaukee HS,F,SBD,Single-ply
Hannah Zimmer,1995-02-27,F-V,56.4,60,117.5,-125,-130,117.5,-57.5,57.5,65,65,117.5,127.5,-137.5,127.5,310,9,Eau Claire north,F,SBD,Single-ply
Judelle Snider,1994-11-16,F-V,58.5,60,102.5,-112.5,112.5,112.5,57.5,-67.5,-67.5,57.5,102.5,125,-130,125,295,10,Idaho,F,SBD,Single-ply
Laura Marsolek,1994-03-14,F-V,59,60,100,105,107.5,107.5,55,57.5,-60,57.5,107.5,112.5,117.5,117.5,282.5,11,Independence,F,SBD,Single-ply
Kayla Kranzusch,1994-11-22,F-V,56.4,60,107.5,115,-120,115,40,-45,-52.5,40,112.5,120,-122.5,120,275,12,Seymour,F,SBD,Single-ply
Chelsea Taylor,1994-02-02,F-V,59.2,60,100,-107.5,-107.5,100,52.5,60,-65,60,102.5,112.5,-125,112.5,272.5,13,Elizabethton,F,SBD,Single-ply
Danni Williamson,1995-09-16,F-V,59,60,40,-42.5,47.5,47.5,25,30,-37.5,30,75,80,87.5,87.5,165,14,,F,SBD,Single-ply
Abigail Caudill,1994-05-17,F-V,60,60,-115,-125,-125,,50,-62.5,-62.5,50,97.5,110,117.5,117.5,,DQ,Team Idaho,F,SBD,Single-ply
Shelby Barry,1994-08-03,F-V,62.7,67.5,142.5,150,165,165,72.5,77.5,-82.5,77.5,150,-182.5,-182.5,150,392.5,1,WI Dells,F,SBD,Single-ply
Eva Hambrick,1995-04-23,F-V,64.2,67.5,125,-135,140,140,62.5,67.5,70,70,135,147.5,152.5,152.5,362.5,2,Eau Claire North,F,SBD,Single-ply
Hannah Morrow,1994-04-14,F-V,67.2,67.5,147.5,-157.5,-157.5,147.5,60,62.5,-65,62.5,135,142.5,150,150,360,3,River Falls,F,SBD,Single-ply
Kaitlyn Herman,1994-08-09,F-V,62.5,67.5,140,147.5,-162.5,147.5,52.5,62.5,-70,62.5,135,145,-150,145,355,4,Appleton North,F,SBD,Single-ply
Courtney Johnson,1994-03-24,F-V,66,67.5,135,-142.5,142.5,142.5,65,70,75,75,122.5,127.5,130,130,347.5,5,River Falls,F,SBD,Single-ply
Kayley Blaha,1994-10-21,F-V,65.1,67.5,105,117.5,-125,117.5,55,60,-62.5,60,125,137.5,147.5,147.5,325,6,Whitehall,F,SBD,Single-ply
Emilie Anderson,1993-12-19,F-V,66,67.5,132.5,-145,-145,132.5,67.5,-72.5,-75,67.5,112.5,125,-150,125,325,7,Bangor,F,SBD,Single-ply
Colleen Barnstable,1995-08-09,F-V,66.3,67.5,137.5,-147.5,-147.5,137.5,-55,55,-65,55,107.5,117.5,125,125,317.5,8,Whitnall,F,SBD,Single-ply
Stephanie Wickert,1994-05-02,F-V,63.4,67.5,-115,-120,120,120,60,62.5,-67.5,62.5,115,117.5,-125,117.5,300,9,South Milwaukee HS,F,SBD,Single-ply
Nikita Fetter,1995-02-12,F-V,63,67.5,-112.5,-120,-120,,-47.5,47.5,-50,47.5,115,-127.5,-127.5,115,,DQ,Beaver Dam,F,SBD,Single-ply
Amanda Cole #2,1994-04-11,F-V,63,67.5,-117.5,-117.5,-117.5,,42.5,52.5,-55,52.5,117.5,-127.5,-132.5,117.5,,DQ,KMHS,F,SBD,Single-ply
Effie Oates,1993-04-05,F-V,66.8,67.5,130,135,-152.5,135,-72.5,-72.5,-72.5,,115,122.5,-135,122.5,,DQ,Kelly Walsh HS,F,SBD,Single-ply
Shayln Kuehnl,1995-05-11,F-V,73.5,75,162.5,175,-187.5,175,82.5,87.5,92.5,92.5,142.5,152.5,-160,152.5,420,1,Seymour(independent),F,SBD,Single-ply
Darby Martin,1994-12-22,F-V,73.5,75,137.5,147.5,-155,147.5,80,85,90,90,125,-140,142.5,142.5,380,2,Eau Claire North,F,SBD,Single-ply
Mykala Myhre,1995-05-01,F-V,73.1,75,135,142.5,-147.5,142.5,67.5,75,77.5,77.5,115,125,132.5,132.5,352.5,3,Necedah,F,SBD,Single-ply
Aly Ries,1994-04-17,F-V,73.1,75,125,135,-142.5,135,-52.5,52.5,62.5,62.5,125,140,145,145,342.5,4,KMHS,F,SBD,Single-ply
Anna Brettingen,1995-04-21,F-V,72.2,75,-132.5,-132.5,132.5,132.5,-72.5,72.5,-77.5,72.5,125,-135,135,135,340,5,River Falls HS,F,SBD,Single-ply
Karla Bletran,1994-11-18,F-V,73.6,75,130,-137.5,-137.5,130,-52.5,52.5,60,60,130,-140,140,140,330,6,Neenah,F,SBD,Single-ply
Crystal Apfel,1994-06-11,F-V,73.7,75,-130,130,-140,130,52.5,-55,55,55,135,-140,142.5,142.5,327.5,7,Oak Creek,F,SBD,Single-ply
Emily Olsen,1994-10-24,F-V,72.1,75,-102.5,112.5,117.5,117.5,52.5,57.5,60,60,137.5,140,-142.5,140,317.5,8,Cudahy,F,SBD,Single-ply
Sarah James,1994-08-26,F-V,69.6,75,135,-145,-145,135,45,47.5,-52.5,47.5,125,-132.5,-132.5,125,307.5,9,River Falls HS,F,SBD,Single-ply
Serena Meyer,1994-03-19,F-V,71.9,75,102.5,-115,-115,102.5,50,55,-62.5,55,137.5,145,-147.5,145,302.5,10,Mauston,F,SBD,Single-ply
Alexis Ward,1994-12-30,F-V,72.3,75,105,112.5,125,125,52.5,55,-60,55,112.5,120,-132.5,120,300,11,Wisconsin Dells,F,SBD,Single-ply
Katie Raaen,1994-05-13,F-V,68.9,75,-127.5,-127.5,-127.5,,47.5,50,-52.5,50,127.5,-137.5,-147.5,127.5,,DQ,O'Gorman,F,SBD,Single-ply
Veronica Garcia #4,1993-11-29,F-V,82.2,82.5,187.5,-207.5,-207.5,187.5,87.5,92.5,-100,92.5,165,-170,-182.5,165,445,1,Calhoun,F,SBD,Single-ply
Megan Salyars,1993-07-10,F-V,82,82.5,155,167.5,-175,167.5,85,90,95,95,145,-155,-155,145,407.5,2,Dewitt,F,SBD,Single-ply
Sara Carufel,1994-10-05,F-V,80.2,82.5,157.5,165,-167.5,165,70,75,-82.5,75,147.5,-152.5,152.5,152.5,392.5,3,Osceola,F,SBD,Single-ply
Taylor Podboy,1995-05-11,F-V,78.8,82.5,120,127.5,-137.5,127.5,52.5,57.5,62.5,62.5,142.5,152.5,162.5,162.5,352.5,4,Necedah,F,SBD,Single-ply
Ashley Matson,1993-09-22,F-V,80.5,82.5,132.5,140,-145,140,60,67.5,72.5,72.5,117.5,125,135,135,347.5,5,Necedah,F,SBD,Single-ply
Holley Thums,1995-12-16,F-V,80.5,82.5,127.5,130,135,135,57.5,60,62.5,62.5,132.5,140,-155,140,337.5,6,Omro,F,SBD,Single-ply
Nicole Dannenmueller,1994-12-10,F-V,82.5,82.5,115,120,125,125,47.5,50,-52.5,50,132.5,145,-157.5,145,320,7,Osceola,F,SBD,Single-ply
Emily Rice,1995-03-23,F-V,76.2,82.5,-117.5,-117.5,-117.5,,52.5,57.5,-60,57.5,127.5,135,-137.5,135,,DQ,Omro,F,SBD,Single-ply
Johannah Theisen,1995-06-26,F-V,88.7,90,-165,165,-187.5,165,77.5,90,97.5,97.5,145,165,-185,165,427.5,1,Regis,F,SBD,Single-ply
Johannah Rice,1994-09-19,F-V,82.9,90,-142.5,142.5,-147.5,142.5,67.5,72.5,75,75,135,142.5,-150,142.5,360,2,South Milwaukee HS,F,SBD,Single-ply
Courtney Ellisen,1995-12-19,F-V,82.8,90,130,-137.5,-137.5,130,50,55,57.5,57.5,-130,130,140,140,327.5,3,Neenah,F,SBD,Single-ply
Natasha Dusek,1995-02-18,F-V,89.9,90,125,135,-142.5,135,-40,40,-57.5,40,127.5,140,-145,140,315,4,River Falls,F,SBD,Single-ply
Ashley Wilkin,1994-04-03,F-V,105.5,90+,175,-182.5,182.5,182.5,85,97.5,100,100,142.5,155,-167.5,155,437.5,1,Osceola,F,SBD,Single-ply
Drew Rath,1995-05-31,F-V,135.6,90+,-152.5,170,182.5,182.5,65,-82.5,82.5,82.5,150,-170,170,170,435,2,Independent,F,SBD,Single-ply
Kelsie Troxel,1994-09-14,F-V,104.9,90+,-165,-175,175,175,85,92.5,-97.5,92.5,137.5,152.5,-167.5,152.5,420,3,Riverdale,F,SBD,Single-ply
Jordan Monroe,1995-05-19,F-V,111.5,90+,-167.5,167.5,-195,167.5,62.5,67.5,-70,67.5,150,-175,-175,150,385,4,Winneconne,F,SBD,Single-ply
Amanda Frisch,1994-08-28,F-V,125.9,90+,-135,-135,135,135,60,65,72.5,72.5,122.5,127.5,137.5,137.5,345,5,WI Dells,F,SBD,Single-ply
Courtney Bowen,1996-05-11,F-V,120.1,90+,-127.5,-137.5,150,150,55,-60,-60,55,137.5,-160,-167.5,137.5,342.5,6,Muskego,F,SBD,Single-ply
Anika Junakin,1995-12-08,F-V,118.6,90+,132.5,-142.5,-142.5,132.5,55,57.5,-60,57.5,112.5,117.5,127.5,127.5,317.5,7,Oak Creek,F,SBD,Single-ply
Hillery Kramer,1993-10-06,F-V,105.7,90+,-140,-140,-140,,40,-60,-60,40,112.5,-120,125,125,,DQ,GET,F,SBD,Single-ply
Trenetia Lowery-R,1993-10-30,F-V,120.6,90+,100,102.5,-105,102.5,-57.5,-57.5,,,-125,-125,-125,,,DQ,Oak Creek,F,SBD,Single-ply
Danny Voelkel,1995-07-08,M-V,51.5,52,152.5,-162.5,-162.5,152.5,60,67.5,-72.5,67.5,152.5,-162.5,162.5,162.5,382.5,1,Whitnall,M,SBD,Single-ply
Anthony Piraino,1994-08-10,M-V,51,52,120,125,127.5,127.5,72.5,77.5,80,80,135,140,-145,140,347.5,2,South Milwaukee HS,M,SBD,Single-ply
Sunny Yang,1994-06-17,M-V,48.3,52,105,122.5,127.5,127.5,62.5,70,-72.5,70,135,145,-152.5,145,342.5,3,Eau Claire North,M,SBD,Single-ply
Skylar Miner,1995-03-10,M-V,51.7,52,110,117.5,127.5,127.5,65,70,72.5,72.5,130,-145,-152.5,130,330,4,Portage Northern,M,SBD,Single-ply
Jonathan Natale,1994-01-12,M-V,50.6,52,115,-135,-135,115,65,72.5,-80,72.5,115,135,-145,135,322.5,5,Glen Mills Schools,M,SBD,Single-ply
Bryan Schaenzer,1994-03-09,M-V,47.8,52,110,115,-122.5,115,52.5,57.5,-65,57.5,135,142.5,-150,142.5,315,6,Appleton North HS,M,SBD,Single-ply
Jerome Leak,1995-04-05,M-V,50.1,52,85,95,102.5,102.5,57.5,62.5,-65,62.5,135,145,-150,145,310,7,Mauston,M,SBD,Single-ply
Shawn Womack,1994-10-31,M-V,49.5,52,102.5,112.5,-132.5,112.5,-67.5,67.5,-70,67.5,127.5,-137.5,-137.5,127.5,307.5,8,Kelly Walsh HS,M,SBD,Single-ply
Shawn Hendricks,1994-02-04,M-V,51.4,52,-97.5,-97.5,97.5,97.5,57.5,62.5,67.5,67.5,115,122.5,-130,122.5,287.5,9,Riverdale HS,M,SBD,Single-ply
Jesus Flores-Correa,1994-09-29,M-V,53.1,56,167.5,182.5,-187.5,182.5,62.5,-67.5,-67.5,62.5,160,175,182.5,182.5,427.5,1,Team Idaho Powerlifting,M,SBD,Single-ply
Zach Harenda,1993-11-06,M-V,55.6,56,145,157.5,165,165,67.5,75,-77.5,75,152.5,167.5,175,175,415,2,Whitnall,M,SBD,Single-ply
Kevin Correll,1994-08-24,M-V,54.8,56,145,147.5,150,150,65,75,77.5,77.5,182.5,185,-187.5,185,412.5,3,Adams-Friendship HS,M,SBD,Single-ply
Greg Monddragon,1994-10-03,M-V,54.8,56,125,140,-150,140,72.5,87.5,-95,87.5,147.5,160,167.5,167.5,395,4,Woodward Academy,M,SBD,Single-ply
Tyler Schilling,1995-05-17,M-V,55.4,56,140,147.5,152.5,152.5,75,-82.5,-82.5,75,155,165,-177.5,165,392.5,5,Phillips,M,SBD,Single-ply
Khalif Radee,1996-05-29,M-V,55.1,56,115,135,-140,135,70,85,-90,85,125,145,-162.5,145,365,6,Glen Mills Schools,M,SBD,Single-ply
Nicholas Miles,1994-06-21,M-V,55.5,56,107.5,115,122.5,122.5,80,85,-90,85,130,142.5,-170,142.5,350,7,Whitehall,M,SBD,Single-ply
Steve Van Schoich,1997-10-18,M-V,54.7,56,110,-120,120,120,57.5,65,70,70,130,147.5,155,155,345,8,Portage North,M,SBD,Single-ply
Daniel Willaimson,1994-08-09,M-V,56,56,-120,-125,125,125,55,-60,60,60,147.5,-155,-162.5,147.5,332.5,9,Xavier HS,M,SBD,Single-ply
Ben Brandemeir,1993-11-17,M-V,55.1,56,112.5,-130,-135,112.5,62.5,-75,-75,62.5,115,-137.5,-137.5,115,290,10,Holmen,M,SBD,Single-ply
Kyle Nelson,1994-05-28,M-V,58.5,60,-225,225,-235,225,110,115,117.5,117.5,207.5,222.5,-236,222.5,565,1,Eau Claire North,M,SBD,Single-ply
Denzel Outen,1993-12-31,M-V,59.5,60,165,172.5,180,180,102.5,107.5,-117.5,107.5,170,182.5,197.5,197.5,485,2,Glen Mills Schools,M,SBD,Single-ply
Mitch Jasurda,1993-11-27,M-V,59.1,60,142.5,150,155,155,90,95,-100,95,172.5,190,200,200,450,3,Phillips,M,SBD,Single-ply
Alex Stump,1993-08-30,M-V,59.3,60,130,145,150,150,100,107.5,-112.5,107.5,157.5,177.5,190,190,447.5,4,Portage Northern,M,SBD,Single-ply
Randy Mortel,1994-09-21,M-V,60,60,157.5,165,170,170,80,-90,-97.5,80,175,187.5,-200,187.5,437.5,5,Osceola,M,SBD,Single-ply
Gio Duopo,1993-11-04,M-V,59.2,60,-147.5,147.5,155,155,85,92.5,-100,92.5,157.5,170,-182.5,170,417.5,6,Glen Mills Schools,M,SBD,Single-ply
Joseph Smith,1994-03-06,M-V,59.6,60,140,150,-170,150,65,77.5,85,85,160,175,-215,175,410,7,Glen Mills Schools,M,SBD,Single-ply
Andy Karwoski,1995-05-10,M-V,59.4,60,157.5,167.5,-177.5,167.5,72.5,80,-82.5,80,140,155,-165,155,402.5,8,Whitnall,M,SBD,Single-ply
Devin Fries,1995-06-18,M-V,59.6,60,140,147.5,152.5,152.5,65,70,72.5,72.5,152.5,162.5,172.5,172.5,397.5,9,Phillips,M,SBD,Single-ply
Antonio Maldonado,1993-12-29,M-V,58.6,60,137.5,-142.5,147.5,147.5,82.5,87.5,90,90,147.5,-157.5,-167.5,147.5,385,10,South Milwaukee HS,M,SBD,Single-ply
Denver Quenette,1993-10-11,M-V,59.9,60,132.5,-140,-150,132.5,70,85,92.5,92.5,160,-170,-170,160,385,11,Spooner,M,SBD,Single-ply
Nate Stemo,1995-11-26,M-V,65.3,67.5,220,232.5,242.5,242.5,82.5,90,95,95,192.5,202.5,-207.5,202.5,540,1,Whitnall,M,SBD,Single-ply
Troy Monty,1995-02-28,M-V,66.5,67.5,192.5,205,-215,205,95,102.5,105,105,200,210,-232.5,210,520,2,Whitnall,M,SBD,Single-ply
Marlon Kinney,1996-01-16,M-V,66.4,67.5,180,197.5,-215,197.5,102.5,-112.5,-112.5,102.5,180,197.5,-210,197.5,497.5,3,Glen Mills Schools,M,SBD,Single-ply
Mason Austin,1994-03-14,M-V,66.8,67.5,182.5,195,205,205,87.5,97.5,-102.5,97.5,175,185,195,195,497.5,4,Marquette Univ HS,M,SBD,Single-ply
Derek Potratz,1995-04-18,M-V,66.4,67.5,175,182.5,187.5,187.5,87.5,92.5,-95,92.5,197.5,205,-210,205,485,5,Omro,M,SBD,Single-ply
Joey Burke-McAllister,1994-03-09,M-V,66.2,67.5,160,172.5,182.5,182.5,100,107.5,-112.5,107.5,175,190,-202.5,190,480,6,Portage Northern,M,SBD,Single-ply
Andrew Williams #4,1994-05-13,M-V,66.3,67.5,180,190,-205,190,85,-95,-95,85,175,192.5,-210,192.5,467.5,7,Glen Mills Schools,M,SBD,Single-ply
Jordan Mach,1995-07-20,M-V,66.3,67.5,170,177.5,192.5,192.5,82.5,90,-92.5,90,172.5,182.5,-195,182.5,465,8,Necedah,M,SBD,Single-ply
Tyler Rupnow,1995-08-25,M-V,65.7,67.5,192.5,-197.5,-197.5,192.5,-102.5,-102.5,-102.5,,187.5,200,-220,200,,DQ,Neenah Powerlifting,M,SBD,Single-ply
Keegan Golz,1990-12-31,M-SO,63.6,67.5,82.5,85,92.5,92.5,52.5,55,-62.5,55,80,90,97.5,97.5,245,1,Wisconsin Dells,M,SBD,Single-ply
Charles McDonald,1994-07-24,M-V,73.9,75,275,285,-300,285,137.5,150,160,160,275,285,-292.5,285,730,1,Neenah Powerlifting,M,SBD,Single-ply
Spencer Miller,1995-02-06,M-V,71.3,75,227.5,242.5,252.5,252.5,115,-125,-125,115,227.5,237.5,-245,237.5,605,2,Neenah Powerlifting,M,SBD,Single-ply
Norell Odi,1995-09-22,M-V,74.4,75,180,195,207.5,207.5,-105,110,115,115,225,-240,250,250,572.5,3,Portage Northern,M,SBD,Single-ply
Joshua Jones,1994-02-21,M-V,72.4,75,185,-202.5,220,220,112.5,130,-135,130,202.5,-220,220,220,570,4,Glen Mills Schools,M,SBD,Single-ply
Eugene Crabtree,1995-05-11,M-V,73.8,75,200,-212.5,-212.5,200,105,115,-120,115,220,235,250,250,565,5,Necedah,M,SBD,Single-ply
Austin Ratkus,1994-05-12,M-V,74.3,75,195,205,-212.5,205,107.5,-122.5,-122.5,107.5,200,212.5,217.5,217.5,530,6,GET,M,SBD,Single-ply
Danny Bigalke,1994-10-18,M-V,73.2,75,207.5,-220,-220,207.5,82.5,87.5,95,95,185,202.5,207.5,207.5,510,7,Whitnall,M,SBD,Single-ply
Jarell Hagans,1993-11-25,M-V,73.4,75,-175,175,202.5,202.5,107.5,115,-125,115,192.5,-210,-210,192.5,510,8,Glen Mills Schools,M,SBD,Single-ply
Jordan Kaiser,1994-09-09,M-V,74.5,75,205,220,-232.5,220,80,-87.5,-90,80,205,-225,-225,205,505,9,River Falls HS,M,SBD,Single-ply
Andrew Noyes,1994-04-18,M-V,70.8,75,165,-167.5,-172.5,165,135,142.5,-145,142.5,185,195,-205,195,502.5,10,Parkway South,M,SBD,Single-ply
Marcell Davis,1995-11-28,M-V,70.9,75,175,197.5,-207.5,197.5,102.5,-115,-115,102.5,175,195,202.5,202.5,502.5,11,Glen Mills Schools,M,SBD,Single-ply
Trejon Bonner-R,1994-06-12,M-V,72.5,75,-145,145,-152.5,145,97.5,-107.5,107.5,107.5,180,190,-200,190,442.5,12,Cordova,M,SBD,Single-ply
Levi Parr,1994-12-30,M-V,74,75,-220,220,-230,220,-130,-130,-130,,225,242.5,-252.5,242.5,,DQ,Phillips,M,SBD,Single-ply
Oluwaseun Jubrill,1994-04-10,M-V,74.3,75,170,187.5,197.5,197.5,135,145,150,150,-217.5,-217.5,-217.5,,,DQ,Portage Northern,M,SBD,Single-ply
Jordan Hermanson,1993-10-11,M-V,74.7,75,177.5,185,-195,185,-140,-140,-140,,-210,210,-215,210,,DQ,O'Gorman,M,SBD,Single-ply
William Steele III,1994-09-17,M-V,81.6,82.5,250,-262.5,262.5,262.5,137.5,-142.5,-142.5,137.5,212.5,-230,232.5,232.5,632.5,1,Covington,M,SBD,Single-ply
Devin Dettmann,1993-09-02,M-V,75.2,82.5,210,227.5,-232.5,227.5,137.5,145,-150,145,227.5,245,-250,245,617.5,2,South Milwaukee,M,SBD,Single-ply
Karl Niendorf,1994-10-24,M-V,79.4,82.5,232.5,245,252.5,252.5,105,110,-115,110,240,-250,255,255,617.5,3,Oshkosh Spartans,M,SBD,Single-ply
Alex Cramer,1995-12-16,M-V,81.4,82.5,217.5,232.5,-240,232.5,137.5,145,147.5,147.5,215,-235,235,235,615,4,South Milwaukee,M,SBD,Single-ply
Harrisen Hagens,1993-12-24,M-V,78.9,82.5,220,-232.5,232.5,232.5,-147.5,-152.5,152.5,152.5,195,215,-227.5,215,600,5,Team Idaho Powerlifting,M,SBD,Single-ply
Kevin Gildersleeve,1994-01-12,M-V,79.4,82.5,205,210,220,220,-135,135,142.5,142.5,235,-247.5,-247.5,235,597.5,6,Osceola,M,SBD,Single-ply
Elijah Nuble,1995-05-04,M-V,80.9,82.5,-205,227.5,235,235,102.5,115,-127.5,115,227.5,245,-257.5,245,595,7,Glen Mills Schools,M,SBD,Single-ply
Gaberiel Chapin,1993-03-20,M-V,81.5,82.5,205,215,227.5,227.5,130,-132.5,132.5,132.5,215,230,-255,230,590,8,Omro,M,SBD,Single-ply
Agustin Guerro,1995-06-11,M-V,81.2,82.5,215,225,232.5,232.5,92.5,102.5,107.5,107.5,225,242.5,-250,242.5,582.5,9,Marquette Univ HS,M,SBD,Single-ply
Ryan Schoenborn,1994-01-26,M-V,75.2,82.5,220,-232.5,-232.5,220,127.5,130,132.5,132.5,220,-232.5,-237.5,220,572.5,10,Osceola HS,M,SBD,Single-ply
Tyler Titchnell,1995-10-23,M-V,76,82.5,192.5,200,-205,200,145,-150,-150,145,205,220,-230,220,565,11,Yale Bulldogs,M,SBD,Single-ply
Brandon Lane,1994-02-02,M-V,80.2,82.5,182.5,197.5,205,205,-125,125,127.5,127.5,220,230,-245,230,562.5,12,Clarinda Academu,M,SBD,Single-ply
Jyquan Owens,1996-04-18,M-V,80.7,82.5,-215,215,-237.5,215,120,125,-130,125,220,-237.5,-237.5,220,560,13,Glen Mills Schools,M,SBD,Single-ply
Dirk Rigsby,1993-12-03,M-V,81.5,82.5,205,-220,-220,205,102.5,107.5,112.5,112.5,237.5,-250,-250,237.5,555,14,Tomah,M,SBD,Single-ply
Shaelamar Faust,1994-06-14,M-V,80.4,82.5,192.5,207.5,-220,207.5,107.5,110,112.5,112.5,200,205,220,220,540,15,Kakauna,M,SBD,Single-ply
Sergio Jackson,1994-11-27,M-V,81.3,82.5,177.5,192.5,197.5,197.5,127.5,135,-137.5,135,-207.5,-207.5,207.5,207.5,540,16,Portage Northern,M,SBD,Single-ply
Saul Hoptensperger,1994-11-30,M-V,80.6,82.5,187.5,-210,210,210,112.5,117.5,125,125,190,-200,-205,190,525,17,South Milwaukee,M,SBD,Single-ply
Drew Mader,1995-01-05,M-V,77,82.5,-200,200,207.5,207.5,85,-102.5,-102.5,85,202.5,210,220,220,512.5,18,Seymour,M,SBD,Single-ply
Tommy Lloyd,1993-11-28,M-V,81.4,82.5,-182.5,-182.5,-182.5,,92.5,102.5,107.5,107.5,-207.5,222.5,-230,222.5,,DQ,Marquette Univ HS,M,SBD,Single-ply
Travis McKinney,1995-02-21,M-V,84,90,240,265,-275,265,170,-185,190,190,230,255,-267.5,255,710,1,Iola Scandinavia HS,M,SBD,Single-ply
Vong Xiong,1994-04-20,M-V,89.4,90,270,282.5,290,290,120,125,130,130,237.5,260,-267.5,260,680,2,Oshkosh Spartans,M,SBD,Single-ply
Nate Montaverde,1994-05-04,M-V,87.6,90,227.5,-232.5,232.5,232.5,130,132.5,-135,132.5,-295,295,-315,295,660,3,Omro,M,SBD,Single-ply
Anthony Wolf,1995-07-19,M-V,87.5,90,232.5,245,255,255,130,-135,135,135,225,237.5,242.5,242.5,632.5,4,St. Mary Central,M,SBD,Single-ply
Kyle Bordelon,1994-04-25,M-V,89.1,90,265,-282.5,-282.5,265,140,145,150,150,205,217.5,-227.5,217.5,632.5,5,Covington,M,SBD,Single-ply
Drake Ambroch,1996-06-04,M-V,87.6,90,252.5,265,277.5,277.5,130,135,-137.5,135,197.5,210,215,215,627.5,6,Whitnall,M,SBD,Single-ply
Kain Bristol,1994-05-09,M-V,86,90,205,227.5,-250,227.5,112.5,132.5,147.5,147.5,-227.5,250,-252.5,250,625,7,Glen Mills Schools,M,SBD,Single-ply
Marc Flaherty,1994-11-11,M-V,88.1,90,230,-240,240,240,127.5,135,-140,135,212.5,-227.5,227.5,227.5,602.5,8,Seymour,M,SBD,Single-ply
Nic Steffl,1994-12-21,M-V,87.1,90,205,212.5,217.5,217.5,-135,-135,135,135,225,237.5,242.5,242.5,595,9,O'Gorman,M,SBD,Single-ply
Luke VandeWettering,1994-08-29,M-V,85.9,90,215,227.5,-242.5,227.5,120,130,140,140,210,225,-235,225,592.5,10,Kaukauna,M,SBD,Single-ply
Spencer Majett,1995-06-27,M-V,88.5,90,205,237.5,-255,237.5,112.5,-122.5,-122.5,112.5,205,237.5,-250,237.5,587.5,11,Glen Mills Schools,M,SBD,Single-ply
Brandon Boynton,1993-05-28,M-V,88.9,90,182.5,197.5,-207.5,197.5,147.5,152.5,162.5,162.5,202.5,215,227.5,227.5,587.5,12,C-FC,M,SBD,Single-ply
Daniel Doboyou,1994-01-19,M-V,87.1,90,-185,185,-227.5,185,127.5,147.5,-155,147.5,185,207.5,-227.5,207.5,540,13,Glen Mills Schools,M,SBD,Single-ply
Garrett Volz,1993-09-24,M-V,88.7,90,215,-232.5,-232.5,215,-120,120,-132.5,120,182.5,-190,195,195,530,14,Wisconsin Dells,M,SBD,Single-ply
Boyd Stacken,1994-01-09,M-V,87.4,90,-227.5,-227.5,-227.5,,100,105,-115,105,-210,210,-215,210,,DQ,New Richmond,M,SBD,Single-ply
Ben Pedersen,1994-04-19,M-V,87.7,90,-260,-260,-260,,-145,150,-162.5,150,230,237.5,245,245,,DQ,Johnsburg HS,M,SBD,Single-ply
Brandon Titchnell,1993-12-28,M-V,88.1,90,-197.5,-197.5,-197.5,,150,155,162.5,162.5,210,-227.5,-227.5,210,,DQ,Yale Bulldogs,M,SBD,Single-ply
Roc Pilon,1994-07-30,M-V,89.4,90,215,235,240,240,-125,125,130,130,-210,-210,-210,,,DQ,Team Idaho Powerlifting,M,SBD,Single-ply
Patrick Kletschka,1994-02-01,M-V,97.1,100,262.5,280,287.5,287.5,137.5,145,-147.5,145,250,272.5,-280,272.5,705,1,New Richmond,M,SBD,Single-ply
Michael Reichelt,1994-06-06,M-V,97.8,100,265,285,-297.5,285,162.5,-185,-185,162.5,247.5,-257.5,-262.5,247.5,695,2,O'Gorman,M,SBD,Single-ply
Dominic Olsen,1994-07-22,M-V,95.7,100,227.5,237.5,242.5,242.5,137.5,142.5,-150,142.5,262.5,272.5,280,280,665,3,Tomah,M,SBD,Single-ply
Aaron Bley,1993-10-05,M-V,98.2,100,245,-260,-265,245,135,-145,-147.5,135,272.5,-282.5,282.5,282.5,662.5,4,Sevastapol,M,SBD,Single-ply
Gunnar Mach,1993-10-14,M-V,98.8,100,267.5,285,-297.5,285,137.5,145,-152.5,145,207.5,217.5,227.5,227.5,657.5,5,Necedah,M,SBD,Single-ply
Diion Brown,1994-07-26,M-V,98.3,100,207.5,232.5,-250,232.5,-130,130,142.5,142.5,227.5,250,-265,250,625,6,Glen Mills Schools,M,SBD,Single-ply
Anthony Hambric #1,1994-03-25,M-V,92.8,100,215,227.5,232.5,232.5,130,142.5,150,150,215,227.5,237.5,237.5,620,7,Forney HS TX,M,SBD,Single-ply
Nick Haselwander,1994-02-18,M-V,95.9,100,-227.5,227.5,-242.5,227.5,135,145,152.5,152.5,227.5,240,-255,240,620,8,Eau Claire North,M,SBD,Single-ply
DJ Spurling,1994-10-07,M-V,97.2,100,-217.5,240,-257.5,240,145,-157.5,-157.5,145,225,-250,-275,225,610,9,Slinger HS,M,SBD,Single-ply
Ben Montgomery,1994-03-12,M-V,98.2,100,220,235,245,245,-135,137.5,-145,137.5,212.5,225,-230,225,607.5,10,Hershey Powerlifting,M,SBD,Single-ply
Joe Hernandez,1995-01-18,M-V,97,100,230,242.5,252.5,252.5,115,120,122.5,122.5,192.5,205,-212.5,205,580,11,Phillips,M,SBD,Single-ply
Kavon Buck,1994-05-13,M-V,94.6,100,-205,205,-250,205,102.5,-117.5,117.5,117.5,227.5,250,-260,250,572.5,12,Glen Mills Schools,M,SBD,Single-ply
Taylor Eldred,1994-01-04,M-V,98.3,100,222.5,-237.5,237.5,237.5,110,-125,-125,110,225,-245,-245,225,572.5,13,River Falls HS,M,SBD,Single-ply
Chrishon Bates,1995-10-26,MR-V,99.3,100,190,197.5,-202.5,197.5,100,107.5,-115,107.5,202.5,207.5,-212.5,207.5,512.5,14,Cordova,M,SBD,Raw
Eddie Schug,1995-07-06,M-V,96.8,100,-225,-225,-225,,-170,-177.5,-177.5,,,,,,,DQ,Omro HS,M,SBD,Single-ply
Caleb Hunt,1993-07-05,M-V,97,100,-205,-207.5,-207.5,,132.5,-140,-140,132.5,215,-245,-245,215,,DQ,Omro,M,SBD,Single-ply
Daniel Holden,1995-01-05,M-V,107.5,110,305,-312.5,-312.5,305,177.5,185,-192.5,185,227.5,245,-252.5,245,735,1,Covington,M,SBD,Single-ply
Hunter Pooser,1994-02-10,M-V,108.3,110,265,270,275,275,160,-170,170,170,275,287.5,-305,287.5,732.5,2,Woodstock,M,SBD,Single-ply
Jake Hardy,1994-05-15,M-V,101.3,110,260,275,-285,275,132.5,140,-145,140,247.5,260,265,265,680,3,Whitnall,M,SBD,Single-ply
Andrew Belnap,1994-11-07,M-V,101.4,110,260,275,-287.5,275,160,170,-182.5,170,220,232.5,-240,232.5,677.5,4,Team Idaho Powerlifting,M,SBD,Single-ply
JP Eaton,1995-03-05,M-V,108.2,110,250,270,-277.5,270,-135,135,142.5,142.5,240,255,-267.5,255,667.5,5,River Falls HS,M,SBD,Single-ply
Tawanh Maphixat,1994-04-13,M-V,109.1,110,252.5,262.5,270,270,145,-162.5,-165,145,250,-260,-270,250,665,6,Appleton North,M,SBD,Single-ply
Alex Duley,1993-05-27,M-V,101.8,110,232.5,-242.5,-242.5,232.5,-122.5,122.5,130,130,240,252.5,-265,252.5,615,7,Appleton East,M,SBD,Single-ply
Brad Walski,1995-01-23,M-V,106.5,110,-200,200,-210,200,140,147.5,160,160,237.5,-245,245,245,605,8,GET,M,SBD,Single-ply
Trazmyn Brown,1994-10-21,MR-V,110,110,190,-195,195,195,110,112.5,-115,112.5,-230,232.5,-240,232.5,540,9,Cordova,M,SBD,Raw
Daniel LaRocca,1993-11-18,M-V,123.6,125,-310,-310,310,310,200,212.5,-230,212.5,250,267.5,-275,267.5,790,1,Covington,M,SBD,Single-ply
Dylan Stefanec,1994-06-08,M-V,123.3,125,-250,-250,250,250,170,180,185,185,217.5,227.5,-235,227.5,662.5,2,,M,SBD,Single-ply
Austin Hallanger,1994-12-13,M-V,116.6,125,227.5,235,245,245,125,127.5,132.5,132.5,272.5,-282.5,282.5,282.5,660,3,Arrowhead,M,SBD,Single-ply
Matt Grutza,1994-06-15,M-V,118.8,125,-262.5,-285,285,285,135,142.5,147.5,147.5,215,227.5,-237.5,227.5,660,4,,M,SBD,Single-ply
Luke Doud,1994-02-14,M-V,113.2,125,255,270,277.5,277.5,125,-137.5,137.5,137.5,192.5,207.5,225,225,640,5,Eau Claire North,M,SBD,Single-ply
Darryl Quick,1993-07-12,M-V,113.8,125,215,232.5,255,255,120,130,147.5,147.5,215,237.5,-265,237.5,640,6,Glen Mills Schools,M,SBD,Single-ply
Casey Cannon,1995-02-25,M-V,112.8,125,257.5,-265,265,265,137.5,145,150,150,200,212.5,-225,212.5,627.5,7,Covington,M,SBD,Single-ply
Tyler Hoffman,1994-02-11,M-V,123.2,125,225,-235,235,235,127.5,-137.5,-137.5,127.5,217.5,227.5,-270,227.5,590,8,Oostburg,M,SBD,Single-ply
Brandon Johnson,1994-02-02,M-V,122.4,125,-230,230,232.5,232.5,132.5,140,-152.5,140,187.5,195,205,205,577.5,9,,M,SBD,Single-ply
Cameron Swisher,1994-04-11,MR-V,113.9,125,182.5,-190,-190,182.5,97.5,102.5,107.5,107.5,202.5,210,-215,210,500,10,Cordova,M,SBD,Raw
Joe Beranek,1994-04-20,M-V,120.4,125,-280,-280,-302.5,,107.5,115,-137.5,115,250,-267.5,-267.5,250,,DQ,,M,SBD,Single-ply
Aaron Marquardt,1994-05-30,M-V,136.4,125+,-315,315,-327.5,315,192.5,205,210.5,210.5,240,255,262.5,262.5,787.5,1,Eau Claire North,M,SBD,Single-ply
Andy Askow,1994-05-13,M-V,132.7,125+,-312.5,312.5,-325,312.5,187.5,197.5,-205,197.5,245,255,-280,255,765,2,Necedah,M,SBD,Single-ply
Alex Greely,1993-11-05,M-V,142.7,125+,227.5,235,265,265,182.5,192.5,-202.5,192.5,-207.5,210,220,220,677.5,3,Spooner HS,M,SBD,Single-ply
Caleb Willie,1993-08-18,M-V,165.6,125+,267.5,-272.5,-272.5,267.5,-152.5,152.5,-160,152.5,195,-215,-215,195,615,4,Covington,M,SBD,Single-ply
Brandon Miller,1995-08-11,M-V,138.7,125+,232.5,-240,240,240,105,110,117.5,117.5,225,230,-235,230,587.5,5,Waterford,M,SBD,Single-ply
Frank Thompson,1994-04-06,M-V,127.1,125+,205,227.5,-252.5,227.5,110,122.5,-132.5,122.5,205,227.5,-250,227.5,577.5,6,Glen Mills Schools,M,SBD,Single-ply
