Place,Name,Sex,Event,Division,WeightClassKg,Equipment,BirthYear,State,BodyweightKg,Squat1Kg,Squat2Kg,Squat3Kg,Best3SquatKg,Bench1Kg,Bench2Kg,Bench3Kg,Best3BenchKg,Deadlift1Kg,Deadlift2Kg,Deadlift3Kg,Best3DeadliftKg,TotalKg,Age,BirthDate
1,Natalie Richards,F,SBD,FR-O,57,Raw,1998,NC,56.3,142.5,150,157.5,157.5,75,80,-85,80,142.5,155,-170,155,392.5,,
1,Jessica Wight,F,SBD,FR-O,84,Raw,1997,NC,83.65,150,157.5,165,165,80,-85,-85,80,172.5,182.5,192.5,192.5,437.5,,
1,Michelle Jordan,F,SBD,FR-O,84+,Raw,1986,NC,95.75,175,-182.5,182.5,182.5,87.5,-95,-95,87.5,185,202.5,-212.5,202.5,472.5,,
1,James Thompson #1,M,SBD,MR-O,66,Raw,1964,NC,65.35,165,175,-185,175,110,112.5,-115,112.5,200,215,-220,215,502.5,,
1,Odessy Womack,M,SBD,MR-O,74,Raw,1995,NC,73.75,195,197.5,202.5,202.5,137.5,145,-150,145,245,267.5,-275,267.5,615,,
2,Rocky Yearwood,M,SBD,MR-O,74,Raw,1959,NC,73.4,170,177.5,185,185,100,102.5,,102.5,205,215,227.5,227.5,515,,
1,Mitchell Jones #1,M,SBD,MR-O,93,Raw,2003,NC,92.35,177.5,187.5,-197.5,187.5,112.5,117.5,-125,117.5,75,,,75,380,,
1,Josh Greiner,M,SBD,MR-O,105,Raw,2003,NC,104.75,227.5,240,250,250,190,-197.5,-200,190,250,-265,272.5,272.5,712.5,,
2,Stephen Gregory,M,SBD,MR-O,105,Raw,1990,NC,102.85,185,200,-212.5,200,135,142.5,-150,142.5,240,260,-272.5,260,602.5,,
