Division,WeightClassKg,Place,Name,Team,BodyweightKg,Best3SquatKg,Best3BenchKg,Best3DeadliftKg,TotalKg,Equipment,Event,Sex
Boys,51.71,1,Nick Acosta,Seminole,51.66,117.93,68.04,127.01,312.98,Single-ply,SBD,M
Boys,55.79,2,Timothy Ortiz,Odessa,51.8,102.06,72.57,136.08,310.71,Single-ply,SBD,M
Boys,51.71,3,Peter Padilla,Seminole,46.9,99.79,56.7,122.47,278.96,Single-ply,SBD,M
Boys,51.71,4,Tucker Craig,Midland,46.9,97.52,56.7,106.59,260.82,Single-ply,SBD,M
Boys,51.71,5,Xavier Estrada,Andrews,51.35,90.72,54.43,111.13,256.28,Single-ply,SBD,M
Boys,51.71,6,Zach Alvarez,Fort Stockton,45.63,95.25,49.9,97.52,242.67,Single-ply,SBD,M
Boys,51.71,7,Keyvan Constantino,Whiteface,48.72,81.65,47.63,90.72,219.99,Single-ply,SBD,M
Boys,51.71,DQ,JaQuanye Lyons,Midland Lee,50.98,79.38,,,,Single-ply,SBD,M
Boys,51.71,DQ,Christopher Haney,Midland Lee,49.35,,,,,Single-ply,SBD,M
Boys,55.79,1,Keele Valenzuela,Kermit,54.88,172.37,99.79,156.49,428.64,Single-ply,SBD,M
Boys,55.79,2,Nick Espinoza,Denver City,55.52,145.15,88.45,145.15,378.75,Single-ply,SBD,M
Boys,55.79,3,Salvador Antillon,Seminole,55.7,147.42,79.38,142.88,369.68,Single-ply,SBD,M
Boys,55.79,4,Diago Lara,Midland,53.71,124.74,83.91,117.93,326.59,Single-ply,SBD,M
Boys,55.79,5,Kody Collins,Monahans,55.79,120.2,58.97,106.59,285.76,Single-ply,SBD,M
Boys,59.87,6,Abel Burciaga,Denver City,56.02,68.04,83.91,131.54,283.5,Single-ply,SBD,M
Boys,55.79,7,Devan Glover,Midland Lee,55.34,88.45,56.7,122.47,267.62,Single-ply,SBD,M
Boys,55.79,8,Garrett Tarpley,Crane,54.7,106.59,61.23,97.52,265.35,Single-ply,SBD,M
Boys,55.79,9,Michael Montez,Monahans,55.16,106.59,56.7,86.18,249.48,Single-ply,SBD,M
Boys,55.79,10,Sean Romines,Denver City,55.79,54.43,47.63,90.72,192.78,Single-ply,SBD,M
Boys,59.87,1,Sawyer Jenkins,Seminole,59.65,165.56,97.52,170.1,433.18,Single-ply,SBD,M
Boys,59.87,2,Oscar Salgado,Alpine,58.15,140.61,97.52,163.29,401.43,Single-ply,SBD,M
Boys,59.87,3,Isiah Petralba,Fort Stockton,58.15,147.42,90.72,129.27,367.41,Single-ply,SBD,M
Boys,59.87,4,Nathaniel Garcia,Fort Stockton,57.24,127.01,74.84,142.88,344.73,Single-ply,SBD,M
Boys,59.87,5,Steven Anna,Plains,59.78,104.33,72.57,136.08,312.98,Single-ply,SBD,M
Boys,59.87,6,Alex Rivas,Alpine,59.15,124.74,63.5,122.47,310.71,Single-ply,SBD,M
Boys,67.13,7,Will Wilkins,Plains,60.06,92.99,63.5,120.2,276.69,Single-ply,SBD,M
Boys,59.87,DQ,Tristan Bollinger,Midland,58.88,,,,,Single-ply,SBD,M
Boys,67.13,1,Andrew Alvidrez,Seminole,67.13,226.8,136.08,215.46,578.33,Single-ply,SBD,M
Boys,67.13,2,Ivan Arroyo,Odessa,65.32,199.58,136.08,199.58,535.24,Single-ply,SBD,M
Boys,67.13,3,Jeremy Reyes,Odessa,64.14,172.37,92.99,185.97,451.32,Single-ply,SBD,M
Boys,67.13,4,Juan Gonzalez,Fort Stockton,65.23,172.37,88.45,176.9,437.72,Single-ply,SBD,M
Boys,67.13,5,Josh Binder,Midland,63.32,147.42,102.06,181.44,430.91,Single-ply,SBD,M
Boys,67.13,6,Ruben Luna,Midland Lee,65.23,136.08,92.99,145.15,374.21,Single-ply,SBD,M
Boys,67.13,7,Gian Cruz,Monahans,61.05,138.35,74.84,154.22,367.41,Single-ply,SBD,M
Boys,67.13,8,Chase Rheilander,Midland,61.33,131.54,83.91,151.95,367.41,Single-ply,SBD,M
Boys,67.13,9,Kolton Kissick,Seminole,67.13,138.35,79.38,138.35,356.07,Single-ply,SBD,M
Boys,67.13,10,Raul Vasquez,Andrews,64.41,131.54,77.11,142.88,351.53,Single-ply,SBD,M
Boys,67.13,11,Gage Glidewell,Alpine,67.13,117.93,65.77,147.42,331.12,Single-ply,SBD,M
Boys,67.13,12,Joseph Cabara,Kermit,64.86,124.74,70.31,133.81,328.85,Single-ply,SBD,M
Boys,74.84,13,Trevor Lewis,Plains,67.22,99.79,65.77,142.88,308.44,Single-ply,SBD,M
Boys,67.13,14,Ivan Valverde,Denver City,63.59,97.52,61.23,111.13,269.89,Single-ply,SBD,M
Boys,67.13,15,Coie Bullard,Whiteface,64.32,92.99,52.16,95.25,240.4,Single-ply,SBD,M
Boys,67.13,DQ,Aaron Cordova,Denver City,67.04,90.72,68.04,,,Single-ply,SBD,M
Boys,67.13,DQ,Juan Herrara,Denver City,63.14,,,,,Single-ply,SBD,M
Boys,67.13,DQ,Trevor Drennon,Whiteface,62.78,,,,,Single-ply,SBD,M
Boys,82.1,1,Marcus Ruff,Whiteface,75.02,204.12,120.2,240.4,564.72,Single-ply,SBD,M
Boys,74.84,2,Holt Eads,Midland,73.3,192.78,131.54,226.8,551.11,Single-ply,SBD,M
Boys,74.84,3,Cole Hunt,Alpine,74.21,181.44,108.86,210.92,501.22,Single-ply,SBD,M
Boys,82.1,4,Joe Macias,Andrews,75.02,176.9,120.2,195.04,492.15,Single-ply,SBD,M
Boys,74.84,5,Logan Gersbach,Seminole,71.94,158.76,115.67,176.9,451.32,Single-ply,SBD,M
Boys,74.84,6,Alex Valdez,Andrews,68.13,158.76,99.79,190.51,449.06,Single-ply,SBD,M
Boys,74.84,7,Cristian Cortez,Denver City,72.39,149.69,115.67,161.03,426.38,Single-ply,SBD,M
Boys,74.84,8,Nathan Garver,Midland Lee,68.67,129.27,99.79,145.15,374.21,Single-ply,SBD,M
Boys,74.84,9,Mitchell Garza,Odessa Permian,72.94,120.2,70.31,142.88,333.39,Single-ply,SBD,M
Boys,74.84,10,Aaron Vasquez,Odessa Permian,71.03,115.67,77.11,131.54,324.32,Single-ply,SBD,M
Boys,74.84,11,Quade Hunt,Kermit,69.04,102.06,68.04,136.08,306.17,Single-ply,SBD,M
Boys,74.84,12,Emilio Juarez,Odessa Permian,69.4,102.06,65.77,129.27,297.1,Single-ply,SBD,M
Boys,74.84,13,Ulysses Rodriguez,Denver City,72.3,86.18,68.04,90.72,244.94,Single-ply,SBD,M
Boys,74.84,14,Kolton Black,Denver City,73.75,81.65,65.77,95.25,242.67,Single-ply,SBD,M
Boys,74.84,DQ,Cameron Hurd,Midland,71.85,170.1,,,,Single-ply,SBD,M
Boys,74.84,DQ,Fabian Honesto,Whiteface,72.21,172.37,,,,Single-ply,SBD,M
Boys,74.84,DQ,Kye Harvey,Seminole,70.99,131.54,,,,Single-ply,SBD,M
Boys,82.1,DQ,Ashton Akbar,Midland Lee,75.02,156.49,72.57,,,Single-ply,SBD,M
Boys,74.84,DQ,Joaquien Ramirez,Seminole,70.31,,,,,Single-ply,SBD,M
Boys,82.1,1,Cristopher Stallings,Kermit,80.83,215.46,145.15,224.53,585.13,Single-ply,SBD,M
Boys,82.1,2,Daravion Williams,Midland Lee,79.65,226.8,115.67,215.46,557.92,Single-ply,SBD,M
Boys,82.1,3,DruMarcus Austin,Midland Lee,82.1,204.12,120.2,215.46,539.77,Single-ply,SBD,M
Boys,82.1,4,George Klassen,Seminole,81.92,204.12,113.4,210.92,528.44,Single-ply,SBD,M
Boys,82.1,5,Nicky Hoang,Midland,76.93,179.17,106.59,226.8,512.56,Single-ply,SBD,M
Boys,82.1,6,Sal Salinas,Midland,77.38,183.7,120.2,204.12,508.02,Single-ply,SBD,M
Boys,82.1,7,Richard Valenzuela,Andrews,76.84,176.9,117.93,201.85,496.68,Single-ply,SBD,M
Boys,82.1,8,Zach Denny,Kermit,79.38,185.97,104.33,204.12,494.42,Single-ply,SBD,M
Boys,82.1,9,Oscar Sanchez,Fort Stockton,78.83,195.04,120.2,174.63,489.88,Single-ply,SBD,M
Boys,82.1,10,Ramon Juarez,Seminole,76.84,183.7,102.06,195.04,480.81,Single-ply,SBD,M
Boys,82.1,11,Cole Gatzki,Plains,78.47,185.97,104.33,190.51,480.81,Single-ply,SBD,M
Boys,82.1,12,Jake Strickland,Monahans,80.01,188.24,115.67,170.1,474,Single-ply,SBD,M
Boys,82.1,13,Turner Phillips,Midland,79.11,165.56,106.59,183.7,455.86,Single-ply,SBD,M
Boys,82.1,14,Esteban Gonzales,Odessa,78.56,165.56,104.33,179.17,449.06,Single-ply,SBD,M
Boys,82.1,15,Blake Narrell,Odessa Permian,78.29,151.95,120.2,174.63,446.79,Single-ply,SBD,M
Boys,82.1,16,Jesus Davila,Whiteface,80.47,158.76,92.99,192.78,444.52,Single-ply,SBD,M
Boys,82.1,17,Alexis Armendariz,Alpine,79.65,145.15,106.59,181.44,433.18,Single-ply,SBD,M
Boys,82.1,18,Jacob Horner,Midland,77.56,170.1,86.18,174.63,430.91,Single-ply,SBD,M
Boys,82.1,19,Elias Terrazes,Alpine,77.66,161.03,92.99,174.63,428.64,Single-ply,SBD,M
Boys,82.1,20,Brandon Pereyra,Plains,75.48,136.08,108.86,181.44,426.38,Single-ply,SBD,M
Boys,82.1,21,Steven Ramirez,Midland Lee,76.48,158.76,102.06,158.76,419.57,Single-ply,SBD,M
Boys,82.1,22,Tyler Curtis,Alpine,80.65,145.15,92.99,176.9,415.04,Single-ply,SBD,M
Boys,82.1,23,Evan Gomez,Whiteface,78.93,163.29,95.25,147.42,405.97,Single-ply,SBD,M
Boys,82.1,24,Nick Miller #1,Alpine,77.2,156.49,88.45,158.76,403.7,Single-ply,SBD,M
Boys,82.1,25,Dj Landreth,Odessa Permian,80.83,142.88,92.99,167.83,403.7,Single-ply,SBD,M
Boys,82.1,26,Gabriel Baca,Seminole,81.19,154.22,90.72,145.15,390.09,Single-ply,SBD,M
Boys,82.1,27,Cody Fuentes,Monahans,80.74,142.88,90.72,149.69,383.29,Single-ply,SBD,M
Boys,82.1,28,Ish Marquez,Monahans,77.38,145.15,92.99,140.61,378.75,Single-ply,SBD,M
Boys,82.1,29,Lagen Smith,Crane,79.92,149.69,99.79,113.4,362.87,Single-ply,SBD,M
Boys,82.1,30,Hagen Lowery,Plains,77.56,99.79,72.57,136.08,308.44,Single-ply,SBD,M
Boys,89.81,1,Coleton Whitlock,Midland,88,226.8,138.35,244.94,610.08,Single-ply,SBD,M
Boys,89.81,2,Dayton Dennard,Odessa,84.46,208.65,127.01,217.72,553.38,Single-ply,SBD,M
Boys,89.81,3,Nick Anna,Plains,86.45,201.85,120.2,226.8,548.85,Single-ply,SBD,M
Boys,89.81,4,Osbaldo Vega,Crane,87.27,170.1,142.88,204.12,517.1,Single-ply,SBD,M
Boys,89.81,5,Johnathan Barrow,Odessa,85.46,183.7,92.99,206.38,483.08,Single-ply,SBD,M
Boys,89.81,6,Nathan Tone,Monahans,87.36,192.78,111.13,172.37,476.27,Single-ply,SBD,M
Boys,89.81,7,Tony Huynh,Midland Lee,89.45,174.63,111.13,183.7,469.47,Single-ply,SBD,M
Boys,89.81,8,Greg Garcia,Odessa,87.82,142.88,115.67,183.7,442.25,Single-ply,SBD,M
Boys,89.81,9,Arturo Hinojos,Midland,83.82,145.15,106.59,179.17,430.91,Single-ply,SBD,M
Boys,89.81,10,Joe Hernandez,Odessa Permian,84.82,142.88,102.06,165.56,410.5,Single-ply,SBD,M
Boys,89.81,11,Josh Caldwell,Monahans,85.64,167.83,81.65,149.69,399.16,Single-ply,SBD,M
Boys,89.81,12,Chris Huitron,Midland,82.46,136.08,88.45,142.88,367.41,Single-ply,SBD,M
Boys,89.81,13,Iniel Bustos,Denver City,88.27,136.08,83.91,136.08,356.07,Single-ply,SBD,M
Boys,89.81,14,Leo Montoya,Whiteface,83.01,120.2,79.38,149.69,349.27,Single-ply,SBD,M
Boys,89.81,15,Tano Castillo,Whiteface,85.18,99.79,58.97,142.88,301.64,Single-ply,SBD,M
Boys,99.79,1,Azel Alvidrez,Andrews,95.25,208.65,145.15,247.21,601.01,Single-ply,SBD,M
Boys,99.79,2,Dannyk Ramos,Midland,95.07,263.08,129.27,206.38,598.74,Single-ply,SBD,M
Boys,99.79,3,Daniel Cooper,Kermit,97.16,226.8,115.67,215.46,557.92,Single-ply,SBD,M
Boys,99.79,4,Javier Valdes,Midland,98.25,197.31,145.15,206.38,548.85,Single-ply,SBD,M
Boys,99.79,5,Cooper Meurer,Midland,99.7,204.12,124.74,183.7,512.56,Single-ply,SBD,M
Boys,99.79,6,Micah Melton,Andrews,98.34,190.51,106.59,201.85,498.95,Single-ply,SBD,M
Boys,99.79,7,Dillon Springer,Midland,97.34,165.56,124.74,204.12,494.42,Single-ply,SBD,M
Boys,99.79,8,Noah Hernandez,Odessa,92.99,192.78,102.06,188.24,483.08,Single-ply,SBD,M
Boys,99.79,9,Manuel Ramirez,Odessa,95.35,181.44,120.2,181.44,483.08,Single-ply,SBD,M
Boys,99.79,10,Michael Coy,Odessa Permian,94.98,204.12,115.67,158.76,478.54,Single-ply,SBD,M
Boys,99.79,11,Natanael Ramirez,Fort Stockton,95.89,181.44,92.99,192.78,467.2,Single-ply,SBD,M
Boys,99.79,12,Ty Crabtree,Monahans,99.34,170.1,120.2,174.63,464.93,Single-ply,SBD,M
Boys,99.79,13,Aaron Galindo,Odessa,90.45,174.63,104.33,183.7,462.66,Single-ply,SBD,M
Boys,99.79,14,Isaiah Marquez #1,Kermit,96.43,172.37,102.06,181.44,455.86,Single-ply,SBD,M
Boys,99.79,15,Jeramyah Paniagua,Odessa,96.62,174.63,113.4,147.42,435.45,Single-ply,SBD,M
Boys,99.79,16,Sammy Villarreal,Alpine,92.17,124.74,92.99,170.1,387.82,Single-ply,SBD,M
Boys,99.79,17,Matthew Leyva,Kermit,93.71,154.22,68.04,145.15,367.41,Single-ply,SBD,M
Boys,99.79,18,Alberto Castillo,Whiteface,94.89,127.01,77.11,163.29,367.41,Single-ply,SBD,M
Boys,99.79,19,Devon Horelica,Monahans,96.52,99.79,77.11,122.47,299.37,Single-ply,SBD,M
Boys,99.79,DQ,Emmanuel Ross,Midland Lee,90.81,120.2,90.72,,,Single-ply,SBD,M
Boys,99.79,DQ,Jayce Rush,Odessa Permian,99.43,147.42,,,,Single-ply,SBD,M
Boys,99.79,DQ,Joey Aceves,Andrews,95.89,183.7,,,,Single-ply,SBD,M
Boys,99.79,DQ,Daniel Griffin,Seminole,99.56,158.76,,,,Single-ply,SBD,M
Boys,109.77,1,Devon Miller,Midland,107.05,244.94,145.15,244.94,635.03,Single-ply,SBD,M
Boys,109.77,2,Zechariah Lerma,Odessa,105.05,242.67,147.42,217.72,607.81,Single-ply,SBD,M
Boys,109.77,3,Oscar Gutierrez,Monahans,108.86,238.14,120.2,197.31,555.65,Single-ply,SBD,M
Boys,109.77,4,Damian Rodriguez,Kermit,101.15,201.85,120.2,219.99,542.04,Single-ply,SBD,M
Boys,109.77,5,David Ramirez,Plains,106.5,215.46,133.81,176.9,526.17,Single-ply,SBD,M
Boys,109.77,6,Justin Sanchez,Midland,104.05,199.58,120.2,199.58,519.36,Single-ply,SBD,M
Boys,109.77,7,Traver Vliem,Midland,102.06,174.63,115.67,224.53,514.83,Single-ply,SBD,M
Boys,109.77,8,Paxton Heiting,Midland,100.24,163.29,133.81,206.38,503.49,Single-ply,SBD,M
Boys,109.77,9,Byron Hutson,Odessa,101.79,192.78,120.2,188.24,501.22,Single-ply,SBD,M
Boys,109.77,10,Edgar Contreras,Odessa,100.88,192.78,108.86,192.78,494.42,Single-ply,SBD,M
Boys,109.77,11,Dahel Davila,Whiteface,103.96,172.37,108.86,181.44,462.66,Single-ply,SBD,M
Boys,109.77,12,Ben Lujan,Fort Stockton,107.32,172.37,108.86,181.44,462.66,Single-ply,SBD,M
Boys,109.77,13,James Phillips #6,Crane,101.6,170.1,122.47,158.76,451.32,Single-ply,SBD,M
Boys,109.77,14,Derek Leyva,Fort Stockton,109.32,165.56,102.06,181.44,449.06,Single-ply,SBD,M
Boys,109.77,15,Bryson Calixto,Monahans,109.32,188.24,104.33,149.69,442.25,Single-ply,SBD,M
Boys,109.77,16,Joshua Rubalcaba,Odessa Permian,108.23,185.97,106.59,147.42,439.98,Single-ply,SBD,M
Boys,109.77,17,Bret Sarli,Seminole,109.27,172.37,90.72,158.76,421.84,Single-ply,SBD,M
Boys,109.77,18,Conan Hernandez,Midland Lee,102.69,129.27,120.2,140.61,390.09,Single-ply,SBD,M
Boys,109.77,DQ,Luis Valenzuela,Andrews,103.42,,,,,Single-ply,SBD,M
Boys,124.74,1,Jacob Granado,Midland,121.38,272.16,120.2,226.8,619.15,Single-ply,SBD,M
Boys,124.74,2,Boston Alvarado,Fort Stockton,117.39,240.4,138.35,219.99,598.74,Single-ply,SBD,M
Boys,124.74,3,Jesus Olivares,Odessa Permian,120.29,226.8,124.74,238.14,589.67,Single-ply,SBD,M
Boys,124.74,4,Cristian Aguirre,Fort Stockton,112.67,204.12,129.27,204.12,537.51,Single-ply,SBD,M
Boys,124.74,5,Arturo Ortega,Denver City,113.31,206.38,115.67,206.38,528.44,Single-ply,SBD,M
Boys,124.74,6,Isaac Martinez,Kermit,121.38,195.04,120.2,204.12,519.36,Single-ply,SBD,M
Boys,124.74,7,Cayden White,Odessa Permian,117.93,192.78,120.2,197.31,510.29,Single-ply,SBD,M
Boys,124.74,8,Jesus Adame,Odessa,112.49,204.12,113.4,181.44,498.95,Single-ply,SBD,M
Boys,124.74,9,Kyle Rickman,Seminole,114.44,183.7,111.13,204.12,498.95,Single-ply,SBD,M
Boys,124.74,10,McKenzie Lawson,Odessa Permian,118.93,174.63,102.06,192.78,469.47,Single-ply,SBD,M
Boys,124.74,11,JJ Ramos,Kermit,119.84,163.29,113.4,188.24,464.93,Single-ply,SBD,M
Boys,124.74,12,Alex Holguin,Monahans,115.94,185.97,104.33,167.83,458.13,Single-ply,SBD,M
Boys,124.74,13,Seth Jaramillo,Andrews,119.2,165.56,99.79,154.22,419.57,Single-ply,SBD,M
Boys,124.74+,1,Pablo Gutierrez #2,Odessa,133.08,249.48,133.81,233.6,616.89,Single-ply,SBD,M
Boys,124.74+,2,O'Shay Scott,Midland,127.91,224.53,142.88,226.8,594.21,Single-ply,SBD,M
Boys,124.74+,3,CJ Carrillo,Midland,142.34,195.04,151.95,206.38,553.38,Single-ply,SBD,M
Boys,124.74+,4,Aaron Leyva,Odessa,125.1,233.6,108.86,185.97,528.44,Single-ply,SBD,M
Boys,124.74+,5,Raymond Porras,Monahans,129,172.37,117.93,165.56,455.86,Single-ply,SBD,M
Boys,124.74+,6,Patrick Hernandez,Midland Lee,142.07,170.1,97.52,163.29,430.91,Single-ply,SBD,M
Boys,124.74+,DQ,Jacob Molina,Midland Lee,159.85,231.33,,,,Single-ply,SBD,M
Boys,124.74+,DQ,Branden Marriott,Fort Stockton,152.68,197.31,104.33,,,Single-ply,SBD,M
