Division,WeightClassKg,Place,Name,Team,BodyweightKg,Best3SquatKg,Best3BenchKg,Best3DeadliftKg,TotalKg,Equipment,Event,Sex
Boys,55.79,1,Mason Miranda,Granbury,55.7,113.4,74.84,147.42,335.66,Single-ply,SBD,M
Boys,55.79,2,Chris Wimley,Granbury,55.43,115.67,77.11,131.54,324.32,Single-ply,SBD,M
Boys,55.79,3,JoJo Talavera,Glen Rose,54.98,104.33,56.7,124.74,285.76,Single-ply,SBD,M
Boys,59.87,1,Jesse Ramirez #5,Glen Rose,59.42,122.47,77.11,113.4,312.98,Single-ply,SBD,M
Boys,67.13,1,Connor Kinser,Granbury,66.59,102.06,77.11,120.2,299.37,Single-ply,SBD,M
Boys,67.13,2,Barron Barnes,Glen Rose,65.5,106.59,63.5,122.47,292.57,Single-ply,SBD,M
Boys,67.13,DQ,Isiah Hurtado,Glen Rose,65.77,,,,,Single-ply,SBD,M
Boys,74.84,1,Sean Parnell,Fort Worth Paschal,74.57,179.17,97.52,185.97,462.66,Single-ply,SBD,M
Boys,74.84,2,Jacob Clark,Granbury,74.84,163.29,99.79,197.31,460.4,Single-ply,SBD,M
Boys,74.84,3,Raul Villegas,Granbury,70.76,145.15,102.06,165.56,412.77,Single-ply,SBD,M
Boys,74.84,4,Darrius Evans,Granbury,70.22,124.74,95.25,158.76,378.75,Single-ply,SBD,M
Boys,74.84,5,Jared Rosas,Granbury,70.31,111.13,72.57,131.54,315.25,Single-ply,SBD,M
Boys,74.84,6,William Booker,Fort Worth Paschal,71.03,147.42,83.91,,231.33,Single-ply,SB,M
Boys,74.84,7,Giani Roberts,Fort Worth Paschal,73.66,,83.91,,83.91,Single-ply,B,M
Boys,82.1,1,Alonzo Molina,Granbury,78.47,179.17,115.67,195.04,489.88,Single-ply,SBD,M
Boys,82.1,2,Brendan Chism,Granbury,78.93,181.44,117.93,190.51,489.88,Single-ply,SBD,M
Boys,82.1,3,Riley McGee,Granbury,81.1,165.56,113.4,183.7,462.66,Single-ply,SBD,M
Boys,82.1,4,Britt Blanchette,Glen Rose,81.83,140.61,99.79,154.22,394.63,Single-ply,SBD,M
Boys,82.1,5,Matthew Locke,Glen Rose,81.28,142.88,83.91,158.76,385.55,Single-ply,SBD,M
Boys,82.1,6,Preston Lutgen,Granbury,81.19,115.67,88.45,142.88,347,Single-ply,SBD,M
Boys,82.1,7,Jaden Morris,Fort Worth Paschal,77.66,117.93,77.11,136.08,331.12,Single-ply,SBD,M
Boys,89.81,1,Rolando Jaramillo,Granbury,88.09,185.97,136.08,192.78,514.83,Single-ply,SBD,M
Boys,89.81,2,Marcus Moseley,Glen Rose,89.36,190.51,117.93,195.04,503.49,Single-ply,SBD,M
Boys,89.81,3,Oscar Campos,Fort Worth Paschal,86.91,181.44,102.06,208.65,492.15,Single-ply,SBD,M
Boys,89.81,4,Ricky Douglas,Glen Rose,86.18,181.44,117.93,190.51,489.88,Single-ply,SBD,M
Boys,89.81,5,Baker Butler,Glen Rose,89.72,181.44,92.99,208.65,483.08,Single-ply,SBD,M
Boys,89.81,6,Aaron Cullum,Granbury,86,183.7,102.06,183.7,469.47,Single-ply,SBD,M
Boys,89.81,7,Sammy Aldriedge,Glen Rose,87.54,165.56,90.72,181.44,437.72,Single-ply,SBD,M
Boys,89.81,8,Reed Kimball,Fort Worth Paschal,88.45,156.49,79.38,154.22,390.09,Single-ply,SBD,M
Boys,89.81,9,Kagen Hill,Granbury,85.73,124.74,79.38,142.88,347,Single-ply,SBD,M
Boys,99.79,1,Keeton Derouen,Granbury,94.08,222.26,124.74,251.74,598.74,Single-ply,SBD,M
Boys,99.79,2,Kody Krause,Granbury,95.71,219.99,136.08,238.14,594.21,Single-ply,SBD,M
Boys,99.79,3,Logan Potter,Granbury,96.16,190.51,122.47,197.31,510.29,Single-ply,SBD,M
Boys,99.79,4,Nathan Stamps,Fort Worth Paschal,96.16,174.63,83.91,199.58,458.13,Single-ply,SBD,M
Boys,99.79,5,Brandt Moore,Glen Rose,99.25,172.37,97.52,181.44,451.32,Single-ply,SBD,M
Boys,99.79,6,Felix Rodriguez,Fort Worth Paschal,99.2,172.37,90.72,181.44,444.52,Single-ply,SBD,M
Boys,99.79,7,Trevino Kolten,Granbury,98.88,151.95,111.13,165.56,428.64,Single-ply,SBD,M
Boys,99.79,8,Marc Moss,Glen Rose,96.16,136.08,90.72,158.76,385.55,Single-ply,SBD,M
Boys,99.79,9,Tony Ramos #3,Glen Rose,95.44,181.44,,195.04,376.48,Single-ply,SD,M
Boys,99.79,DQ,Nick Rangel,Fort Worth Paschal,99.52,,,,,Single-ply,SBD,M
Boys,109.77,1,Ruben Veliz,Granbury,108.86,238.14,127.01,251.74,616.89,Single-ply,SBD,M
Boys,109.77,2,Zach Powell,Glen Rose,108.05,231.33,131.54,235.87,598.74,Single-ply,SBD,M
Boys,109.77,3,Grant McGarity,Glen Rose,109.23,222.26,104.33,195.04,521.63,Single-ply,SBD,M
Boys,109.77,4,Saul Delgado,Glen Rose,107.5,181.44,90.72,181.44,453.59,Single-ply,SBD,M
Boys,109.77,5,Jacob Pena,Glen Rose,109.32,181.44,95.25,163.29,439.98,Single-ply,SBD,M
Boys,109.77,6,Isreal Ramirez,Granbury,100.29,147.42,113.4,174.63,435.45,Single-ply,SBD,M
Boys,109.77,7,Salih Hidic,Fort Worth Paschal,108.86,154.22,90.72,163.29,408.23,Single-ply,SBD,M
Boys,109.77,8,Parker Lutgen,Granbury,109.68,147.42,104.33,151.95,403.7,Single-ply,SBD,M
Boys,109.77,9,Andre Rocha,Granbury,109.32,127.01,86.18,142.88,356.07,Single-ply,SBD,M
Boys,124.74,1,Skylar Beck,Granbury,124.47,272.16,172.37,226.8,671.32,Single-ply,SBD,M
Boys,124.74,2,Christian Holmes,Granbury,116.35,263.08,170.1,217.72,650.91,Single-ply,SBD,M
Boys,124.74,3,Edger Ramirez,Fort Worth Paschal,111.67,190.51,95.25,183.7,469.47,Single-ply,SBD,M
Boys,124.74,4,Marco Moreno,Fort Worth Paschal,122.47,183.7,92.99,188.24,464.93,Single-ply,SBD,M
Boys,124.74,5,Jake Rollen,Glen Rose,122.74,181.44,83.91,158.76,424.11,Single-ply,SBD,M
Boys,124.74+,1,Hayden Shaw,Glen Rose,125.65,281.23,140.61,249.48,671.32,Single-ply,SBD,M
Boys,124.74+,2,Koltin Bush,Granbury,129.27,219.99,142.88,217.72,580.6,Single-ply,SBD,M
Boys,124.74+,3,Jahir Orocio,Granbury,125.78,208.65,115.67,170.1,494.42,Single-ply,SBD,M
Boys,124.74+,4,Afton Haayer,Granbury,133.81,185.97,115.67,167.83,469.47,Single-ply,SBD,M
Boys,124.74+,5,Grisham Jennings,Fort Worth Paschal,126.69,,70.31,147.42,217.72,Single-ply,BD,M
Boys,124.74+,DQ,Nehemiah Redden,Fort Worth Paschal,129.46,,,,,Single-ply,SBD,M
