Place,Name,Sex,BirthDate,Age,Equipment,Division,BodyweightKg,WeightClassKg,Squat1Kg,Squat2Kg,Squat3Kg,Best3SquatKg,Bench1Kg,Bench2Kg,Bench3Kg,Best3BenchKg,Deadlift1Kg,Deadlift2Kg,Deadlift3Kg,Best3DeadliftKg,TotalKg,Event
1,Bringsty Edwards,F,1990-02-27,31,Raw,F_OR_ABPU,87.9,90,110,125,140,140,70,75,-82.5,75,140,150,160,160,375,SBD
1,Shan Passmore,F,,50,Wraps,F_MCR_3_BPU,66.2,67.5,125,137.5,142.5,142.5,60,67.5,70,70,130,145,160,160,372.5,SBD
1,Amanda Gisby,F,,39,Wraps,F_OCR_ABPU,64.3,67.5,135,140,145,145,55,57.5,60,60,135,145,155,155,360,SBD
2,Daniella Scozzi,F,,52,Wraps,F_MCR_3_BPU,64.4,67.5,100,110,120,120,60,62.5,-67.5,62.5,125,130,-140,130,312.5,SBD
1,Natalie O'Shea,F,,34,Wraps,F_OCR_BPU,74.1,75,140,160,180,180,90,100,-112.5,100,170,180,-195,180,460,SBD
2,Kelly Morgan #2,F,,39,Wraps,F_OCR_BPU,73.1,75,90,100,110,110,50,60,65,65,110,120,125,125,300,SBD
1,Lana Thomas Hey,F,,36,Wraps,F_OCR_BPU,84.3,90,135,140,150,150,85,100,105,105,155,165,170,170,425,SBD
1,Sherie Reed,F,,40,Wraps,F_MCR_1_BPU,87,90,135,145,,145,75,82.5,87.5,87.5,155,162.5,170,170,402.5,SBD
1,Sarah Wells #3,F,,37,Wraps,F_OCR_BPU,105.8,90+,110,-125,-125,110,50,57.5,65,65,125,140,150,150,325,SBD
1,Jodie Davies,F,,25,Multi-ply,F_OEM_ABPU,47.5,48,135,145,157.5,157.5,85,-90,-90,85,120,-130,-130,120,362.5,SBD
1,Laura Blayney,F,1987-08-12,33,Raw,F_OR_ABPU,105.5,90+,,,,,,,,,70,80,100,100,100,D
1,Tyler White #1,M,,22,Raw,M_JR_ABPU,98.2,100,200,210,-220,210,130,140,-150,140,-240,240,260,260,610,SBD
1,Neil Keddy,M,1977-11-03,43,Raw,M_MR_1_ABPU,98.5,100,150,160,170,170,120,130,135,135,180,200,-210,200,505,SBD
1,Andrew Riddiford,M,,31,Raw,M_OR_BPU,107.3,110,140,,,140,120,,,120,220,250,280,280,540,SBD
1,John Charles Samuel,M,1998-08-07,22,Raw,M_JR_ABPU,177.1,140+,-120,120,150,150,115,-130,,115,180,205,,205,470,SBD
1,Sam Mclean,M,1996-10-16,24,Wraps,M_OCR_BPU,106.7,110,260,280,290,290,-165,175,180,180,260,280,300,300,770,SBD
1,Doug Arnold #1,M,1987-01-07,34,Wraps,M_OCR_ABPU,103,110,252.5,270,290,290,140,150,,150,282.5,300,-315,300,740,SBD
2,Chris Brown #2,M,1983-08-09,37,Wraps,M_OCR_ABPU,107,110,235,-250,250,250,155,165,170,170,255,270,280,280,700,SBD
1,Keith Evans,M,,42,Wraps,M_MCR_1_BPU,108.2,110,225,240,260,260,160,175,185,185,200,220,240,240,685,SBD
1,Josh Black #3,M,1989-12-05,31,Wraps,M_OCR_ABPU,124.4,125,305,320,325,325,162.5,172.5,180,180,-250,250,265,265,770,SBD
1,Tony Chilcott,M,,54,Single-ply,M_MES_3_BPU,81.7,82.5,240,260,272.5,272.5,150,160,167.5,167.5,220,230,-240,230,670,SBD
DQ,Adrian Phillips,M,,57,Single-ply,M_MES_4_ABPU,99.1,100,210,230,-242.5,230,-135,-135,-135,,-225,,,,,SBD
1,John Charles Samuel,M,1998-08-07,22,Raw,M_JR_ABPU,177.1,140+,,,,,115,-130,,115,,,,,115,B
1,John Charles Samuel,M,1998-08-07,22,Raw,M_JR_ABPU,177.1,140+,,,,,,,,,180,205,,205,205,D
1,Luke Litchfield,M,1986-04-25,35,Multi-ply,M_OEM_BPU,104.2,110,,,,,220,242.5,250,250,,,,,250,B
1,Shane Gywther,M,2001-04-26,20,Raw,M_JR_ABPU,93.2,100,,,,,,,,,200,215,230,230,230,D
