Name,WeightClassKg,Division,Best3SquatKg,Best3BenchKg,Best3DeadliftKg,TotalKg,Sex,Event,Equipment,Place,State
Alyssa Wilson,52,F-O,97.52,42.64,110.22,250.38,F,SBD,Single-ply,1,
Robin Niederkonn,60,F-O,160.12,84.82,162.39,407.33,F,SBD,Single-ply,1,
Andrea Tsilis,60,F-O,102.51,39.92,99.79,242.22,F,SBD,Single-ply,2,
Pamela Banister,67.5,F-O,89.81,62.6,112.49,264.9,F,SBD,Single-ply,1,
Patricia Schutte,75,F-O,127.46,84.82,132.45,344.73,F,SBD,Single-ply,1,
Stacy Langer,75,F-O,99.79,47.63,127.46,274.88,F,SBD,Single-ply,2,
Matt Knight #2,56,M-O,165.11,92.53,167.38,425.02,M,SBD,Single-ply,1,
Matt Knight #2,56,M-T,165.11,92.53,167.38,425.02,M,SBD,Single-ply,1,
Aaron Phillips #2,60,M-O,205.02,120.2,205.02,530.25,M,SBD,Single-ply,1,
Aaron Phillips #2,60,M-Jr,205.02,120.2,205.02,530.25,M,SBD,Single-ply,1,
Steven Mikulecky,67.5,M-O,192.32,115.21,229.97,537.51,M,SBD,Single-ply,1,
Luai Al-Ghamdi,67.5,M-Jr,190.06,137.44,197.31,524.81,M,SBD,Single-ply,1,
Travis Hartman,67.5,M-Jr,172.37,117.48,205.02,494.87,M,SBD,Single-ply,2,
Houa Yang,67.5,M-T,177.35,110.22,195.04,482.62,M,SBD,Single-ply,1,
Rick Schwalbach,67.5,M-O,172.37,107.5,197.31,477.18,M,SBD,Single-ply,2,
Brian Mikulecky,67.5,M-T,165.11,82.55,192.32,439.98,M,SBD,Single-ply,2,
Kyle Mikulecky,67.5,M-T,165.11,72.57,197.31,435,M,SBD,Single-ply,3,
Jaareal Bell,67.5,M-T,145.15,94.8,190.06,430.01,M,SBD,Single-ply,4,
Ryan Skinner,67.5,M-O,125.19,112.49,192.32,430.01,M,SBD,Single-ply,3,
David Labrie,75,M-O,205.02,130.18,239.95,575.16,M,SBD,Single-ply,1,
David Labrie,75,M-T,205.02,130.18,239.95,575.16,M,SBD,Single-ply,1,
Chris Schumacher,75,M-O,202.3,110.22,234.96,547.49,M,SBD,Single-ply,2,
Russell Johnston,75,M-O,192.32,125.19,205.02,522.54,M,SBD,Single-ply,3,
Russell Johnston,75,M-T,192.32,125.19,205.02,522.54,M,SBD,Single-ply,2,
Sid Rigdon,75,M-T,,,,,M,SBD,Single-ply,DQ,
Jeremy Weber,82.5,M-O,257.64,147.42,237.68,642.74,M,SBD,Single-ply,1,
Ronald Legarreta,82.5,M-O,215,142.43,229.97,587.4,M,SBD,Single-ply,2,
Pete Nees,82.5,M-O,205.02,137.44,217.72,560.19,M,SBD,Single-ply,3,
Brandon Raeder,82.5,M-T,182.34,94.8,200.03,477.18,M,SBD,Single-ply,1,
Richard Stillman,82.5,M-M2b,152.41,125.19,185.07,462.66,M,SBD,Single-ply,1,
Anthony Lyons,82.5,M-Jr,239.95,,259.91,,M,SBD,Single-ply,DQ,
Ben Haney,90,M-O,242.67,152.41,274.88,669.96,M,SBD,Single-ply,1,
John Shields,90,M-O,244.94,172.37,249.93,667.23,M,SBD,Single-ply,2,
Eric Pelky,90,M-O,210.01,182.34,232.69,625.05,M,SBD,Single-ply,3,
Shawn Cain,100,M-O,287.58,192.32,312.53,792.43,M,SBD,Single-ply,1,
Mart Becker,100,M-O,267.62,192.32,267.62,727.56,M,SBD,Single-ply,2,
Marty Becker,100,M-M1a,267.62,192.32,267.62,727.56,M,SBD,Single-ply,1,
Jessie Betzinger,100,M-O,277.6,167.38,282.59,727.56,M,SBD,Single-ply,3,
Andrew Mocadlo,100,M-O,252.65,165.11,264.9,682.66,M,SBD,Single-ply,4,
Brian German,100,M-O,202.3,155.13,249.93,607.36,M,SBD,Single-ply,5,
Brian Briggs,100,M-M3a,185.07,150.14,210.01,545.22,M,SBD,Single-ply,1,
Jason Bierman,100,M-O,187.33,145.15,200.03,532.52,M,SBD,Single-ply,6,
Kelly Parrson,100,M-M1a,107.5,84.82,155.13,347.45,M,SBD,Single-ply,2,
Scott Lade,110,M-O,347.45,309.8,289.85,947.1,M,SBD,Single-ply,1,
Scott Schoene,110,M-O,287.58,219.99,317.51,825.08,M,SBD,Single-ply,2,
Phil Diamond,110,M-O,257.64,222.71,289.85,770.2,M,SBD,Single-ply,3,
Kurt Weyrough,110,M-O,272.61,219.99,269.89,762.49,M,SBD,Single-ply,4,
Darin Heyerdahl,110,M-O,252.65,217.72,282.59,752.96,M,SBD,Single-ply,5,
Matt Gunville,110,M-O,259.91,195.04,259.91,714.86,M,SBD,Single-ply,6,
Brandon Luedtke,110,M-O,262.63,160.12,272.61,695.36,M,SBD,Single-ply,7,
Todd Dierks,110,M-O,217.72,142.43,234.96,595.11,M,SBD,Single-ply,8,
Todd Dierks,110,M-M1a,217.72,142.43,234.96,595.11,M,SBD,Single-ply,1,
Mike Saunders,110,M-M1a,234.96,170.1,,,M,SBD,Single-ply,DQ,
Greg Kiriaki,110,M-Jr,264.9,170.1,,,M,SBD,Single-ply,DQ,
Kurt Weyrough,125,M-M1a,272.61,219.99,269.89,762.49,M,SBD,Single-ply,1,
Alex Gilde,125,M-T,264.9,160.12,279.87,704.88,M,SBD,Single-ply,1,
Bill Semisek,125,M-Jr,207.29,155.13,222.71,585.13,M,SBD,Single-ply,1,
Greg Frounfelter,125+,M-O,242.67,167.38,304.81,714.86,M,SBD,Single-ply,1,
Jake Switalski,125+,M-O,234.96,205.02,267.62,707.6,M,SBD,Single-ply,2,
Crystal Wilson,52,F-O,,29.94,,29.94,F,B,Single-ply,1,
Andrew Olsen,67.5,M-O,,120.2,,120.2,M,B,Single-ply,1,
Travis Hartman,67.5,M-O,,117.48,,117.48,M,B,Single-ply,2,
Ted Krueger,75,M-O,,170.1,,170.1,M,B,Single-ply,1,
Eric Pelky,90,M-O,,182.34,,182.34,M,B,Single-ply,1,
Larry Malcomson,100,M-O,,249.93,,249.93,M,B,Single-ply,1,
David Doan,110,M-O,,274.88,,274.88,M,B,Single-ply,1,
Dave Johnson,110,M-O,,234.96,,234.96,M,B,Single-ply,2,
Jerry Jones,110,M-O,,185.07,,185.07,M,B,Single-ply,3,
Gary Gulseth,125,M-O,,205.02,,205.02,M,B,Single-ply,1,
Tom Smith #7,125,M-O,,,,,M,B,Single-ply,DQ,
Jim Ray,125+,M-O,,195.04,,195.04,M,B,Single-ply,1,
