Division,WeightClassKg,Place,Name,Team,BodyweightKg,Best3SquatKg,Best3BenchKg,Best3DeadliftKg,TotalKg,Equipment,Event,Sex
Boys,51.71,1,Nathan Acosta,Pearland Dawson,50.71,124.74,61.23,136.08,322.05,Single-ply,SBD,M
Boys,51.71,2,Jacob Cavness,Santa Fe,49.71,92.99,68.04,92.99,254.01,Single-ply,SBD,M
Boys,51.71,3,Michael Vargas,Beaumont West Brook,47.36,99.79,47.63,90.72,238.14,Single-ply,SBD,M
Boys,51.71,4,Andrew King,Cleveland Tarkington,42.73,74.84,47.63,88.45,210.92,Single-ply,SBD,M
Boys,51.71,5,Kole Joiner,La Marque,46.72,52.16,45.36,88.45,185.97,Single-ply,SBD,M
Boys,51.71,6,Sean Nance,Galveston Ball,43.64,52.16,34.02,61.23,147.42,Single-ply,SBD,M
Boys,55.79,1,Jeremiah Coleman,Dickinson,55.79,151.95,65.77,163.29,381.02,Single-ply,SBD,M
Boys,55.79,2,Jordon Trevino,Bay City,54.25,145.15,77.11,147.42,369.68,Single-ply,SBD,M
Boys,55.79,3,Royshon Godley,Texas City,53.43,129.27,61.23,129.27,319.78,Single-ply,SBD,M
Boys,55.79,4,John Maggiolino,Dickinson,55.52,129.27,65.77,124.74,319.78,Single-ply,SBD,M
Boys,55.79,5,Tomas Ibarra,Texas City,55.79,115.67,74.84,122.47,312.98,Single-ply,SBD,M
Boys,55.79,6,Adam Blodgett,Cleveland Tarkington,55.34,106.59,63.5,127.01,297.1,Single-ply,SBD,M
Boys,55.79,7,Gabriel Vargas,Bay City,55.79,113.4,68.04,102.06,283.5,Single-ply,SBD,M
Boys,55.79,8,Wyatt Mol,Cleveland Tarkington,53.16,90.72,56.7,95.25,242.67,Single-ply,SBD,M
Boys,55.79,9,Cade McCunn,Splendora,54.79,68.04,45.36,95.25,208.65,Single-ply,SBD,M
Boys,59.87,1,Matthew Longoria,Alvin,57.24,188.24,136.08,183.7,508.02,Single-ply,SBD,M
Boys,59.87,2,Alec Ruiz,Pearland Dawson,59.6,161.03,74.84,151.95,387.82,Single-ply,SBD,M
Boys,59.87,3,Roger Whittley,Beaumont Central,59.06,124.74,104.33,136.08,365.14,Single-ply,SBD,M
Boys,59.87,4,Mike Casteneda,Texas City,56.34,113.4,74.84,124.74,312.98,Single-ply,SBD,M
Boys,59.87,5,Casey Avallaneda,Splendora,58.6,102.06,70.31,115.67,288.03,Single-ply,SBD,M
Boys,59.87,6,Caleb Crum,Pearland,59.33,117.93,,124.74,242.67,Single-ply,SD,M
Boys,59.87,7,Juwan McCarroll,Galveston Ball,57.88,,81.65,131.54,213.19,Single-ply,BD,M
Boys,59.87,DQ,Dremar Washington,Beaumont Ozen,59.87,,,,,Single-ply,BD,M
Boys,67.13,1,Pablo Cavazos,Dickinson,66.81,274.42,122.47,244.94,641.83,Single-ply,SBD,M
Boys,67.13,2,DeMarcus Coleman,Beaumont West Brook,67.13,183.7,104.33,181.44,469.47,Single-ply,SBD,M
Boys,67.13,3,Zane Havel,Bay City,66.41,185.97,102.06,179.17,467.2,Single-ply,SBD,M
Boys,67.13,4,Joshua Crum,Pearland,66.13,174.63,106.59,174.63,455.86,Single-ply,SBD,M
Boys,67.13,5,Santiago Hernandez,Texas City,64.5,174.63,102.06,158.76,435.45,Single-ply,SBD,M
Boys,67.13,6,Orlando Moreno,Bay City,66.22,174.63,92.99,149.69,417.3,Single-ply,SBD,M
Boys,67.13,7,Jacob Barrera,Alvin,64.5,158.76,83.91,154.22,396.89,Single-ply,SBD,M
Boys,67.13,8,Ty Broussard,Alvin,66.86,149.69,92.99,145.15,387.82,Single-ply,SBD,M
Boys,67.13,9,Erin Esquivel,Conroe Caney Creek,65.68,133.81,79.38,129.27,342.46,Single-ply,SBD,M
Boys,67.13,10,Brennan Pott,Cleveland Tarkington,61.96,142.88,,154.22,297.1,Single-ply,SD,M
Boys,67.13,11,Enoc Villagomez,Conroe Caney Creek,63.14,124.74,,129.27,254.01,Single-ply,SD,M
Boys,67.13,12,Deric Lowe,Beaumont Ozen,65.77,,63.5,147.42,210.92,Single-ply,BD,M
Boys,67.13,13,Russell Pickney,La Marque,65.95,,,190.51,190.51,Single-ply,D,M
Boys,67.13,14,Anthony Ramirez,Alvin,60.69,156.49,,,156.49,Single-ply,S,M
Boys,67.13,DQ,Tyrus Williams,Beaumont Ozen,67.13,,,,,Single-ply,S,M
Boys,67.13,DQ,Austin Gurka,Santa Fe,67.13,,,,,Single-ply,S,M
Boys,74.84,1,Luis Sanchez,Dickinson,74.12,206.38,92.99,204.12,503.49,Single-ply,SBD,M
Boys,74.84,2,Jonathan Pesina,Bay City,74.3,195.04,111.13,190.51,496.68,Single-ply,SBD,M
Boys,74.84,3,Trevor Howard,Cleveland Tarkington,73.57,183.7,83.91,204.12,471.74,Single-ply,SBD,M
Boys,74.84,4,Adrian Blanton,Conroe Caney Creek,72.21,170.1,111.13,176.9,458.13,Single-ply,SBD,M
Boys,74.84,5,Marc Banda,Alvin,70.03,183.7,83.91,183.7,451.32,Single-ply,SBD,M
Boys,74.84,6,Nick Sauer,Texas City,70.03,158.76,97.52,188.24,444.52,Single-ply,SBD,M
Boys,74.84,7,Kamryn Charles,Channelview,68.58,138.35,92.99,188.24,419.57,Single-ply,SBD,M
Boys,74.84,8,Efren Ramirez,Alvin,68.86,156.49,108.86,154.22,419.57,Single-ply,SBD,M
Boys,74.84,9,Daniel Taylor,Alvin,70.76,154.22,106.59,158.76,419.57,Single-ply,SBD,M
Boys,74.84,10,Jacob Duncan,Conroe Caney Creek,71.4,165.56,83.91,167.83,417.3,Single-ply,SBD,M
Boys,74.84,11,William Palmer,Dickinson,74.48,165.56,77.11,170.1,412.77,Single-ply,SBD,M
Boys,74.84,12,Collin Wellman,Pasadena Memorial,70.03,154.22,81.65,174.63,410.5,Single-ply,SBD,M
Boys,74.84,13,Damien Butler,Texas City,72.03,154.22,97.52,158.76,410.5,Single-ply,SBD,M
Boys,74.84,14,Daniel Coleman,Beaumont West Brook,71.85,156.49,92.99,154.22,403.7,Single-ply,SBD,M
Boys,74.84,15,Daniel Fernandez,Alvin,74.75,151.95,97.52,154.22,403.7,Single-ply,SBD,M
Boys,74.84,16,Nicolas McDonald,Santa Fe,74.84,156.49,72.57,165.56,394.63,Single-ply,SBD,M
Boys,74.84,17,Bradley Sanders,Cleveland Tarkington,72.76,165.56,83.91,136.08,385.55,Single-ply,SBD,M
Boys,74.84,18,Christian Garay,Alvin,71.03,124.74,86.18,149.69,360.61,Single-ply,SBD,M
Boys,74.84,19,Nick Zompa,Galveston Ball,74.57,129.27,68.04,129.27,326.59,Single-ply,SBD,M
Boys,74.84,20,Wai Kaurig,Galveston Ball,69.67,83.91,61.23,165.56,310.71,Single-ply,SBD,M
Boys,74.84,21,Austin Tullos,Splendora,74.84,102.06,56.7,108.86,267.62,Single-ply,SBD,M
Boys,74.84,22,Bradley Thomas,Beaumont Ozen,71.67,122.47,,136.08,258.55,Single-ply,SD,M
Boys,74.84,23,Gavin Ewing,Beaumont Central,73.48,74.84,,102.06,176.9,Single-ply,SD,M
Boys,74.84,DQ,Kalin Redmon,Beaumont Ozen,74.84,,,,,Single-ply,SD,M
Boys,82.1,1,Dawson Nobriga,Channelview,79.11,235.87,145.15,213.19,594.21,Single-ply,SBD,M
Boys,82.1,2,Mason Avery,Texas City,78.74,195.04,108.86,183.7,487.61,Single-ply,SBD,M
Boys,82.1,3,Daley Samuel,Pearland,79.65,183.7,120.2,183.7,487.61,Single-ply,SBD,M
Boys,82.1,4,Michael Pena,Pasadena Memorial,78.29,185.97,102.06,197.31,485.34,Single-ply,SBD,M
Boys,82.1,5,David Aviles,Alvin,79.92,176.9,99.79,185.97,462.66,Single-ply,SBD,M
Boys,82.1,6,Jonathan Ruiz,Bay City,78.2,161.03,83.91,158.76,403.7,Single-ply,SBD,M
Boys,82.1,7,Joko Sulliven,Cleveland Tarkington,76.57,145.15,90.72,136.08,371.95,Single-ply,SBD,M
Boys,82.1,8,Maliki Bethea,Pasadena Memorial,81.65,136.08,72.57,163.29,371.95,Single-ply,SBD,M
Boys,82.1,9,Quaylon Coleman,Beaumont West Brook,79.47,142.88,81.65,136.08,360.61,Single-ply,SBD,M
Boys,82.1,10,Logan Brown,Splendora,81.74,147.42,88.45,113.4,349.27,Single-ply,SBD,M
Boys,82.1,11,Bryce Botkin,Pearland,77.11,124.74,70.31,129.27,324.32,Single-ply,SBD,M
Boys,82.1,12,Zachary Seals,Splendora,81.19,90.72,70.31,90.72,251.74,Single-ply,SBD,M
Boys,82.1,DQ,Christian Releford,Beaumont Ozen,82.1,,,,,Single-ply,SBD,M
Boys,82.1,DQ,Caleb Richardson,Beaumont Ozen,82.1,,,,,Single-ply,SBD,M
Boys,82.1,DQ,Treyvon Gates,Beaumont Ozen,82.1,,,,,Single-ply,SBD,M
Boys,89.81,1,Octavio Galicia,Dickinson,89.81,208.65,115.67,213.19,537.51,Single-ply,SBD,M
Boys,89.81,2,Richard Garza,Beaumont West Brook,87.27,192.78,127.01,213.19,532.97,Single-ply,SBD,M
Boys,89.81,3,Joseph McCarty-Davis,Texas City,86,197.31,108.86,219.99,526.17,Single-ply,SBD,M
Boys,89.81,4,Cameron Boegler,Pearland,88.36,188.24,124.74,201.85,514.83,Single-ply,SBD,M
Boys,89.81,5,Gage Slaughter,Santa Fe,89.18,188.24,120.2,192.78,501.22,Single-ply,SBD,M
Boys,89.81,6,Chris Garcia #11,Conroe Caney Creek,87.36,181.44,102.06,208.65,492.15,Single-ply,SBD,M
Boys,89.81,7,Benjamin McElyea,Pearland Dawson,87.72,170.1,124.74,181.44,476.27,Single-ply,SBD,M
Boys,89.81,8,Kaleb Jacobs,Texas City,86.55,183.7,117.93,158.76,460.4,Single-ply,SBD,M
Boys,89.81,9,Hayden Barron,Alvin,83.37,174.63,111.13,165.56,451.32,Single-ply,SBD,M
Boys,89.81,10,Ishawn Baines,Dickinson,87.82,170.1,81.65,183.7,435.45,Single-ply,SBD,M
Boys,89.81,11,Jacoby Wagner,La Marque,83.1,161.03,90.72,181.44,433.18,Single-ply,SBD,M
Boys,89.81,12,Jordan Malvo,Beaumont Central,86.27,170.1,83.91,151.95,405.97,Single-ply,SBD,M
Boys,89.81,13,Andrew Prayn,Pearland Dawson,88.09,151.95,102.06,145.15,399.16,Single-ply,SBD,M
Boys,89.81,14,Trey Garza,Galveston Ball,89.36,124.74,102.06,165.56,392.36,Single-ply,SBD,M
Boys,89.81,15,Marcus Dobson,Santa Fe,88,142.88,79.38,156.49,378.75,Single-ply,SBD,M
Boys,89.81,16,Joshua Flores,Conroe Caney Creek,89.81,142.88,83.91,149.69,376.48,Single-ply,SBD,M
Boys,89.81,17,Gabriel Winters,Beaumont Ozen,84.64,142.88,68.04,158.76,369.68,Single-ply,SBD,M
Boys,89.81,18,Carson Herbert,Galveston Ball,89.63,138.35,92.99,,231.33,Single-ply,SB,M
Boys,89.81,DQ,Charles Pickens,Beaumont Ozen,89.81,,,,,Single-ply,SB,M
Boys,89.81,DQ,Justin King,Beaumont Ozen,89.81,,,,,Single-ply,SB,M
Boys,89.81,DQ,Dominic Morris,Beaumont Ozen,89.81,,,,,Single-ply,SB,M
Boys,99.79,1,Jose Rodriguez #6,Dickinson,96.16,263.08,147.42,244.94,655.44,Single-ply,SBD,M
Boys,99.79,2,Jorge Villanueva,Pearland,98.25,244.94,142.88,249.48,637.3,Single-ply,SBD,M
Boys,99.79,3,Gabe Garcia,Conroe Caney Creek,94.98,226.8,142.88,217.72,587.4,Single-ply,SBD,M
Boys,99.79,4,Daniels Keyshon,La Marque,99.16,181.44,122.47,226.8,530.7,Single-ply,SBD,M
Boys,99.79,5,Josh Garcia #9,Pasadena Memorial,92.44,190.51,127.01,190.51,508.02,Single-ply,SBD,M
Boys,99.79,6,Brandon Haltom,Cleveland Tarkington,94.89,197.31,104.33,192.78,494.42,Single-ply,SBD,M
Boys,99.79,7,Ethan Robins,Conroe Caney Creek,97.34,238.14,95.25,147.42,480.81,Single-ply,SBD,M
Boys,99.79,8,Justin Stein,Alvin,96.43,185.97,108.86,181.44,476.27,Single-ply,SBD,M
Boys,99.79,9,Niaves Bradon,Pearland,95.44,176.9,120.2,163.29,460.4,Single-ply,SBD,M
Boys,99.79,10,Nathan Cabrera,Pasadena Memorial,96.43,195.04,81.65,176.9,453.59,Single-ply,SBD,M
Boys,99.79,11,Cobe Lane,Texas City,90.54,183.7,102.06,158.76,444.52,Single-ply,SBD,M
Boys,99.79,12,Michael Galvez,Bay City,97.79,181.44,102.06,151.95,435.45,Single-ply,SBD,M
Boys,99.79,13,Nathan Greak,Cleveland Tarkington,92.53,183.7,95.25,149.69,428.64,Single-ply,SBD,M
Boys,99.79,14,Kaleb Wisko,Santa Fe,94.8,167.83,102.06,156.49,426.38,Single-ply,SBD,M
Boys,99.79,15,Eduardo Maury,Beaumont Ozen,95.62,140.61,79.38,192.78,412.77,Single-ply,SBD,M
Boys,99.79,16,Albert Alfaro,Texas City,95.71,174.63,113.4,106.59,394.63,Single-ply,SBD,M
Boys,99.79,17,Cole Malloy,Beaumont West Brook,92.44,163.29,102.06,124.74,390.09,Single-ply,SBD,M
Boys,99.79,18,Cameron Duncan,Alvin,96.34,156.49,74.84,158.76,390.09,Single-ply,SBD,M
Boys,99.79,19,Trenton Dickey,Splendora,99.25,129.27,83.91,158.76,371.95,Single-ply,SBD,M
Boys,99.79,20,Desmond Jackson,Beaumont West Brook,91.9,165.56,,154.22,319.78,Single-ply,SD,M
Boys,99.79,21,Avian Cruces,La Marque,99.79,92.99,68.04,115.67,276.69,Single-ply,SBD,M
Boys,99.79,22,Josh Moore,Beaumont West Brook,97.61,,83.91,149.69,233.6,Single-ply,BD,M
Boys,99.79,DQ,Claude Conner,Beaumont Ozen,99.79,,,,,Single-ply,BD,M
Boys,99.79,DQ,Jamall Edwards,Beaumont Ozen,99.79,,,,,Single-ply,BD,M
Boys,99.79,DQ,Omari Foster,Beaumont Ozen,99.79,,,,,Single-ply,BD,M
Boys,99.79,DQ,Brentyn Rogers,Beaumont Ozen,99.79,,,,,Single-ply,BD,M
Boys,109.77,1,Daniel Parr,Dickinson,105.55,283.5,151.95,249.48,684.92,Single-ply,SBD,M
Boys,109.77,2,Tyler Ray,Santa Fe,107.23,249.48,151.95,238.14,639.57,Single-ply,SBD,M
Boys,109.77,3,David Alsip,Conroe Caney Creek,102.24,226.8,149.69,238.14,614.62,Single-ply,SBD,M
Boys,109.77,4,John Rinehart,Texas City,109.59,229.06,136.08,204.12,569.26,Single-ply,SBD,M
Boys,109.77,5,Michael Bush,Channelview,102.51,195.04,127.01,213.19,535.24,Single-ply,SBD,M
Boys,109.77,6,Isaiah Chance,Pearland Dawson,103.15,210.92,106.59,213.19,530.7,Single-ply,SBD,M
Boys,109.77,7,Michael McVay,Santa Fe,103.15,210.92,124.74,170.1,505.76,Single-ply,SBD,M
Boys,109.77,8,Steven Benton,Beaumont West Brook,108.23,183.7,117.93,181.44,483.08,Single-ply,SBD,M
Boys,109.77,9,Andrew Zaragoza,Channelview,105.96,183.7,86.18,185.97,455.86,Single-ply,SBD,M
Boys,109.77,10,Ryan Mouton,Beaumont West Brook,102.6,192.78,106.59,142.88,442.25,Single-ply,SBD,M
Boys,109.77,11,Christian McAuthur,Santa Fe,109.77,170.1,79.38,151.95,401.43,Single-ply,SBD,M
Boys,109.77,12,Richardson Trellis,Pearland,104.87,151.95,92.99,151.95,396.89,Single-ply,SBD,M
Boys,109.77,13,Brenton Howard,Beaumont West Brook,109.77,158.76,88.45,142.88,390.09,Single-ply,SBD,M
Boys,109.77,14,Ethan Allen,Pearland Dawson,102.87,197.31,,183.7,381.02,Single-ply,SD,M
Boys,109.77,15,Ivan Dewitt,Bay City,107.5,127.01,90.72,145.15,362.87,Single-ply,SBD,M
Boys,109.77,16,Austin Couhig,Cleveland Tarkington,109.23,129.27,74.84,151.95,356.07,Single-ply,SBD,M
Boys,109.77,17,Taylor Young #3,Beaumont Ozen,106.05,113.4,70.31,147.42,331.12,Single-ply,SBD,M
Boys,109.77,18,Zyon Brooks,La Marque,109.41,108.86,70.31,113.4,292.57,Single-ply,SBD,M
Boys,109.77,19,Frederick Herring,Beaumont Central,107.14,,111.13,142.88,254.01,Single-ply,BD,M
Boys,109.77,DQ,Donte Lawrence,Beaumont Ozen,109.77,,,,,Single-ply,BD,M
Boys,109.77,DQ,Neeairus Withers,Beaumont Ozen,109.77,,,,,Single-ply,BD,M
Boys,109.77,DQ,Terrance Jackson,Beaumont Ozen,108.5,,,,,Single-ply,BD,M
Boys,124.74,1,Marcus Garza,Conroe Caney Creek,114.94,283.5,174.63,256.28,714.41,Single-ply,SBD,M
Boys,124.74,2,Thomas Ratka,Alvin,124.74,278.96,170.1,226.8,675.85,Single-ply,SBD,M
Boys,124.74,3,Jesse Facundo,Pasadena Memorial,122.56,244.94,127.01,258.55,630.49,Single-ply,SBD,M
Boys,124.74,4,Brandon Rangel,Dickinson,123.83,267.62,113.4,235.87,616.89,Single-ply,SBD,M
Boys,124.74,5,Pedro Garcia,Alvin,123.65,226.8,136.08,226.8,589.67,Single-ply,SBD,M
Boys,124.74,6,Aaron Mata,Alvin,120.29,226.8,140.61,219.99,587.4,Single-ply,SBD,M
Boys,124.74,7,Payne He'Bert,Pearland Dawson,124.01,213.19,138.35,219.99,571.53,Single-ply,SBD,M
Boys,124.74,8,Armando Alaniz Jr,Dickinson,122.02,238.14,136.08,185.97,560.19,Single-ply,SBD,M
Boys,124.74,9,Nick Touch,Alvin,113.94,226.8,129.27,201.85,557.92,Single-ply,SBD,M
Boys,124.74,10,Marcus Fowler,Bay City,110.68,204.12,113.4,204.12,521.63,Single-ply,SBD,M
Boys,124.74,11,Jacob Jones,Cleveland Tarkington,116.66,210.92,120.2,172.37,503.49,Single-ply,SBD,M
Boys,124.74,12,Luis Delgado,Texas City,116.94,215.46,104.33,183.7,503.49,Single-ply,SBD,M
Boys,124.74,13,Iton Isiaih,Pearland,117.93,192.78,124.74,183.7,501.22,Single-ply,SBD,M
Boys,124.74,14,Corey Mojica,Beaumont West Brook,122.29,190.51,142.88,154.22,487.61,Single-ply,SBD,M
Boys,124.74,15,Joseph Rodriguez,Alvin,110.5,192.78,129.27,163.29,485.34,Single-ply,SBD,M
Boys,124.74,16,Ryan Greenwood,Beaumont West Brook,124.74,206.38,104.33,170.1,480.81,Single-ply,SBD,M
Boys,124.74,17,Samuel Anderson,Pearland Dawson,123.01,172.37,102.06,181.44,455.86,Single-ply,SBD,M
Boys,124.74,18,Calib Perez,Pearland Dawson,115.85,179.17,104.33,170.1,453.59,Single-ply,SBD,M
Boys,124.74,19,Kimball Jones,Beaumont West Brook,118.66,190.51,102.06,145.15,437.72,Single-ply,SBD,M
Boys,124.74,20,Nikolas Furntes,Texas City,113.76,158.76,104.33,156.49,419.57,Single-ply,SBD,M
Boys,124.74,21,Nathaniel Sandoval,Conroe Caney Creek,117.84,249.48,170.1,,419.57,Single-ply,SB,M
Boys,124.74,22,Matt Mercado,Cleveland Tarkington,115.48,172.37,90.72,151.95,415.04,Single-ply,SBD,M
Boys,124.74,23,Pattrick Coleman,Pearland Dawson,121.2,156.49,97.52,136.08,390.09,Single-ply,SBD,M
Boys,124.74,24,Darius Smith,Beaumont Ozen,120.11,181.44,68.04,136.08,385.55,Single-ply,SBD,M
Boys,124.74,25,Kenneth Cobb,La Marque,119.75,122.47,90.72,158.76,371.95,Single-ply,SBD,M
Boys,124.74,26,Donte Moore,La Marque,124.74,111.13,68.04,170.1,349.27,Single-ply,SBD,M
Boys,124.74,27,Sean Dillon,Galveston Ball,117.93,,122.47,,122.47,Single-ply,B,M
Boys,124.74,DQ,Jerome Harmon,Beaumont Ozen,124.74,,,,,Single-ply,B,M
Boys,124.74,DQ,Markel Martin,Beaumont Ozen,124.74,,,,,Single-ply,B,M
Boys,124.74+,1,Max Casas,Pearland Dawson,145.97,299.37,208.65,276.69,784.71,Single-ply,SBD,M
Boys,124.74+,2,Bernard Childs,Channelview,147.15,274.42,142.88,240.4,657.71,Single-ply,SBD,M
Boys,124.74+,3,Porterfield Jaret,Pearland,132.09,226.8,136.08,222.26,585.13,Single-ply,SBD,M
Boys,124.74+,4,Noah Barajas,Alvin,140.07,238.14,127.01,213.19,578.33,Single-ply,SBD,M
Boys,124.74+,5,Kendall Major,Beaumont West Brook,130.91,249.48,149.69,170.1,569.26,Single-ply,SBD,M
Boys,124.74+,6,Marcus White,Dickinson,135.99,238.14,120.2,204.12,562.45,Single-ply,SBD,M
Boys,124.74+,7,Peyton McCormick,Cleveland Tarkington,127.46,217.72,136.08,204.12,557.92,Single-ply,SBD,M
Boys,124.74+,8,Torrey Lastice,Dickinson,145.92,224.53,124.74,190.51,539.77,Single-ply,SBD,M
Boys,124.74+,9,Markale White,Dickinson,138.44,226.8,117.93,192.78,537.51,Single-ply,SBD,M
Boys,124.74+,10,Byron Henderson,Channelview,127.1,204.12,145.15,185.97,535.24,Single-ply,SBD,M
Boys,124.74+,11,Paula Vaipulu,Channelview,132.18,190.51,108.86,195.04,494.42,Single-ply,SBD,M
Boys,124.74+,12,Michael Flores #5,Conroe Caney Creek,151.05,215.46,113.4,161.03,489.88,Single-ply,SBD,M
Boys,124.74+,13,Micah Hare,Cleveland Tarkington,133.27,156.49,106.59,163.29,426.38,Single-ply,SBD,M
Boys,124.74+,14,Trenton Mikes,Santa Fe,126.19,165.56,90.72,151.95,408.23,Single-ply,SBD,M
Boys,124.74+,15,Daley Martin,Splendora,130.73,113.4,68.04,140.61,322.05,Single-ply,SBD,M
Boys,124.74+,16,Dillan Ahre,Cleveland Tarkington,171.46,197.31,113.4,,310.71,Single-ply,SB,M
