Name,Sex,BirthDate,Age,Equipment,Division,BodyweightKg,WeightClassKg,Squat1Kg,Squat2Kg,Squat3Kg,Squat4Kg,Best3SquatKg,Bench1Kg,Bench2Kg,Bench3Kg,Bench4Kg,Best3BenchKg,Deadlift1Kg,Deadlift2Kg,Deadlift3Kg,Deadlift4Kg,Best3DeadliftKg,TotalKg,Event,Place
Lorena Fernandez,F,1983-11-09,37,Raw,Open,65.3,67.5,95,102.5,107.5,,107.5,55,62.5,67.5,,67.5,110,127.5,-140,,127.5,302.5,SBD,1
Liz Micovich,F,1997-01-04,24,Raw,Open,58.1,60,95,102.5,110,,110,50,57.5,-60,,57.5,102.5,105,115,,115,282.5,SBD,1
Alli Heironimus,F,1987-09-29,33,Raw,Open,71.7,75,105,115,117.5,,117.5,60,70,-75,,70,115,125,137.5,,137.5,325,SBD,1
Tyler Glover #2,F,2006-12-08,14,Raw,T1,71.6,75,77.5,92.5,107.5,-115,107.5,50,55,60,,60,122.5,137.5,142.5,-145,142.5,310,SBD,1
Olivia Dubrow,F,2006-10-27,14,Raw,T1,73.9,75,50,60,65,,65,47.5,52.5,-55,,52.5,122.5,140,145,,145,262.5,SBD,2
Anya Kalnins,F,2000-04-22,21,Wraps,Juniors,62.7,67.5,122.5,-132.5,-132.5,,122.5,72.5,75,80,81,80,130,135,142.5,145,142.5,345,SBD,1
Katy Silvers,F,1981-06-08,40,Wraps,M1,125.2,90+,157.5,165,170,,170,70,75,77.5,,77.5,152.5,162.5,170,,170,417.5,SBD,1
Katy Silvers,F,1981-06-08,40,Wraps,Open,125.2,90+,157.5,165,170,,170,70,75,77.5,,77.5,152.5,162.5,170,,170,417.5,SBD,1
Katy Silvers,F,1981-06-08,40,Wraps,M1,125.2,90+,157.5,165,170,,170,,,,,,,,,,,170,S,2
Katy Silvers,F,1981-06-08,40,Wraps,Open,125.2,90+,157.5,165,170,,170,,,,,,,,,,,170,S,2
Katy Silvers,F,1981-06-08,40,Raw,M1,125.2,90+,,,,,,70,75,77.5,,77.5,,,,,,77.5,B,4
Katy Silvers,F,1981-06-08,40,Raw,Open,125.2,90+,,,,,,70,75,77.5,,77.5,,,,,,77.5,B,4
Emily Jackson,F,1990-05-09,31,Raw,Novice,89.3,90,,,,,,,,,,,87.5,105,110,,110,110,D,1
Katy Silvers,F,1981-06-08,40,Raw,M1,125.2,90+,,,,,,,,,,,152.5,162.5,170,,170,170,D,3
Katy Silvers,F,1981-06-08,40,Raw,Open,125.2,90+,,,,,,,,,,,152.5,162.5,170,,170,170,D,3
Marc Boyd,M,1992-01-10,29,Raw,MPF,87.1,90,175,182.5,192.5,,192.5,142.5,147.5,150,,150,220,237.5,242.5,,242.5,585,SBD,1
John Evers,M,1991-11-27,29,Raw,Open,80.3,82.5,142.5,152.5,-157.5,,152.5,100,110,115,,115,165,175,187.5,,187.5,455,SBD,1
Chris Stewart,M,2005-12-24,15,Raw,T1,81.6,82.5,67.5,85,102.5,112.5,102.5,45,57.5,60,62.5,60,102.5,107.5,117.5,120,117.5,280,SBD,1
David Doyle,M,2006-01-08,15,Raw,T1,92,100,92.5,107.5,125,,125,65,70,75,,75,142.5,157.5,-165,,157.5,357.5,SBD,1
Tim Klaus,M,2002-03-09,19,Raw,T3,65.2,67.5,140,147.5,157.5,,157.5,97.5,105,110,,110,145,152.5,160,,160,427.5,SBD,1
Doug Seamans,M,1980-04-16,41,Single-ply,Open,98.7,100,160,170,180,,180,95,105,-107.5,,105,165,172.5,185,,185,470,SBD,1
Tony Smith,M,1977-02-10,44,Single-ply,Open,100,100,120,127.5,145,,145,-117.5,117.5,120,,120,160,172.5,182.5,,182.5,447.5,SBD,2
Matt Gabbey,M,1998-10-22,22,Multi-ply,Open,72.2,75,192.5,200,-210,,200,100,-110,-110,,100,150,160,170,,170,470,SBD,1
Duke Dudley,M,1961-03-15,60,Raw,M5,109.1,110,,,,,,102.5,112.5,122.5,130,122.5,165,185,,,185,307.5,BD,1
Addison Williams,M,1991-07-10,30,Raw,Novice,86.5,90,,,,,,137.5,142.5,-155,,142.5,237.5,247.5,250,,250,392.5,BD,1
Chris Kim,M,2004-07-02,17,Raw,T2,68.9,75,105,-110,-110,,105,,,,,,,,,,,105,S,1
Chet Peters,M,1959-09-24,61,Raw,M5,73.8,75,,,,,,92.5,97.5,102.5,,102.5,,,,,,102.5,B,2
Chet Peters,M,1959-09-24,61,Raw,M5,73.8,75,,,,,,,,,,,70,107.5,137.5,,137.5,137.5,D,1
Andrew Letterman,M,1984-01-24,37,Raw,Open,104.8,110,,,,,,140,145,152.5,,152.5,,,,,,152.5,B,1
Andrew Letterman,M,1984-01-24,37,Raw,SM,104.8,110,,,,,,140,145,152.5,,152.5,,,,,,152.5,B,1
Jeremy Bost,M,1976-02-05,45,Multi-ply,M2,104.25,110,,,,,,-242.5,-242.5,242.5,,242.5,,,,,,242.5,B,1
Travis Rinnert,M,1972-12-19,48,Multi-ply,M2,123.6,125,,,,,,-245,250,-262.5,,250,,,,,,250,B,1
Joey Smith #1,M,1974-05-02,47,Multi-ply,M2,141.1,140+,,,,,,-370,-377.5,-377.5,,,,,,,,,B,DQ
Bill Gillespie,M,1959-09-27,61,Multi-ply,M5,141.1,140+,,,,,,-480,-480,-480,,,,,,,,,B,DQ
Brandon Lewis,M,1989-02-23,32,Multi-ply,Open,104.1,110,,,,,,-245,250,-260,,250,,,,,,250,B,1
Dillon Ledford,M,1994-09-23,26,Multi-ply,Open,105.5,110,,,,,,-245,-250,-250,,,,,,,,,B,DQ
Travis Rinnert,M,1972-12-19,48,Multi-ply,Open,123.6,125,,,,,,-245,250,-262.5,,250,,,,,,250,B,1
Bill Gillespie,M,1959-09-27,61,Multi-ply,Open,141.1,140+,,,,,,-480,-480,-480,,,,,,,,,B,DQ
Joey Smith #1,M,1974-05-02,47,Multi-ply,Open,141.1,140+,,,,,,-370,-377.5,-377.5,,,,,,,,,B,DQ
