Division,WeightClassKg,Place,Name,Team,BodyweightKg,Best3SquatKg,Best3BenchKg,Best3DeadliftKg,TotalKg,Equipment,Event,Sex
Boys,51.71,1,Adrian Garcia,DRIPPING SPRINGS,50.71,102.06,68.04,108.86,278.96,Single-ply,SBD,M
Boys,51.71,2,Rodrigo Hernandez,HILLSBORO,51.53,83.91,52.16,97.52,233.6,Single-ply,SBD,M
Boys,55.79,3,Edoardo Banone,GEORGETOWN,51.89,74.84,49.9,86.18,210.92,Single-ply,SBD,M
Boys,51.71,4,Tanner Hahn,Georgetown East View,48.26,52.16,34.02,90.72,176.9,Single-ply,SBD,M
Boys,51.71,DQ,Owen Mallard,GEORGETOWN,47.54,81.65,,,,Single-ply,SBD,M
Boys,55.79,1,Jesse Rodriguez,Pflugerville Hendrickson,55.61,136.08,70.31,142.88,349.27,Single-ply,SBD,M
Boys,55.79,2,Anthony Espinoza,Georgetown East View,54.88,83.91,54.43,108.86,247.21,Single-ply,SBD,M
Boys,55.79,3,Matt Pousson,Georgetown East View,53.52,81.65,56.7,97.52,235.87,Single-ply,SBD,M
Boys,55.79,DQ,Zach Reid,DRIPPING SPRINGS,54.25,102.06,,,,Single-ply,SBD,M
Boys,59.87,1,Miguel Valdez,Georgetown East View,59.6,156.49,92.99,179.17,428.64,Single-ply,SBD,M
Boys,67.13,2,Gary Mackey,Abbott,60.1,142.88,81.65,136.08,360.61,Single-ply,SBD,M
Boys,59.87,3,Jacob Acosta,SAN MARCOS,59.78,111.13,68.04,122.47,301.64,Single-ply,SBD,M
Boys,59.87,4,Colton Harris,Georgetown East View,58.33,95.25,49.9,102.06,247.21,Single-ply,SBD,M
Boys,67.13,1,Eduardo Lizardo,DEL VALLE,62.14,129.27,97.52,154.22,381.02,Single-ply,SBD,M
Boys,67.13,2,Anthony Ortegon,Georgetown East View,65.23,127.01,88.45,165.56,381.02,Single-ply,SBD,M
Boys,67.13,3,Hugo Chavez,HILLSBORO,66.22,145.15,68.04,158.76,371.95,Single-ply,SBD,M
Boys,67.13,4,Ben Remmington,DRIPPING SPRINGS,67.13,124.74,97.52,138.35,360.61,Single-ply,SBD,M
Boys,67.13,5,Kenny Miller,MANOR,62.96,113.4,88.45,133.81,335.66,Single-ply,SBD,M
Boys,67.13,6,Isaiah Leupold,GEORGETOWN,62.87,102.06,68.04,145.15,315.25,Single-ply,SBD,M
Boys,67.13,7,Paul Hatch,AUSTIN LAKE TRAVIS,61.14,104.33,70.31,111.13,285.76,Single-ply,SBD,M
Boys,67.13,8,James Price,DEL VALLE,65.86,95.25,61.23,117.93,274.42,Single-ply,SBD,M
Boys,67.13,9,Dustin May,Georgetown East View,61.42,92.99,52.16,117.93,263.08,Single-ply,SBD,M
Boys,67.13,DQ,Kevin Best,MANOR,66.59,95.25,,,,Single-ply,SBD,M
Boys,67.13,DQ,Eric Grasso,GEORGETOWN,66.95,,,,,Single-ply,SBD,M
Boys,67.13,DQ,Brennan Harty,FLORENCE,62.41,,,,,Single-ply,SBD,M
Boys,67.13,DQ,Erich Streuling,AUSTIN LAKE TRAVIS,61.33,120.2,,,,Single-ply,SBD,M
Boys,67.13,DQ,Blake Cavendar,DRIPPING SPRINGS,61.42,131.54,,,,Single-ply,SBD,M
Boys,74.84,1,Logan Hager,GEORGETOWN,70.85,176.9,104.33,167.83,449.06,Single-ply,SBD,M
Boys,74.84,2,David Coolidge,MANOR,74.21,158.76,92.99,183.7,435.45,Single-ply,SBD,M
Boys,82.1,3,Eduardo Ortiz,HILLSBORO,75.02,156.49,88.45,179.17,424.11,Single-ply,SBD,M
Boys,74.84,4,Geoffery Ali,Pflugerville Hendrickson,67.68,156.49,92.99,167.83,417.3,Single-ply,SBD,M
Boys,74.84,5,Cody Patterson,Bastrop Cedar Creek,72.94,149.69,92.99,158.76,401.43,Single-ply,SBD,M
Boys,74.84,6,Daniel Simpson,AUSTIN LAKE TRAVIS,71.49,136.08,95.25,163.29,394.63,Single-ply,SBD,M
Boys,74.84,7,Brennan Morgan,DRIPPING SPRINGS,74.48,138.35,88.45,142.88,369.68,Single-ply,SBD,M
Boys,74.84,8,Josh Tiah,MANOR,68.4,129.27,90.72,142.88,362.87,Single-ply,SBD,M
Boys,74.84,9,Cutter Callan,FLORENCE,73.57,138.35,86.18,131.54,356.07,Single-ply,SBD,M
Boys,74.84,10,Christian Gonzalez,AUSTIN LAKE TRAVIS,73.75,99.79,68.04,122.47,290.3,Single-ply,SBD,M
Boys,82.1,11,Nick Corona,GEORGETOWN,75.02,115.67,63.5,102.06,281.23,Single-ply,SBD,M
Boys,74.84,12,Tim Mendoza,SAN MARCOS,72.85,83.91,56.7,108.86,249.48,Single-ply,SBD,M
Boys,74.84,DQ,Clayton Fullington,FLORENCE,74.48,136.08,,,,Single-ply,SBD,M
Boys,82.1,1,Rhil Dougherty,DRIPPING SPRINGS,80.65,226.8,142.88,249.48,619.15,Single-ply,SBD,M
Boys,82.1,2,David Beltran,Georgetown East View,81.19,174.63,115.67,170.1,460.4,Single-ply,SBD,M
Boys,82.1,3,Phillip Wilson,Pflugerville Hendrickson,79.83,170.1,111.13,176.9,458.13,Single-ply,SBD,M
Boys,82.1,4,Scott Thompson,Georgetown East View,76.29,163.29,97.52,185.97,446.79,Single-ply,SBD,M
Boys,82.1,5,Quavon Stevens,DEL VALLE,75.21,165.56,113.4,163.29,442.25,Single-ply,SBD,M
Boys,82.1,6,Tye Hill,Abbott,80.29,163.29,104.33,161.03,428.64,Single-ply,SBD,M
Boys,82.1,7,Garrett Draper,AUSTIN LAKE TRAVIS,76.75,174.63,97.52,151.95,424.11,Single-ply,SBD,M
Boys,82.1,8,Chase Heffernan,GEORGETOWN,81.83,165.56,102.06,154.22,421.84,Single-ply,SBD,M
Boys,89.81,9,Adrian Jimenez,Georgetown East View,82.19,174.63,99.79,145.15,419.57,Single-ply,SBD,M
Boys,82.1,10,Bradley Austin,GEORGETOWN,80.74,149.69,92.99,158.76,401.43,Single-ply,SBD,M
Boys,82.1,11,Garret Pluhar,FLORENCE,76.07,142.88,79.38,142.88,365.14,Single-ply,SBD,M
Boys,82.1,12,James Ball,DEL VALLE,78.02,120.2,92.99,142.88,356.07,Single-ply,SBD,M
Boys,82.1,13,Willie Bonilla,FLORENCE,81.1,124.74,61.23,136.08,322.05,Single-ply,SBD,M
Boys,82.1,14,Rene Velasquez,SAN MARCOS,76.38,102.06,72.57,122.47,297.1,Single-ply,SBD,M
Boys,82.1,15,Justin Matthews,Abbott,76.57,92.99,56.7,97.52,247.21,Single-ply,SBD,M
Boys,82.1,DQ,Daniel Rangel,DEL VALLE,78.02,124.74,,,,Single-ply,SBD,M
Boys,82.1,DQ,Breon Kelly,MANOR,78.83,151.95,,,,Single-ply,SBD,M
Boys,82.1,DQ,Chukie Ojiyi,Pflugerville Hendrickson,78.65,226.8,122.47,,,Single-ply,SBD,M
Boys,89.81,1,Jj Johnson,Abbott,89.81,170.1,124.74,260.82,555.65,Single-ply,SBD,M
Boys,89.81,2,Nick Graner,DRIPPING SPRINGS,89.45,179.17,120.2,201.85,501.22,Single-ply,SBD,M
Boys,89.81,3,Joseph Frengel,AUSTIN LAKE TRAVIS,88.36,183.7,124.74,190.51,498.95,Single-ply,SBD,M
Boys,89.81,4,Ray Hall,MANOR,86,142.88,117.93,219.99,480.81,Single-ply,SBD,M
Boys,89.81,5,Matt Ray,GEORGETOWN,88,183.7,111.13,176.9,471.74,Single-ply,SBD,M
Boys,89.81,6,Gage Parker,GEORGETOWN,88.9,172.37,124.74,156.49,453.59,Single-ply,SBD,M
Boys,89.81,7,Derrick Juptner,GEORGETOWN,87.82,161.03,97.52,145.15,403.7,Single-ply,SBD,M
Boys,89.81,8,Garrett Womack,AUSTIN LAKE TRAVIS,83.64,151.95,97.52,151.95,401.43,Single-ply,SBD,M
Boys,89.81,9,John Henry,MANOR,83.73,129.27,81.65,165.56,376.48,Single-ply,SBD,M
Boys,89.81,10,Jonathan Willett,Georgetown East View,88.72,127.01,92.99,142.88,362.87,Single-ply,SBD,M
Boys,99.79,11,John Bonnet,FLORENCE,90.04,133.81,88.45,136.08,358.34,Single-ply,SBD,M
Boys,89.81,12,Tony McDonald,FLORENCE,85.82,131.54,81.65,124.74,337.93,Single-ply,SBD,M
Boys,89.81,13,Jake Rounsavall,HILLSBORO,89.81,117.93,86.18,120.2,324.32,Single-ply,SBD,M
Boys,89.81,14,Gabe Podniesinski,AUSTIN LAKE TRAVIS,84.82,102.06,77.11,133.81,312.98,Single-ply,SBD,M
Boys,89.81,15,Chris Jackson #12,HILLSBORO,84.82,79.38,68.04,136.08,283.5,Single-ply,SBD,M
Boys,89.81,16,Gavin Hernandez,SAN MARCOS,82.74,102.06,70.31,108.86,281.23,Single-ply,SBD,M
Boys,89.81,17,Jose Hernandez #5,San Marcos,88.45,70.31,74.84,102.06,247.21,Single-ply,SBD,M
Boys,89.81,DQ,Joseph Rodriguez,Bastrop Cedar Creek,89.81,,,,,Single-ply,SBD,M
Boys,89.81,DQ,Gorgonio De Los Reyes,Georgetown East View,86.45,188.24,,,,Single-ply,SBD,M
Boys,89.81,DQ,Ben Purcell,GEORGETOWN,86.73,149.69,,,,Single-ply,SBD,M
Boys,99.79,1,Zach Smith #13,DRIPPING SPRINGS,95.25,238.14,129.27,226.8,594.21,Single-ply,SBD,M
Boys,99.79,2,Eduardo Cruz Rubio,HILLSBORO,92.44,208.65,124.74,201.85,535.24,Single-ply,SBD,M
Boys,99.79,3,Omar Smith,Pflugerville Hendrickson,92.99,199.58,106.59,208.65,514.83,Single-ply,SBD,M
Boys,99.79,4,Ryan Buehler,DRIPPING SPRINGS,91.26,185.97,138.35,174.63,498.95,Single-ply,SBD,M
Boys,99.79,5,David Quinton,Pflugerville Hendrickson,96.89,183.7,111.13,204.12,498.95,Single-ply,SBD,M
Boys,99.79,6,Erick Fowler,MANOR,92.08,161.03,102.06,174.63,437.72,Single-ply,SBD,M
Boys,109.77,7,Ishmael Rameriz,HILLSBORO,99.88,156.49,95.25,181.44,433.18,Single-ply,SBD,M
Boys,99.79,8,Cory Weirermann,FLORENCE,97.11,149.69,95.25,142.88,387.82,Single-ply,SBD,M
Boys,99.79,9,Adam Solis,MANOR,91.26,136.08,90.72,158.76,385.55,Single-ply,SBD,M
Boys,99.79,10,Dameion Cavazos,GEORGETOWN,98.79,161.03,104.33,106.59,371.95,Single-ply,SBD,M
Boys,99.79,11,Conner Owens,GEORGETOWN,99.79,142.88,86.18,136.08,365.14,Single-ply,SBD,M
Boys,99.79,12,Joe Barron,FLORENCE,96.16,131.54,86.18,133.81,351.53,Single-ply,SBD,M
Boys,99.79,13,Ethan Ray,GEORGETOWN,98.88,127.01,70.31,117.93,315.25,Single-ply,SBD,M
Boys,99.79,14,Chase Travis,GEORGETOWN,99.79,136.08,79.38,,215.46,Single-ply,SB,M
Boys,99.79,DQ,Michael Hanneman,AUSTIN WESTLAKE,94.53,,,,,Single-ply,SB,M
Boys,99.79,DQ,Jayden Hutchins,AUSTIN LAKE TRAVIS,99.79,,,,,Single-ply,SB,M
Boys,99.79,DQ,Jorge Riojas,SAN MARCOS,99.79,,,,,Single-ply,SB,M
Boys,99.79,DQ,Abel Ramirez,Bastrop Cedar Creek,99.79,,,,,Single-ply,SB,M
Boys,109.77,1,Avery McThompson,DRIPPING SPRINGS,102.06,215.46,142.88,219.99,578.33,Single-ply,SBD,M
Boys,109.77,2,Marcus Mesta,MANOR,104.78,238.14,124.74,215.46,578.33,Single-ply,SBD,M
Boys,109.77,3,Arnold Moreno,Georgetown East View,103.42,217.72,115.67,208.65,542.04,Single-ply,SBD,M
Boys,109.77,4,Jeffrey Gibbs,AUSTIN LAKE TRAVIS,107.32,170.1,106.59,161.03,437.72,Single-ply,SBD,M
Boys,109.77,5,Dominic Pastucci,Pflugerville Hendrickson,108.59,147.42,102.06,156.49,405.97,Single-ply,SBD,M
Boys,109.77,6,Harrison Schuler,GEORGETOWN,101.88,115.67,74.84,111.13,301.64,Single-ply,SBD,M
Boys,109.77,DQ,Sammy Ochoa,AUSTIN LAKE TRAVIS,109.77,,,,,Single-ply,SBD,M
Boys,109.77,DQ,Craig Conklin,GEORGETOWN,106.14,165.56,,,,Single-ply,SBD,M
Boys,109.77,DQ,Andy Flores,Pflugerville Hendrickson,107.5,272.16,,,,Single-ply,SBD,M
Boys,124.74,1,CJ Sanchez,AUSTIN WESTLAKE,116.12,238.14,113.4,226.8,578.33,Single-ply,SBD,M
Boys,124.74,2,Erik Zavala,HILLSBORO,112.94,226.8,113.4,235.87,576.06,Single-ply,SBD,M
Boys,124.74,3,Manuel Banda,MANOR,116.39,215.46,136.08,219.99,571.53,Single-ply,SBD,M
Boys,124.74,4,Jeremy Rodriguez #1,Bastrop Cedar Creek,120.66,204.12,127.01,208.65,539.77,Single-ply,SBD,M
Boys,124.74,5,Michael Chairez,Georgetown East View,114.12,204.12,158.76,172.37,535.24,Single-ply,SBD,M
Boys,124.74,6,Jimmy DeLeon,MANOR,121.56,204.12,113.4,192.78,510.29,Single-ply,SBD,M
Boys,124.74,7,Aaron Johnson #15,GeoRGETOWN,115.48,215.46,113.4,172.37,501.22,Single-ply,SBD,M
Boys,124.74,8,Paul Crawford,Georgetown East View,110.68,219.99,124.74,154.22,498.95,Single-ply,SBD,M
Boys,124.74,9,Isaac Baldwin,AUSTIN WESTLAKE,113.4,181.44,102.06,190.51,474,Single-ply,SBD,M
Boys,124.74,10,Paul Arculeo,Pflugerville Hendrickson,113.22,151.95,111.13,181.44,444.52,Single-ply,SBD,M
Boys,124.74,11,Andrew Cobus,Pflugerville Hendrickson,115.67,176.9,95.25,163.29,435.45,Single-ply,SBD,M
Boys,124.74,12,Byron King,Georgetown East View,111.58,147.42,102.06,170.1,419.57,Single-ply,SBD,M
Boys,124.74,13,James Loyola,Georgetown East View,120.2,156.49,90.72,172.37,419.57,Single-ply,SBD,M
Boys,124.74,14,Dylan Sillero,SAN MARCOS,114.31,156.49,86.18,165.56,408.23,Single-ply,SBD,M
Boys,124.74,15,Marquis Gardner,MANOR,121.11,129.27,102.06,165.56,396.89,Single-ply,SBD,M
Boys,124.74,16,Rafael Castaneda,HILLSBORO,112.26,149.69,81.65,158.76,390.09,Single-ply,SBD,M
Boys,124.74+,1,Tre Thomas,Pflugerville Hendrickson,171.91,308.44,149.69,240.4,698.53,Single-ply,SBD,M
Boys,124.74+,2,Drandon Donnermeyer,MANOR,127.91,215.46,136.08,197.31,548.85,Single-ply,SBD,M
Boys,124.74+,3,Anthony Herrera,DEL VALLE,142.07,183.7,106.59,165.56,455.86,Single-ply,SBD,M
Boys,124.74+,4,Nick Dela Rosa,SAN MARCOS,133.81,120.2,65.77,124.74,310.71,Single-ply,SBD,M
Boys,124.74+,DQ,Dominic Brown,Georgetown East View,134.26,235.87,,,,Single-ply,SBD,M
Boys,124.74+,DQ,Jacob Navarro,FLORENCE,131.09,226.8,,,,Single-ply,SBD,M
Boys,124.74+,DQ,Kade Clapper,GEORGETOWN,132.45,165.56,,,,Single-ply,SBD,M
