Place,Name,BirthYear,Country,BodyweightKg,Squat1Kg,Squat2Kg,Squat3Kg,Best3SquatKg,Bench1Kg,Bench2Kg,Bench3Kg,Best3BenchKg,Deadlift1Kg,Deadlift2Kg,Deadlift3Kg,Best3DeadliftKg,TotalKg,WeightClassKg,Division,Event,Sex,Equipment,BirthDate
1,Jakub Bońkowski,2004,Poland,52.6,150,160,167.5,167.5,62.5,67.5,70,70,180,195,200,200,437.5,53,Sub-Juniors,SBD,M,Single-ply,
2,Oleksii Halahan,2003,Ukraine,53,150,167.5,-175,167.5,82.5,87.5,-95,87.5,140,-155,-160,140,395,53,Sub-Juniors,SBD,M,Single-ply,
1,Boris Bukatka,2003,Kazakhstan,58.1,190,205,-215,205,115,122.5,130,130,190,205,-210,205,540,59,Sub-Juniors,SBD,M,Single-ply,
2,Rozmatbek Azizullayev,2004,Kazakhstan,58.2,160,170,180,180,115,122.5,130,130,160,170,180,180,490,59,Sub-Juniors,SBD,M,Single-ply,
3,Szymon Kwiecień,2003,Poland,58.8,115,-135,-145,115,85,95,-100,95,130,150,162.5,162.5,372.5,59,Sub-Juniors,SBD,M,Single-ply,
1,Rozmatkhozha Tursynbayev,2005,Kazakhstan,62.95,170,-182.5,182.5,182.5,130,137.5,142.5,142.5,180,190,-200,190,515,66,Sub-Juniors,SBD,M,Single-ply,
DQ,Andrei Iacobescu,2003,Romania,63.05,172.5,-185,192.5,192.5,-100,-110,-110,,190,-205,205,205,,66,Sub-Juniors,SBD,M,Single-ply,
DQ,Zaid Al-Muttairi,2003,Iraq,65.25,190,192.5,200,200,-105,-105,-105,,210,217.5,-225,217.5,,66,Sub-Juniors,SBD,M,Single-ply,
1,Dmytro Sivakov,2003,Ukraine,73.5,225,235,-242.5,235,145,-150,150,150,217.5,237.5,245,245,630,74,Sub-Juniors,SBD,M,Single-ply,
2,Illia Sytnik,2005,Ukraine,72.3,225,237.5,245,245,155,165,172.5,172.5,192.5,202.5,210,210,627.5,74,Sub-Juniors,SBD,M,Single-ply,
3,Abbas Al-Sarray,2004,Iraq,72.6,210,225,-237.5,225,135,142.5,147.5,147.5,225,-235,-237.5,225,597.5,74,Sub-Juniors,SBD,M,Single-ply,
4,David Horník,2004,Czechia,72.7,160,170,-180,170,-145,145,-150,145,160,172.5,-185,172.5,487.5,74,Sub-Juniors,SBD,M,Single-ply,
1,Hussein Mohan,2003,Iraq,81.25,225,242.5,252.5,252.5,140,160,-170,160,240,255,260,260,672.5,83,Sub-Juniors,SBD,M,Single-ply,
2,Valentin Muntyan,2003,Ukraine,80.35,235,245,255,255,155,162.5,167.5,167.5,220,232.5,-245,232.5,655,83,Sub-Juniors,SBD,M,Single-ply,
3,Gabriel Ryś,2004,Poland,82.35,205,-235,235,235,100,135,150,150,190,210,-215,210,595,83,Sub-Juniors,SBD,M,Single-ply,
1,Dmytro Rozhanskyi,2004,Ukraine,91.95,-305,305,,305,165,175,180,180,257.5,282.5,-290,282.5,767.5,93,Sub-Juniors,SBD,M,Single-ply,
2,Illya Kuchma,2004,Ukraine,90.05,285,300,-310,300,180,-190,190,190,255,-275,-277.5,255,745,93,Sub-Juniors,SBD,M,Single-ply,
3,Grigorii Dudarev,2003,Russia,92.3,252.5,260,265,265,165,170,172.5,172.5,242.5,250,257.5,257.5,695,93,Sub-Juniors,SBD,M,Single-ply,
4,Hasan Al-Shumoos,2003,Iraq,90.7,240,265,-275,265,155,172.5,175,175,-230,-230,230,230,670,93,Sub-Juniors,SBD,M,Single-ply,
1,Ivan Parshin,2003,Russia,103.6,280,290,295,295,150,157.5,162.5,162.5,270,285,-300,285,742.5,105,Sub-Juniors,SBD,M,Single-ply,
2,Anatolii Zaiets,2003,Ukraine,95.5,-240,240,-265,240,165,-175,-175,165,250,260,265,265,670,105,Sub-Juniors,SBD,M,Single-ply,
3,Abbas Al-Abedi,2004,Iraq,102.25,250,265,-280,265,160,172.5,-180,172.5,205,220,225,225,662.5,105,Sub-Juniors,SBD,M,Single-ply,
4,Marius Tutunaru,2003,Romania,102.6,205,-215,220,220,140,-150,-162.5,140,-207.5,207.5,222.5,222.5,582.5,105,Sub-Juniors,SBD,M,Single-ply,
1,Oleksii Lisenko,2003,Ukraine,111.45,275,290,302.5,302.5,185,200,210,210,220,245,257.5,257.5,770,120,Sub-Juniors,SBD,M,Single-ply,
2,Zainulabdeen Al-Omairi,2003,Iraq,106.5,250,275,285,285,130,145,155,155,230,245,255,255,695,120,Sub-Juniors,SBD,M,Single-ply,
1,Ilia Sherstnev,2003,Russia,138.75,375,-390,-390,375,140,240,260,260,280,300,307.5,307.5,942.5,120+,Sub-Juniors,SBD,M,Single-ply,
2,Mustafa Al-Turfi,2003,Iraq,120.8,230,255,265,265,120,130,155,155,200,230,240,240,660,120+,Sub-Juniors,SBD,M,Single-ply,
3,Dmytro Vovchok,2003,Ukraine,126.9,-240,240,262.5,262.5,160,175,-190,175,190,200,205,205,642.5,120+,Sub-Juniors,SBD,M,Single-ply,
4,Jakub Zavodny,2004,Slovakia,130.6,-220,220,230,230,180,190,-192.5,190,200,210,-215,210,630,120+,Sub-Juniors,SBD,M,Single-ply,
1,Kirill Shumskikh,2002,Russia,52.7,170,177.5,182.5,182.5,120,125,-127.5,125,145,-150,150,150,457.5,53,Juniors,SBD,M,Single-ply,
2,Andrei Georgescu,2002,Romania,52.9,152.5,165,172.5,172.5,100,105,-107.5,105,155,165,177.5,177.5,455,53,Juniors,SBD,M,Single-ply,
3,Muhtada Al-Helli,1998,Iraq,52.55,152.5,165,170,170,80,87.5,-92.5,87.5,170,182.5,-185,182.5,440,53,Juniors,SBD,M,Single-ply,
1,Dmitrii Evdokimov,2000,Russia,58.6,210,-217.5,217.5,217.5,120,-125,125,125,210,-227.5,-227.5,210,552.5,59,Juniors,SBD,M,Single-ply,
2,Cristian Moise,2001,Romania,57.9,180,195,200,200,105,110,115,115,180,190,-205,190,505,59,Juniors,SBD,M,Single-ply,
3,Sajjad Sarray,2002,Iraq,57.95,160,175,-180,175,-90,90,100,100,180,190,212.5,212.5,487.5,59,Juniors,SBD,M,Single-ply,
1,Ilya Marichev,2001,Russia,65.8,295,305,312.5,312.5,205,212.5,218,218,-285,285,-300,285,815.5,66,Juniors,SBD,M,Single-ply,
2,Aleksei Rikhter,1998,Russia,65.85,230,250,265,265,190,202.5,-212.5,202.5,220,-235,-235,220,687.5,66,Juniors,SBD,M,Single-ply,
3,Radosław Dębicki,2001,Poland,65.85,220,232.5,237.5,237.5,-140,140,-145,140,210,222.5,-230,222.5,600,66,Juniors,SBD,M,Single-ply,
1,Vladislav Iushchenko,2002,Russia,67.75,270,-280,280,280,165,170,-172.5,170,240,-252.5,252.5,252.5,702.5,74,Juniors,SBD,M,Single-ply,
2,Redha Al-Sarray,2001,Iraq,73.5,-280,285,-300,285,135,142.5,147.5,147.5,270,-280,-280,270,702.5,74,Juniors,SBD,M,Single-ply,
3,Hubert Kończak,1998,Poland,73.45,240,-260,260,260,-165,165,172.5,172.5,-245,245,260,260,692.5,74,Juniors,SBD,M,Single-ply,
1,Evgenii Stepanov,2001,Russia,82.85,300,320,-330,320,210,220,230,230,260,275,-282.5,275,825,83,Juniors,SBD,M,Single-ply,
2,Daniyar Shaukatov,2000,Kazakhstan,82.95,250,270,-280,270,-270,270,-293,270,215,-230,-230,215,755,83,Juniors,SBD,M,Single-ply,
3,Kevin Schmid,2000,Austria,81.9,250,-257.5,257.5,257.5,190,200,205,205,220,230,-235,230,692.5,83,Juniors,SBD,M,Single-ply,
1,Moises Villon,1999,Ecuador,92.3,325,350,370,370,225,-250,250,250,265,-280,-280,265,885,93,Juniors,SBD,M,Single-ply,
2,Ondřej Šíp,2002,Czechia,92.75,305,315,-322.5,315,-190,190,-200,190,270,285,-300,285,790,93,Juniors,SBD,M,Single-ply,
3,Ali Gharbawee,2001,Iraq,90.05,300,320,-330,320,120,140,160,160,240,265,-272.5,265,745,93,Juniors,SBD,M,Single-ply,
4,Filip Jakubec Kristian,2001,Slovakia,92.85,270,-280,280,280,-170,170,182.5,182.5,260,267.5,272.5,272.5,735,93,Juniors,SBD,M,Single-ply,
5,Shoya Kaneko,2000,Japan,92.65,-265,-265,265,265,170,180,182.5,182.5,150,210,-235,210,657.5,93,Juniors,SBD,M,Single-ply,
6,Catalin Hangan,2002,Romania,90.35,180,190,200,200,-142.5,-142.5,142.5,142.5,190,202.5,-210,202.5,545,93,Juniors,SBD,M,Single-ply,
1,Mateusz Szymkiewicz,2001,Poland,104.6,335,345,-350,345,-235,235,-240,235,260,-270,275,275,855,105,Juniors,SBD,M,Single-ply,
2,Paul Bejenariu,2001,Romania,98.4,250,270,-290,270,225,232.5,240,240,240,260,-267.5,260,770,105,Juniors,SBD,M,Single-ply,
DQ,Azizbek Amanov,2001,Kazakhstan,104.25,-275,-285,-285,,180,190,,190,255,265,-282.5,265,,105,Juniors,SBD,M,Single-ply,
DQ,Patrick Loesel,2000,Germany,104.65,-310,-310,-310,,210,217.5,227.5,227.5,265,275,285,285,,105,Juniors,SBD,M,Single-ply,
1,Aleksandr Kuzmin,1998,Russia,119.35,345,355,362.5,362.5,210,217.5,-222.5,217.5,300,320,335,335,915,120,Juniors,SBD,M,Single-ply,
2,Dmytro Holinei,2001,Ukraine,118.5,325,-345,-350,325,205,217.5,-225,217.5,280,297.5,312.5,312.5,855,120,Juniors,SBD,M,Single-ply,
3,Martin Prokop,1999,Czechia,119.7,320,-332.5,-332.5,320,230,240,247.5,247.5,260,272.5,287.5,287.5,855,120,Juniors,SBD,M,Single-ply,
4,Mariusz Tworkowski,1998,Poland,109.85,320,-350,350,350,210,227.5,-237.5,227.5,260,275,-285,275,852.5,120,Juniors,SBD,M,Single-ply,
5,Ameer Ismael,1999,Iraq,119.3,280,300,310,310,180,200,-220,200,270,-285,290,290,800,120,Juniors,SBD,M,Single-ply,
6,Dominik Plaskonis,2000,Slovakia,118.6,300,315,-332.5,315,200,-215,-217.5,200,265,-272.5,-272.5,265,780,120,Juniors,SBD,M,Single-ply,
1,Semen Dukshanin,2000,Russia,138.9,375,395,410,410,260,270,277.5,277.5,285,305,322.5,322.5,1010,120+,Juniors,SBD,M,Single-ply,
2,Alexandru Cataramba,2001,Romania,133.15,-290,-290,290,290,225,235,-250,235,200,230,-250,230,755,120+,Juniors,SBD,M,Single-ply,
DQ,Ahmed Al-Murshidawee,2001,Iraq,125.55,-350,350,-370,350,-190,-190,,,,,,,,120+,Juniors,SBD,M,Single-ply,
DQ,Oun Adleehmawi,2002,Iraq,144.5,-350,-370,-370,,-190,-190,,,,,,,,120+,Juniors,SBD,M,Single-ply,
1,Daria Chernyshova,2004,Ukraine,42.85,90,100,-107.5,100,45,50,55,55,90,97.5,-105,97.5,252.5,43,Sub-Juniors,SBD,F,Single-ply,
1,Mariia Polianska,2003,Ukraine,46.7,140,157.5,160.5,160.5,-75,75,-90.5,75,135,150,-160.5,150,385.5,47,Sub-Juniors,SBD,F,Single-ply,
1,Anzhelika Oboturova,2003,Russia,51.35,135,142.5,147.5,147.5,90,95,-97.5,95,125,130,-137.5,130,372.5,52,Sub-Juniors,SBD,F,Single-ply,
2,Valeriya Yavorska,2003,Ukraine,51.75,135,145,152.5,152.5,-82.5,85,-95,85,120,127.5,-137.5,127.5,365,52,Sub-Juniors,SBD,F,Single-ply,
3,Wiktoria Cichocka,2004,Poland,51.25,120,-122.5,132.5,132.5,70,-75,75,75,110,120,130,130,337.5,52,Sub-Juniors,SBD,F,Single-ply,
4,Denisa Turková,2003,Czechia,50.05,135,-140,140,140,75,-77.5,-77.5,75,110,115,120,120,335,52,Sub-Juniors,SBD,F,Single-ply,
5,Alexandra Cazacu,2003,Romania,51.45,120,130,-137.5,130,40,45,-50,45,125,130,132.5,132.5,307.5,52,Sub-Juniors,SBD,F,Single-ply,
6,Sabina Oproiu,2005,Romania,50.9,90,100,-110,100,65,-75,-80,65,90,-95,-95,90,255,52,Sub-Juniors,SBD,F,Single-ply,
1,Adrianna Borowczyk,2003,Poland,56.25,145,155,-160,155,65,72.5,-77.5,72.5,142.5,150,157.5,157.5,385,57,Sub-Juniors,SBD,F,Single-ply,
2,Veronika Bordiuh,2003,Ukraine,56.3,-160,160,-167.5,160,87.5,-95,-97.5,87.5,130,137.5,-142.5,137.5,385,57,Sub-Juniors,SBD,F,Single-ply,
3,Yuliia Pita,2005,Ukraine,53.45,90,105,110,110,40,-52.5,-52.5,40,90,97.5,-100,97.5,247.5,57,Sub-Juniors,SBD,F,Single-ply,
1,Olga Filatova,2003,Russia,61.8,167.5,177.5,187.5,187.5,-95,-95,95,95,145,152.5,-157.5,152.5,435,63,Sub-Juniors,SBD,F,Single-ply,
2,Anita Kolesnyk,2003,Ukraine,60.4,160,175,185,185,65,-77.5,-77.5,65,145,160,-185,160,410,63,Sub-Juniors,SBD,F,Single-ply,
3,Emilia Gryczan,2006,Poland,57.75,105,112.5,120,120,50,57.5,62.5,62.5,110,117.5,120,120,302.5,63,Sub-Juniors,SBD,F,Single-ply,
1,Anastasia Artyomova,2006,Ukraine,68.15,160,172.5,-185,172.5,105,-117.5,125,125,130,142.5,145,145,442.5,69,Sub-Juniors,SBD,F,Single-ply,
2,Olívia Lapšanská,2003,Slovakia,66.3,-140,140,152.5,152.5,67.5,-72.5,72.5,72.5,132.5,142.5,-147.5,142.5,367.5,69,Sub-Juniors,SBD,F,Single-ply,
3,Beatrice Teighiu-Jurj,2003,Romania,68.95,70,-80,85,85,30,35,37.5,37.5,70,80,85,85,207.5,69,Sub-Juniors,SBD,F,Single-ply,
1,Ailen Mendoza,2003,Argentina,75.15,165,175,182.5,182.5,85,92.5,97.5,97.5,175,-191,-191,175,455,76,Sub-Juniors,SBD,F,Single-ply,
2,Anastasiya Astapova,2003,Ukraine,75.65,150,162.5,167.5,167.5,77.5,87.5,-95,87.5,135,145,152.5,152.5,407.5,76,Sub-Juniors,SBD,F,Single-ply,
1,Wiktoria Sieczka,2003,Poland,76.05,-195,200,-210,200,95,-120,-120,95,150,-162.5,172.5,172.5,467.5,84,Sub-Juniors,SBD,F,Single-ply,
2,Eliise Mikomägi,2003,Estonia,76.05,155,170,180,180,90,95,-100,95,170,185,-195,185,460,84,Sub-Juniors,SBD,F,Single-ply,
3,Darta Berzina,2003,Latvia,77.25,120,130,-137.5,130,60,-67.5,70,70,115,122.5,-137.5,122.5,322.5,84,Sub-Juniors,SBD,F,Single-ply,
1,Alina Nikohosian,2005,Ukraine,84.35,157.5,170,-180,170,-90,90,102.5,102.5,127.5,137.5,142.5,142.5,415,84+,Sub-Juniors,SBD,F,Single-ply,
1,Dariia Holovko,2000,Ukraine,42.65,95,102.5,-107.5,102.5,50,-55,-55,50,102.5,110,-112.5,110,262.5,43,Juniors,SBD,F,Single-ply,
2,Oksana Kozmenchuk,2001,Ukraine,42.25,100,105,110,110,55,57.5,-60,57.5,85,92.5,-97.5,92.5,260,43,Juniors,SBD,F,Single-ply,
1,Zuzanna Kula,1999,Poland,46.9,180,188,-191,188,105,-111,-111,105,150,-160,-160,150,443,47,Juniors,SBD,F,Single-ply,
2,Teodora Toma,1999,Romania,46.5,100,115,-122.5,115,30,40,47.5,47.5,80,102.5,120,120,282.5,47,Juniors,SBD,F,Single-ply,
DQ,Tetiana Zhydkova,2002,Ukraine,46.4,132.5,-137.5,-137.5,132.5,-80,-80,-80,,95,110,-120,110,,47,Juniors,SBD,F,Single-ply,
1,Nathalia Varela Vallejos Laura,1998,Colombia,51.6,110,-120,120,120,70,80,85,85,130,140,-150,140,345,52,Juniors,SBD,F,Single-ply,
1,Hanna Dekermendzhy,1999,Ukraine,56.85,155,-165,170,170,65,102.5,-110,102.5,125,135,-152.5,135,407.5,57,Juniors,SBD,F,Single-ply,
2,Kovacs-Gyorkos Melania,1998,Hungary,54.85,-130,130,135,135,42.5,60,-65,60,120,-130,-130,120,315,57,Juniors,SBD,F,Single-ply,
DQ,Olga Ponomareva,2000,Russia,56.8,167.5,175,-180,175,-115,-115,-115,,140,150,155,155,,57,Juniors,SBD,F,Single-ply,
1,Ekaterina Nazarova,2000,Russia,60.1,167.5,175,182.5,182.5,120,127.5,132.5,132.5,-155,155,162.5,162.5,477.5,63,Juniors,SBD,F,Single-ply,
2,Marthe Tjelta,1999,Norway,61.25,175,185,190,190,102.5,107.5,110,110,167.5,175,-180,175,475,63,Juniors,SBD,F,Single-ply,
3,Anita Slobodian,2001,Ukraine,62.6,170,177.5,-185,177.5,95,100,105,105,165,175,-182.5,175,457.5,63,Juniors,SBD,F,Single-ply,
1,Anna Vasileva,2001,Russia,68.5,180,190,195,195,-152.5,152.5,-157.5,152.5,150,160,170,170,517.5,69,Juniors,SBD,F,Single-ply,
DQ,Anastasiya Antonyuk,2002,Ukraine,66,190,-202.5,202.5,202.5,-130,-130,-130,,140,160,-170,160,,69,Juniors,SBD,F,Single-ply,
1,Sonja Stefanie Krüger,1999,Germany,71.1,-245,250,257.5,257.5,155,180,-185,180,190,200,205,205,642.5,76,Juniors,SBD,F,Single-ply,
2,Agata Sitko,2002,Poland,75.95,215,-230,235,235,165,170,175,175,210,218,-233,218,628,76,Juniors,SBD,F,Single-ply,
3,Anna Vozmilova,2001,Russia,75.65,180,-185,185,185,127.5,132.5,-135,132.5,150,162.5,170,170,487.5,76,Juniors,SBD,F,Single-ply,
4,Katerina Pinionzh,1998,Ukraine,71.55,160,-175,-185,160,110,-120,120,120,140,160,167.5,167.5,447.5,76,Juniors,SBD,F,Single-ply,
1,Alona Borshchevska,1999,Ukraine,77.3,-160,160,180,180,115,125,132.5,132.5,150,167.5,-177.5,167.5,480,84,Juniors,SBD,F,Single-ply,
2,Patricia Slizova,2001,Slovakia,79.55,145,160,170,170,85,90,95,95,120,135,137.5,137.5,402.5,84,Juniors,SBD,F,Single-ply,
3,Laura Dabu,1998,Romania,76.5,125,135,150,150,55,65,-75,65,110,120,132.5,132.5,347.5,84,Juniors,SBD,F,Single-ply,
4,Maria Burduf,2000,Romania,77.8,115,127.5,-137.5,127.5,70,-75,75,75,115,125,-135,125,327.5,84,Juniors,SBD,F,Single-ply,
1,Karolina Kołata,1999,Poland,92.25,190,-195,-195,190,130,135,-140,135,160,170,-175,170,495,84+,Juniors,SBD,F,Single-ply,
2,Klaudia Murza,2002,Poland,106.6,180,190,-205,190,105,115,-127.5,115,140,150,-160,150,455,84+,Juniors,SBD,F,Single-ply,
1,Aleksei Bakhirev,1981,Russia,72.75,210,220,222.5,222.5,175,185,-192.5,185,210,222.5,-235,222.5,630,74,Masters 1,SBD,M,Single-ply,
2,Jakub Golak,1980,Poland,73.75,220,230,240,240,110,112.5,-125,112.5,210,222.5,-235,222.5,575,74,Masters 1,SBD,M,Single-ply,
3,Radovan Rak,1976,Slovakia,73.65,140,200,-220,200,137.5,145,-150,145,175,-177.5,-210,175,520,74,Masters 1,SBD,M,Single-ply,
1,Massimiliano Buccioni,1976,Italy,81.45,277.5,292.5,302.5,302.5,177.5,185,-190,185,265,282.5,-295,282.5,770,83,Masters 1,SBD,M,Single-ply,
2,Alexander Nikitin,1975,Russia,82.7,260,-270,270,270,170,175,180,180,250,-260,-260,250,700,83,Masters 1,SBD,M,Single-ply,
3,Ilia Kolesov,1977,Russia,75.75,225,240,250,250,150,160,165,165,225,240,250,250,665,83,Masters 1,SBD,M,Single-ply,
4,Martin Turek,1972,Czechia,82.35,-225,225,235,235,185,-200,-200,185,195,205,-237.5,205,625,83,Masters 1,SBD,M,Single-ply,
5,Marcel Rusnák,1974,Slovakia,81.85,160,-190,,160,-172.5,-175,175,175,180,190,-200,190,525,83,Masters 1,SBD,M,Single-ply,
1,Sturla Abrahamsen Maeland,1980,Norway,92.6,315,-322.5,322.5,322.5,230,-235,-235,230,265,285,287.5,287.5,840,93,Masters 1,SBD,M,Single-ply,
2,Marcos Sanchéz,1974,Ecuador,86.45,290,300,310,310,-195,195,,195,270,280,285,285,790,93,Masters 1,SBD,M,Single-ply,
3,Václav Patočka,1977,Czechia,92.05,280,292.5,300,300,205,212.5,-215,212.5,245,255,265,265,777.5,93,Masters 1,SBD,M,Single-ply,
4,Viktor Cherkasheninov,1977,Ukraine,91.95,270,290,-300,290,-230,230,-240,230,220,-237.5,-247.5,220,740,93,Masters 1,SBD,M,Single-ply,
5,Nicola D'Ambrosio,1977,Italy,88.95,260,275,290,290,160,-165,-165,160,250,260,267.5,267.5,717.5,93,Masters 1,SBD,M,Single-ply,
1,Volodymyr Rozhanskyi,1980,Ukraine,104.25,300,315,325,325,190,-202.5,202.5,202.5,262.5,-280,290,290,817.5,105,Masters 1,SBD,M,Single-ply,
2,Petro Olar,1977,Ukraine,102.55,305,315,-325,315,215,225,232.5,232.5,247.5,257.5,267.5,267.5,815,105,Masters 1,SBD,M,Single-ply,
3,Cristian Turco,1975,Italy,103.5,280,290,-300,290,200,205,210,210,250,255,-260,255,755,105,Masters 1,SBD,M,Single-ply,
4,Rafał Lipka,1975,Poland,103.3,240,250,,250,180,190,,190,245,257.5,270,270,710,105,Masters 1,SBD,M,Single-ply,
DQ,Daniel Balaita,1974,Romania,98.65,-290,-290,290,290,-222.5,-222.5,-222.5,,200,,,200,,105,Masters 1,SBD,M,Single-ply,
1,Sorin Cazacu,1973,Romania,118.15,300,310,320,320,225,232.5,-237.5,232.5,230,235,245,245,797.5,120,Masters 1,SBD,M,Single-ply,
2,Eryk Walczak,1977,Poland,105.1,-275,-275,275,275,220,230,235,235,210,230,240,240,750,120,Masters 1,SBD,M,Single-ply,
3,Jim Derksen,1974,Canada,110.95,-265,-270,270,270,172.5,180,-182.5,180,255,275,-302.5,275,725,120,Masters 1,SBD,M,Single-ply,
4,Joergen Michael Rasmussen,1973,Denmark,109.2,225,240,-250,240,-170,170,180,180,185,205,-215,205,625,120,Masters 1,SBD,M,Single-ply,
DQ,Robert Černovský,1978,Czechia,114.1,280,290,-295,290,-180,-180,-185,,230,237.5,-242.5,237.5,,120,Masters 1,SBD,M,Single-ply,
1,Jaroslav Šoukal,1972,Czechia,174,325,345,,345,277.5,282.5,287.5,287.5,270,280,290,290,922.5,120+,Masters 1,SBD,M,Single-ply,
2,Jan Pinc,1973,Czechia,135.7,307.5,317.5,-325,317.5,270,277.5,282.5,282.5,260,270,285,285,885,120+,Masters 1,SBD,M,Single-ply,
1,Lewis Noppers,1970,Canada,65.7,-210,210,-222.5,210,105,-107.5,115,115,225,245.5,255.5,255.5,580.5,66,Masters 2,SBD,M,Single-ply,
1,Peep Päll,1970,Estonia,71.9,160,175,185,185,105,115,-125,115,180,200,215,215,515,74,Masters 2,SBD,M,Single-ply,
2,Vidmantas Baublys,1965,Lithuania,67.4,145,155,162.5,162.5,115,122.5,125,125,150,160,170,170,457.5,74,Masters 2,SBD,M,Single-ply,
1,Alimbek Rakhimov,1966,Kyrgyzstan,82.75,-240,240,260,260,140,150,-160,150,240,260,280,280,690,83,Masters 2,SBD,M,Single-ply,
1,Kim Dahl Hansen,1971,Denmark,92.55,-275,275,-307.5,275,175,-182.5,182.5,182.5,255,277.5,-290,277.5,735,93,Masters 2,SBD,M,Single-ply,
1,Mario Schnurr,1966,Germany,96.05,265,282.5,-300,282.5,187.5,195,205,205,260,272.5,280,280,767.5,105,Masters 2,SBD,M,Single-ply,
2,Hasecic Vladan,1970,Serbia,98.8,260,-270,270,270,-170,-170,170,170,245,255,-260,255,695,105,Masters 2,SBD,M,Single-ply,
3,Morten Sørig,1969,Denmark,104.05,225,-245,262.5,262.5,175,-187.5,190,190,200,-230,-237.5,200,652.5,105,Masters 2,SBD,M,Single-ply,
1,Zoltán Kanát,1962,Czechia,117.1,270,290,300,300,220,225,230,230,250,270,282.5,282.5,812.5,120,Masters 2,SBD,M,Single-ply,
2,Lucian Otoiu,1969,Romania,117.35,220,230,-240,230,-210,-210,210,210,200,222.5,227.5,227.5,667.5,120,Masters 2,SBD,M,Single-ply,
3,Rimantas Simokatis,1965,Lithuania,105.4,200,220,,220,145,-185,-210,145,180,200,-225,200,565,120,Masters 2,SBD,M,Single-ply,
1,Ronny Andersen,1964,Norway,123.3,260,272.5,285,285,-220,220,-225,220,255,270,272.5,272.5,777.5,120+,Masters 2,SBD,M,Single-ply,
2,Wim Wamsteeker,1969,Netherlands,132.9,265,277.5,282.5,282.5,170,175,177.5,177.5,240,257.5,272.5,272.5,732.5,120+,Masters 2,SBD,M,Single-ply,
3,Radoi Avram,1971,Romania,123.4,-190,-190,190,190,155,160,165,165,160,180,190,190,545,120+,Masters 2,SBD,M,Single-ply,
DQ,Valentin Pătru,1968,Romania,132.5,270,285,,285,-120,-155,-155,,225,240,-260,240,,120+,Masters 2,SBD,M,Single-ply,
1,Štefan Koľšovský,1961,Slovakia,58.6,175,-177.5,182.5,182.5,135,-140,-140,135,140,-147.5,147.5,147.5,465,59,Masters 3,SBD,M,Single-ply,
1,Michael Wimmer,1961,Germany,64.25,100,110,120,120,85,90,95,95,160,170,180,180,395,66,Masters 3,SBD,M,Single-ply,
2,Marian Piwowarczyk,1961,Poland,64,90,100,-112.5,100,90,100,105,105,150,-160,-180,150,355,66,Masters 3,SBD,M,Single-ply,
1,Allen Ottolangui,1960,UK,73.55,210,225,-233.5,225,120,125,-127.5,125,190,200,207.5,207.5,557.5,74,Masters 3,SBD,M,Single-ply,
2,Jan Sahlgren,1960,Denmark,73.8,-200,-200,200,200,-120,120,-127.5,120,192.5,205,-217.5,205,525,74,Masters 3,SBD,M,Single-ply,
3,Antonio Campillo Aráez,1958,Spain,71.4,160,180,-185,180,110,120,-127.5,120,180,202.5,-215,202.5,502.5,74,Masters 3,SBD,M,Single-ply,
1,Wim Bevers,1960,Netherlands,82.7,175,190,-202.5,190,105,110,115,115,190,205,-217.5,205,510,83,Masters 3,SBD,M,Single-ply,
1,Józef Gromek,1958,Poland,91.3,230,240,250,250,-155,-155,155,155,240,250,,250,655,93,Masters 3,SBD,M,Single-ply,
2,Michal Sekot,1961,Czechia,92.2,200,220,232.5,232.5,160,167.5,175,175,200,210,220,220,627.5,93,Masters 3,SBD,M,Single-ply,
3,Kim Salby,1961,Denmark,92.4,75,100,110,110,175,177.5,188.5,188.5,100,150,180,180,478.5,93,Masters 3,SBD,M,Single-ply,
1,Bakyt Kerimbekov,1961,Kyrgyzstan,101.45,-270,270,-291,270,-225,-225,225,225,215,225,-252.5,225,720,105,Masters 3,SBD,M,Single-ply,
1,Vidar Alexander Ringvold,1955,Norway,112.95,200,-210,-210,200,-200,200,-225,200,150,-152.5,-152.5,150,550,120,Masters 3,SBD,M,Single-ply,
1,Antanas Micius,1951,Lithuania,71.3,140,150,157.5,157.5,100,107.5,-110,107.5,160,170,182.5,182.5,447.5,74,Masters 4,SBD,M,Single-ply,
2,Jacques Beauverger,1946,France,70.95,120,-130,-130,120,80,85,-90,85,165,175,180,180,385,74,Masters 4,SBD,M,Single-ply,
1,Janos Fabri,1945,Hungary,81.7,150,160,165,165,70,75,77.5,77.5,220,230,,230,472.5,83,Masters 4,SBD,M,Single-ply,
2,Heino Maiste,1949,Estonia,75.05,125,140,152.5,152.5,70,80,82.5,82.5,150,180,-192.5,180,415,83,Masters 4,SBD,M,Single-ply,
1,Mihkel Laurits,1944,Estonia,101.35,130,150,170,170,100,-140,-140,100,170,190,,190,460,105,Masters 4,SBD,M,Single-ply,
1,Allan Fuglsang,1950,Denmark,108.15,60,120,140,140,100,160,-175,160,100,170,190,190,490,120,Masters 4,SBD,M,Single-ply,
1,Danielle Hussey,1976,Canada,56.25,140,150,157.5,157.5,80,-85,-85,80,135,145,-150,145,382.5,57,Masters 1,SBD,F,Single-ply,
1,Michela Gubernati,1981,Italy,61.9,170,-180,180,180,87.5,-92.5,-92.5,87.5,165,175,190,190,457.5,63,Masters 1,SBD,F,Single-ply,
DQ,Kathleen Compagnie,1980,Belgium,62.75,142.5,147.5,-152.5,147.5,-107.5,-107.5,-107.5,,125,140,150,150,,63,Masters 1,SBD,F,Single-ply,
1,Kathrine Holmgaard Bak,1981,Denmark,65.55,155,170,182.5,182.5,-100,100,-110,100,212.5,225,233,233,515.5,69,Masters 1,SBD,F,Single-ply,
1,Danuta Golubiewska,1974,Poland,74.95,155,165,180,180,75,-100,-100,75,150,160,-170,160,415,76,Masters 1,SBD,F,Single-ply,
1,Aleksandra Iudintseva,1972,Russia,92.3,145,155,162.5,162.5,120,130,-142.5,130,140,150,157.5,157.5,450,84+,Masters 1,SBD,F,Single-ply,
1,Elena Borgatti,1969,Italy,45.7,135,-142.5,-142.5,135,57.5,62.5,-67.5,62.5,130,152.5,-165.5,152.5,350,47,Masters 2,SBD,F,Single-ply,
1,Anna Stenghel,1968,Italy,50.75,137.5,147.5,155.5,155.5,77.5,-85,-85,77.5,137.5,147.5,155,155,388,52,Masters 2,SBD,F,Single-ply,
2,Olga Bychkova,1966,Russia,51.2,135,140,145,145,-77.5,-77.5,77.5,77.5,-155,155,-166,155,377.5,52,Masters 2,SBD,F,Single-ply,
1,Eva Buxbom,1969,Denmark,55.9,160,170,174,174,90,-95,95,95,165,175,-183.5,175,444,57,Masters 2,SBD,F,Single-ply,
1,Maureen Gordon,1964,UK,61.65,-105,105,115,115,92.5,-97.5,-97.5,92.5,120,130,140,140,347.5,63,Masters 2,SBD,F,Single-ply,
2,Teresa Palmisano,1967,Italy,58.6,110,117.5,122.5,122.5,52.5,55,57.5,57.5,125,-130,-130,125,305,63,Masters 2,SBD,F,Single-ply,
3,Tone Glomstein,1964,Norway,62.5,100,-107.5,-107.5,100,80,85,-95,85,90,-100,100,100,285,63,Masters 2,SBD,F,Single-ply,
1,Gro-Berit Stavheim,1964,Norway,68.8,135,145,150,150,60,-65,-65,60,125,135,-155,135,345,69,Masters 2,SBD,F,Single-ply,
2,Florence Leccese,1969,France,64.3,120,-130,-130,120,62.5,67.5,70,70,110,117.5,122.5,122.5,312.5,69,Masters 2,SBD,F,Single-ply,
1,Giedrė Vidžiūnienė,1966,Lithuania,72.65,-140,140,145,145,50,70,75,75,140,150,162.5,162.5,382.5,76,Masters 2,SBD,F,Single-ply,
1,Lucica Olah,1955,Romania,66.4,110,115,,115,-50,52.5,55,55,110,120,132.5,132.5,302.5,69,Masters 3,SBD,F,Single-ply,
